{
    "E_j01": {
        "amount": 7,
        "tasks": [
            "Apply for jobs",
            "Confirm receipt",
            "Negotiate interview",
            "Enter probation",
            "Rate company",
            "Review after 1 year",
            "Become permanent"
        ]
    },
    "G_g01": {
        "amount": 7,
        "tasks": [
            "Send invitations",
            "Find games",
            "Appoint date",
            "Download games",
            "Find beer",
            "Buy beer",
            "Enjoy party"
        ]
    },
    "G_g03": {
        "amount": 9,
        "tasks": [
            "Check battle.net account",
            "Select payment method",
            "Enter credit card information",
            "Enter IBAN and BIC numbers",
            "Log into game",
            "Select realm, race and class",
            "Enter character names",
            "Get confirmation",
            "Get selfies"
        ]
    },
    "M_g01": {
        "amount": 8,
        "tasks": [
            "Send sketches",
            "Instruct artist",
            "Choose plastic color",
            "Check stock",
            "Order plastic",
            "Heat up printer",
            "Generate gcode",
            "Print model"
        ]
    },
    "M_g02": {
        "amount": 9,
        "tasks": [
            "Develop basic design",
            "Order Lego sets",
            "Sort parts",
            "Build subcomponents",
            "Test subcomponents",
            "Assemble subcomponents",
            "Reorder parts",
            "Redesign subcomponents",
            "Rebuild subcomponents"
        ]
    },
    "M_j01": {
        "amount": 7,
        "tasks": [
            "Order parts",
            "Inspect parts",
            "Assemble parts",
            "Send updates",
            "Produce saw",
            "Send saw",
            "Produce order"
        ]
    },
    "M_j02": {
        "amount": 13,
        "tasks": [
            "Produce airplanes",
            "Pimp interior",
            "Choose bars",
            "Choose seats",
            "Choose colors",
            "Choose water",
            "Manufacture parts",
            "Assemble interior",
            "Test flight",
            "Create protocol",
            "Send protocol",
            "Deliver plane",
            "Confirm delivery"
        ]
    },
    "M_j03": {
        "amount": 7,
        "tasks": [
            "Query web shops",
            "Find parts",
            "Compare prices",
            "Order parts",
            "Reorder parts",
            "Build",
            "Write mail"
        ]
    },
    "M_k05": {
        "amount": 10,
        "tasks": [
            "Collect requirements",
            "Send to architect",
            "Refine draft",
            "Create material list",
            "Order materials",
            "Send messages",
            "Build house",
            "Send invitations",
            "Create attendee list",
            "Buy snacks"
        ]
    },
    "R_g01": {
        "amount": 8,
        "tasks": [
            "Enter model and what is broken",
            "Receive list of materials and tools",
            "Order parts",
            "Contact friends",
            "Receive instructions",
            "Fix phone",
            "Send review/video",
            "Send to expert"
        ]
    },
    "R_j01": {
        "amount": 7,
        "tasks": [
            "Collect information",
            "Calculate OEE",
            "Check value",
            "Stop machine",
            "Send email",
            "Continue measuring",
            "Stop process"
        ]
    },
    "R_j02": {
        "amount": 8,
        "tasks": [
            "Enter machine type",
            "Enter serial number",
            "Input values",
            "Press buttons",
            "Collect values",
            "Show results",
            "Ask questions",
            "Reckon results"
        ]
    },
    "R_j03": {
        "amount": 8,
        "tasks": [
            "Describe symptoms",
            "Send case details",
            "Select service facility",
            "Make appointment",
            "Arrive at time",
            "Repair fridge",
            "Confirm OK",
            "Rate service facility"
        ]
    },
    "R_j04": {
        "amount": 7,
        "tasks": [
            "Check car registration",
            "Notify user",
            "Enter car problems",
            "Send status updates",
            "Pay via app",
            "Enter repair success",
            "Enter next service time"
        ]
    },
    "V_g01": {
        "amount": 8,
        "tasks": [
            "Receive order",
            "Ask for menu",
            "Prepare drink",
            "Ask for fries/wedges",
            "Prepare fries/wedges",
            "Prepare burger",
            "Give status updates",
            "Deliver via conveyor belt"
        ]
    },
    "X_g03": {
        "amount": 10,
        "tasks": [
            "Select starting block",
            "Run 5km",
            "Measure time",
            "Train",
            "Get starting number",
            "Find transportation",
            "Run and drink",
            "Receive final time",
            "Enter data",
            "Collect data"
        ]
    },
    "E_j04": {
        "amount": 6,
        "tasks": [
            "Enter participate topic",
            "Enter experience and hobbies",
            "Accept/deny offers",
            "Write status updates",
            "Recommend company",
            "Send tweets"
        ]
    },
    "G_j01": {
        "amount": 7,
        "tasks": [
            "Find out resources",
            "Create tools",
            "Collect preferences",
            "Start farming",
            "Notify milestones",
            "Update materials",
            "Brag/send materials"
        ]
    },
    "V_k08": {
        "amount": 9,
        "tasks": [
            "Login",
            "Select products",
            "Add to cart",
            "Save product",
            "Check payment",
            "Enter payment data",
            "Enter shipping address",
            "Confirm payment",
            "Finish order"
        ]
    },
    "V_k09": {
        "amount": 8,
        "tasks": [
            "Read order",
            "Check stock",
            "Reorder",
            "Demand penalty",
            "Register stock",
            "Request courier",
            "Pack products",
            "Ship products"
        ]
    },
    "X_g01": {
        "amount": 9,
        "tasks": [
            "Select course",
            "Check account",
            "Check university",
            "Register account",
            "Activate account",
            "Log in",
            "Complete registration",
            "Provide payment",
            "Receive ticket"
        ]
    }
}