{
    "E_j01": [
        {
            "orig_tasks_model": 11,
            "orig_tasks_chat": 8,
            "tasks_model": 9,
            "tasks_chat": 8,
            "aver_score": 0.7317696081267463
        },
        {
            "orig_tasks_model": 10,
            "orig_tasks_chat": 8,
            "tasks_model": 5,
            "tasks_chat": 5,
            "aver_score": 0.7320608019828796
        },
        {
            "orig_tasks_model": 11,
            "orig_tasks_chat": 8,
            "tasks_model": 9,
            "tasks_chat": 6,
            "aver_score": 0.8253590729501512
        },
        {
            "orig_tasks_model": 9,
            "orig_tasks_chat": 8,
            "tasks_model": 8,
            "tasks_chat": 5,
            "aver_score": 0.7916073352098465
        },
        {
            "orig_tasks_model": 13,
            "orig_tasks_chat": 8,
            "tasks_model": 8,
            "tasks_chat": 5,
            "aver_score": 0.7542165219783783
        },
        {
            "orig_tasks_model": 18,
            "orig_tasks_chat": 8,
            "tasks_model": 14,
            "tasks_chat": 7,
            "aver_score": 0.7594687810965947
        },
        {
            "orig_tasks_model": 9,
            "orig_tasks_chat": 8,
            "tasks_model": 5,
            "tasks_chat": 4,
            "aver_score": 0.843626856803894
        },
        {
            "orig_tasks_model": 10,
            "orig_tasks_chat": 8,
            "tasks_model": 6,
            "tasks_chat": 5,
            "aver_score": 0.6787114044030508
        },
        {
            "orig_tasks_model": 19,
            "orig_tasks_chat": 8,
            "tasks_model": 12,
            "tasks_chat": 7,
            "aver_score": 0.7916380862394968
        },
        {
            "orig_tasks_model": 12,
            "orig_tasks_chat": 8,
            "tasks_model": 8,
            "tasks_chat": 6,
            "aver_score": 0.8119386062026024
        },
        {
            "orig_tasks_model": 10,
            "orig_tasks_chat": 8,
            "tasks_model": 5,
            "tasks_chat": 4,
            "aver_score": 0.7936022043228149
        }
    ],
    "G_g01": [
        {
            "orig_tasks_model": 13,
            "orig_tasks_chat": 7,
            "tasks_model": 8,
            "tasks_chat": 5,
            "aver_score": 0.6353898271918297
        },
        {
            "orig_tasks_model": 10,
            "orig_tasks_chat": 7,
            "tasks_model": 9,
            "tasks_chat": 6,
            "aver_score": 0.7443660298983256
        },
        {
            "orig_tasks_model": 8,
            "orig_tasks_chat": 7,
            "tasks_model": 6,
            "tasks_chat": 4,
            "aver_score": 0.7236768106619517
        },
        {
            "orig_tasks_model": 13,
            "orig_tasks_chat": 7,
            "tasks_model": 7,
            "tasks_chat": 4,
            "aver_score": 0.721691335950579
        },
        {
            "orig_tasks_model": 7,
            "orig_tasks_chat": 7,
            "tasks_model": 5,
            "tasks_chat": 3,
            "aver_score": 0.7395461320877075
        },
        {
            "orig_tasks_model": 11,
            "orig_tasks_chat": 7,
            "tasks_model": 10,
            "tasks_chat": 6,
            "aver_score": 0.7110142171382904
        },
        {
            "orig_tasks_model": 7,
            "orig_tasks_chat": 7,
            "tasks_model": 5,
            "tasks_chat": 3,
            "aver_score": 0.5919323563575745
        },
        {
            "orig_tasks_model": 8,
            "orig_tasks_chat": 7,
            "tasks_model": 1,
            "tasks_chat": 1,
            "aver_score": 0.6487362384796143
        }
    ],
    "G_g03": [
        {
            "orig_tasks_model": 18,
            "orig_tasks_chat": 10,
            "tasks_model": 15,
            "tasks_chat": 9,
            "aver_score": 0.7536505142847697
        },
        {
            "orig_tasks_model": 13,
            "orig_tasks_chat": 10,
            "tasks_model": 11,
            "tasks_chat": 8,
            "aver_score": 0.8209421201185747
        },
        {
            "orig_tasks_model": 7,
            "orig_tasks_chat": 10,
            "tasks_model": 7,
            "tasks_chat": 4,
            "aver_score": 0.7882310918399266
        },
        {
            "orig_tasks_model": 20,
            "orig_tasks_chat": 10,
            "tasks_model": 14,
            "tasks_chat": 9,
            "aver_score": 0.783656895160675
        },
        {
            "orig_tasks_model": 14,
            "orig_tasks_chat": 10,
            "tasks_model": 11,
            "tasks_chat": 9,
            "aver_score": 0.855761939829046
        },
        {
            "orig_tasks_model": 12,
            "orig_tasks_chat": 10,
            "tasks_model": 12,
            "tasks_chat": 7,
            "aver_score": 0.7682459503412247
        },
        {
            "orig_tasks_model": 15,
            "orig_tasks_chat": 10,
            "tasks_model": 13,
            "tasks_chat": 9,
            "aver_score": 0.7894685451801007
        },
        {
            "orig_tasks_model": 15,
            "orig_tasks_chat": 10,
            "tasks_model": 14,
            "tasks_chat": 8,
            "aver_score": 0.7616531465734754
        }
    ],
    "M_g01": [
        {
            "orig_tasks_model": 6,
            "orig_tasks_chat": 9,
            "tasks_model": 2,
            "tasks_chat": 2,
            "aver_score": 0.6912906765937805
        },
        {
            "orig_tasks_model": 13,
            "orig_tasks_chat": 9,
            "tasks_model": 7,
            "tasks_chat": 4,
            "aver_score": 0.7240424496786935
        },
        {
            "orig_tasks_model": 14,
            "orig_tasks_chat": 9,
            "tasks_model": 7,
            "tasks_chat": 6,
            "aver_score": 0.6823464461735317
        },
        {
            "orig_tasks_model": 14,
            "orig_tasks_chat": 9,
            "tasks_model": 8,
            "tasks_chat": 6,
            "aver_score": 0.6998289152979851
        },
        {
            "orig_tasks_model": 12,
            "orig_tasks_chat": 9,
            "tasks_model": 7,
            "tasks_chat": 6,
            "aver_score": 0.6695102112633842
        },
        {
            "orig_tasks_model": 10,
            "orig_tasks_chat": 9,
            "tasks_model": 7,
            "tasks_chat": 6,
            "aver_score": 0.6628950238227844
        },
        {
            "orig_tasks_model": 16,
            "orig_tasks_chat": 9,
            "tasks_model": 12,
            "tasks_chat": 7,
            "aver_score": 0.6673603703578314
        },
        {
            "orig_tasks_model": 0,
            "orig_tasks_chat": 9,
            "tasks_model": 0,
            "tasks_chat": 0,
            "aver_score": 0
        },
        {
            "orig_tasks_model": 9,
            "orig_tasks_chat": 9,
            "tasks_model": 7,
            "tasks_chat": 4,
            "aver_score": 0.6561079280717033
        },
        {
            "orig_tasks_model": 5,
            "orig_tasks_chat": 9,
            "tasks_model": 5,
            "tasks_chat": 3,
            "aver_score": 0.6759090542793273
        },
        {
            "orig_tasks_model": 12,
            "orig_tasks_chat": 9,
            "tasks_model": 8,
            "tasks_chat": 6,
            "aver_score": 0.7751868963241577
        }
    ],
    "M_g02": [
        {
            "orig_tasks_model": 16,
            "orig_tasks_chat": 6,
            "tasks_model": 13,
            "tasks_chat": 4,
            "aver_score": 0.6855650360767658
        },
        {
            "orig_tasks_model": 12,
            "orig_tasks_chat": 6,
            "tasks_model": 9,
            "tasks_chat": 4,
            "aver_score": 0.6715265048874749
        },
        {
            "orig_tasks_model": 9,
            "orig_tasks_chat": 6,
            "tasks_model": 6,
            "tasks_chat": 4,
            "aver_score": 0.7234771152337393
        },
        {
            "orig_tasks_model": 12,
            "orig_tasks_chat": 6,
            "tasks_model": 8,
            "tasks_chat": 4,
            "aver_score": 0.637799084186554
        },
        {
            "orig_tasks_model": 10,
            "orig_tasks_chat": 6,
            "tasks_model": 9,
            "tasks_chat": 6,
            "aver_score": 0.6894283758269416
        },
        {
            "orig_tasks_model": 10,
            "orig_tasks_chat": 6,
            "tasks_model": 6,
            "tasks_chat": 4,
            "aver_score": 0.7419905364513397
        },
        {
            "orig_tasks_model": 14,
            "orig_tasks_chat": 6,
            "tasks_model": 6,
            "tasks_chat": 4,
            "aver_score": 0.7122434477011362
        },
        {
            "orig_tasks_model": 10,
            "orig_tasks_chat": 6,
            "tasks_model": 7,
            "tasks_chat": 4,
            "aver_score": 0.6815913915634155
        },
        {
            "orig_tasks_model": 10,
            "orig_tasks_chat": 6,
            "tasks_model": 6,
            "tasks_chat": 4,
            "aver_score": 0.655634731054306
        }
    ],
    "M_j01": [
        {
            "orig_tasks_model": 12,
            "orig_tasks_chat": 5,
            "tasks_model": 7,
            "tasks_chat": 5,
            "aver_score": 0.714449371610369
        },
        {
            "orig_tasks_model": 10,
            "orig_tasks_chat": 5,
            "tasks_model": 6,
            "tasks_chat": 5,
            "aver_score": 0.7169105311234792
        },
        {
            "orig_tasks_model": 13,
            "orig_tasks_chat": 5,
            "tasks_model": 9,
            "tasks_chat": 4,
            "aver_score": 0.6055746277173361
        },
        {
            "orig_tasks_model": 12,
            "orig_tasks_chat": 5,
            "tasks_model": 7,
            "tasks_chat": 4,
            "aver_score": 0.6243200983319964
        },
        {
            "orig_tasks_model": 19,
            "orig_tasks_chat": 5,
            "tasks_model": 5,
            "tasks_chat": 4,
            "aver_score": 0.7396246075630188
        },
        {
            "orig_tasks_model": 23,
            "orig_tasks_chat": 5,
            "tasks_model": 7,
            "tasks_chat": 4,
            "aver_score": 0.623172002179282
        },
        {
            "orig_tasks_model": 13,
            "orig_tasks_chat": 5,
            "tasks_model": 4,
            "tasks_chat": 4,
            "aver_score": 0.7584355622529984
        },
        {
            "orig_tasks_model": 27,
            "orig_tasks_chat": 5,
            "tasks_model": 11,
            "tasks_chat": 5,
            "aver_score": 0.602480026808652
        },
        {
            "orig_tasks_model": 14,
            "orig_tasks_chat": 5,
            "tasks_model": 8,
            "tasks_chat": 5,
            "aver_score": 0.5871342122554779
        },
        {
            "orig_tasks_model": 9,
            "orig_tasks_chat": 5,
            "tasks_model": 5,
            "tasks_chat": 4,
            "aver_score": 0.7235361814498902
        }
    ],
    "M_j02": [
        {
            "orig_tasks_model": 21,
            "orig_tasks_chat": 7,
            "tasks_model": 11,
            "tasks_chat": 7,
            "aver_score": 0.6897931640798395
        },
        {
            "orig_tasks_model": 9,
            "orig_tasks_chat": 7,
            "tasks_model": 4,
            "tasks_chat": 4,
            "aver_score": 0.7963923960924149
        },
        {
            "orig_tasks_model": 9,
            "orig_tasks_chat": 7,
            "tasks_model": 6,
            "tasks_chat": 5,
            "aver_score": 0.7114210526148478
        },
        {
            "orig_tasks_model": 0,
            "orig_tasks_chat": 7,
            "tasks_model": 0,
            "tasks_chat": 0,
            "aver_score": 0
        },
        {
            "orig_tasks_model": 21,
            "orig_tasks_chat": 7,
            "tasks_model": 11,
            "tasks_chat": 7,
            "aver_score": 0.7578920288519426
        },
        {
            "orig_tasks_model": 14,
            "orig_tasks_chat": 7,
            "tasks_model": 7,
            "tasks_chat": 6,
            "aver_score": 0.7714272907802037
        },
        {
            "orig_tasks_model": 29,
            "orig_tasks_chat": 7,
            "tasks_model": 11,
            "tasks_chat": 4,
            "aver_score": 0.7370565262707797
        },
        {
            "orig_tasks_model": 20,
            "orig_tasks_chat": 7,
            "tasks_model": 5,
            "tasks_chat": 4,
            "aver_score": 0.7018700957298278
        },
        {
            "orig_tasks_model": 13,
            "orig_tasks_chat": 7,
            "tasks_model": 7,
            "tasks_chat": 4,
            "aver_score": 0.6333427429199219
        },
        {
            "orig_tasks_model": 18,
            "orig_tasks_chat": 7,
            "tasks_model": 5,
            "tasks_chat": 4,
            "aver_score": 0.6384236216545105
        }
    ],
    "M_j03": [
        {
            "orig_tasks_model": 11,
            "orig_tasks_chat": 11,
            "tasks_model": 7,
            "tasks_chat": 6,
            "aver_score": 0.6615238956042698
        },
        {
            "orig_tasks_model": 14,
            "orig_tasks_chat": 11,
            "tasks_model": 12,
            "tasks_chat": 8,
            "aver_score": 0.6350999275843302
        },
        {
            "orig_tasks_model": 7,
            "orig_tasks_chat": 11,
            "tasks_model": 4,
            "tasks_chat": 4,
            "aver_score": 0.6386123448610306
        },
        {
            "orig_tasks_model": 5,
            "orig_tasks_chat": 11,
            "tasks_model": 5,
            "tasks_chat": 4,
            "aver_score": 0.7170540928840637
        },
        {
            "orig_tasks_model": 11,
            "orig_tasks_chat": 11,
            "tasks_model": 7,
            "tasks_chat": 6,
            "aver_score": 0.6597697053636823
        },
        {
            "orig_tasks_model": 6,
            "orig_tasks_chat": 11,
            "tasks_model": 5,
            "tasks_chat": 5,
            "aver_score": 0.5880643367767334
        },
        {
            "orig_tasks_model": 21,
            "orig_tasks_chat": 11,
            "tasks_model": 9,
            "tasks_chat": 6,
            "aver_score": 0.5691688723034329
        },
        {
            "orig_tasks_model": 13,
            "orig_tasks_chat": 11,
            "tasks_model": 6,
            "tasks_chat": 3,
            "aver_score": 0.6582694252332052
        },
        {
            "orig_tasks_model": 10,
            "orig_tasks_chat": 11,
            "tasks_model": 7,
            "tasks_chat": 5,
            "aver_score": 0.7065080830029079
        },
        {
            "orig_tasks_model": 13,
            "orig_tasks_chat": 11,
            "tasks_model": 8,
            "tasks_chat": 4,
            "aver_score": 0.6478683426976204
        }
    ],
    "M_k05": [
        {
            "orig_tasks_model": 14,
            "orig_tasks_chat": 7,
            "tasks_model": 7,
            "tasks_chat": 4,
            "aver_score": 0.6881728768348694
        },
        {
            "orig_tasks_model": 14,
            "orig_tasks_chat": 7,
            "tasks_model": 8,
            "tasks_chat": 6,
            "aver_score": 0.7899426445364952
        },
        {
            "orig_tasks_model": 11,
            "orig_tasks_chat": 7,
            "tasks_model": 6,
            "tasks_chat": 4,
            "aver_score": 0.6872675716876984
        },
        {
            "orig_tasks_model": 13,
            "orig_tasks_chat": 7,
            "tasks_model": 9,
            "tasks_chat": 7,
            "aver_score": 0.7264225151803758
        },
        {
            "orig_tasks_model": 11,
            "orig_tasks_chat": 7,
            "tasks_model": 5,
            "tasks_chat": 4,
            "aver_score": 0.7651134133338928
        },
        {
            "orig_tasks_model": 10,
            "orig_tasks_chat": 7,
            "tasks_model": 6,
            "tasks_chat": 4,
            "aver_score": 0.8438022236029307
        },
        {
            "orig_tasks_model": 18,
            "orig_tasks_chat": 7,
            "tasks_model": 10,
            "tasks_chat": 7,
            "aver_score": 0.7857520997524261
        },
        {
            "orig_tasks_model": 17,
            "orig_tasks_chat": 7,
            "tasks_model": 12,
            "tasks_chat": 7,
            "aver_score": 0.6871659954388937
        }
    ],
    "R_g01": [
        {
            "orig_tasks_model": 9,
            "orig_tasks_chat": 10,
            "tasks_model": 6,
            "tasks_chat": 5,
            "aver_score": 0.6913982729117075
        },
        {
            "orig_tasks_model": 15,
            "orig_tasks_chat": 10,
            "tasks_model": 11,
            "tasks_chat": 7,
            "aver_score": 0.6615282080390237
        },
        {
            "orig_tasks_model": 11,
            "orig_tasks_chat": 10,
            "tasks_model": 7,
            "tasks_chat": 6,
            "aver_score": 0.765568060534341
        },
        {
            "orig_tasks_model": 1,
            "orig_tasks_chat": 10,
            "tasks_model": 0,
            "tasks_chat": 0,
            "aver_score": 0
        },
        {
            "orig_tasks_model": 14,
            "orig_tasks_chat": 10,
            "tasks_model": 7,
            "tasks_chat": 7,
            "aver_score": 0.6577856455530439
        },
        {
            "orig_tasks_model": 9,
            "orig_tasks_chat": 10,
            "tasks_model": 7,
            "tasks_chat": 4,
            "aver_score": 0.7196708151272365
        },
        {
            "orig_tasks_model": 14,
            "orig_tasks_chat": 10,
            "tasks_model": 11,
            "tasks_chat": 6,
            "aver_score": 0.7599202827973799
        },
        {
            "orig_tasks_model": 11,
            "orig_tasks_chat": 10,
            "tasks_model": 6,
            "tasks_chat": 4,
            "aver_score": 0.7226705451806387
        },
        {
            "orig_tasks_model": 11,
            "orig_tasks_chat": 10,
            "tasks_model": 7,
            "tasks_chat": 6,
            "aver_score": 0.7268916623932975
        },
        {
            "orig_tasks_model": 13,
            "orig_tasks_chat": 10,
            "tasks_model": 7,
            "tasks_chat": 6,
            "aver_score": 0.612092741898128
        },
        {
            "orig_tasks_model": 15,
            "orig_tasks_chat": 10,
            "tasks_model": 11,
            "tasks_chat": 6,
            "aver_score": 0.6943052844567732
        },
        {
            "orig_tasks_model": 13,
            "orig_tasks_chat": 10,
            "tasks_model": 7,
            "tasks_chat": 6,
            "aver_score": 0.6449136223111834
        }
    ],
    "R_j01": [
        {
            "orig_tasks_model": 6,
            "orig_tasks_chat": 13,
            "tasks_model": 3,
            "tasks_chat": 3,
            "aver_score": 0.6522268454233805
        },
        {
            "orig_tasks_model": 10,
            "orig_tasks_chat": 13,
            "tasks_model": 4,
            "tasks_chat": 4,
            "aver_score": 0.6478452384471893
        },
        {
            "orig_tasks_model": 9,
            "orig_tasks_chat": 13,
            "tasks_model": 6,
            "tasks_chat": 3,
            "aver_score": 0.6776202321052551
        },
        {
            "orig_tasks_model": 12,
            "orig_tasks_chat": 13,
            "tasks_model": 5,
            "tasks_chat": 5,
            "aver_score": 0.6490110516548157
        },
        {
            "orig_tasks_model": 7,
            "orig_tasks_chat": 13,
            "tasks_model": 3,
            "tasks_chat": 3,
            "aver_score": 0.6912912527720133
        },
        {
            "orig_tasks_model": 16,
            "orig_tasks_chat": 13,
            "tasks_model": 1,
            "tasks_chat": 1,
            "aver_score": 0.5400155186653137
        },
        {
            "orig_tasks_model": 7,
            "orig_tasks_chat": 13,
            "tasks_model": 3,
            "tasks_chat": 3,
            "aver_score": 0.6759769121805826
        },
        {
            "orig_tasks_model": 12,
            "orig_tasks_chat": 13,
            "tasks_model": 3,
            "tasks_chat": 3,
            "aver_score": 0.6901734471321106
        },
        {
            "orig_tasks_model": 2,
            "orig_tasks_chat": 13,
            "tasks_model": 0,
            "tasks_chat": 0,
            "aver_score": 0
        },
        {
            "orig_tasks_model": 10,
            "orig_tasks_chat": 13,
            "tasks_model": 3,
            "tasks_chat": 3,
            "aver_score": 0.6781045397122701
        },
        {
            "orig_tasks_model": 10,
            "orig_tasks_chat": 13,
            "tasks_model": 4,
            "tasks_chat": 4,
            "aver_score": 0.6168149560689926
        }
    ],
    "R_j02": [
        {
            "orig_tasks_model": 13,
            "orig_tasks_chat": 3,
            "tasks_model": 2,
            "tasks_chat": 2,
            "aver_score": 0.9392564296722412
        },
        {
            "orig_tasks_model": 7,
            "orig_tasks_chat": 3,
            "tasks_model": 2,
            "tasks_chat": 2,
            "aver_score": 0.6685210466384888
        },
        {
            "orig_tasks_model": 8,
            "orig_tasks_chat": 3,
            "tasks_model": 1,
            "tasks_chat": 1,
            "aver_score": 0.5991342067718506
        },
        {
            "orig_tasks_model": 20,
            "orig_tasks_chat": 3,
            "tasks_model": 6,
            "tasks_chat": 3,
            "aver_score": 0.7111762364705404
        },
        {
            "orig_tasks_model": 13,
            "orig_tasks_chat": 3,
            "tasks_model": 4,
            "tasks_chat": 2,
            "aver_score": 0.7883396595716476
        },
        {
            "orig_tasks_model": 7,
            "orig_tasks_chat": 3,
            "tasks_model": 3,
            "tasks_chat": 2,
            "aver_score": 0.7418733239173889
        },
        {
            "orig_tasks_model": 15,
            "orig_tasks_chat": 3,
            "tasks_model": 3,
            "tasks_chat": 2,
            "aver_score": 0.7456518809000651
        },
        {
            "orig_tasks_model": 12,
            "orig_tasks_chat": 3,
            "tasks_model": 1,
            "tasks_chat": 1,
            "aver_score": 0.5394002795219421
        },
        {
            "orig_tasks_model": 11,
            "orig_tasks_chat": 3,
            "tasks_model": 5,
            "tasks_chat": 3,
            "aver_score": 0.6910667896270752
        },
        {
            "orig_tasks_model": 7,
            "orig_tasks_chat": 3,
            "tasks_model": 4,
            "tasks_chat": 3,
            "aver_score": 0.7736986577510834
        }
    ],
    "R_j03": [
        {
            "orig_tasks_model": 8,
            "orig_tasks_chat": 8,
            "tasks_model": 5,
            "tasks_chat": 2,
            "aver_score": 0.5911173224449158
        },
        {
            "orig_tasks_model": 16,
            "orig_tasks_chat": 8,
            "tasks_model": 12,
            "tasks_chat": 7,
            "aver_score": 0.7453728020191193
        },
        {
            "orig_tasks_model": 11,
            "orig_tasks_chat": 8,
            "tasks_model": 8,
            "tasks_chat": 4,
            "aver_score": 0.6786012053489685
        },
        {
            "orig_tasks_model": 14,
            "orig_tasks_chat": 8,
            "tasks_model": 6,
            "tasks_chat": 4,
            "aver_score": 0.6316918134689331
        },
        {
            "orig_tasks_model": 11,
            "orig_tasks_chat": 8,
            "tasks_model": 8,
            "tasks_chat": 4,
            "aver_score": 0.6817286461591721
        },
        {
            "orig_tasks_model": 17,
            "orig_tasks_chat": 8,
            "tasks_model": 7,
            "tasks_chat": 4,
            "aver_score": 0.6679836171013969
        },
        {
            "orig_tasks_model": 0,
            "orig_tasks_chat": 8,
            "tasks_model": 0,
            "tasks_chat": 0,
            "aver_score": 0
        },
        {
            "orig_tasks_model": 13,
            "orig_tasks_chat": 8,
            "tasks_model": 4,
            "tasks_chat": 4,
            "aver_score": 0.7824353873729706
        }
    ],
    "R_j04": [
        {
            "orig_tasks_model": 12,
            "orig_tasks_chat": 8,
            "tasks_model": 7,
            "tasks_chat": 6,
            "aver_score": 0.6383041994912284
        },
        {
            "orig_tasks_model": 26,
            "orig_tasks_chat": 8,
            "tasks_model": 19,
            "tasks_chat": 8,
            "aver_score": 0.6904503075700057
        },
        {
            "orig_tasks_model": 10,
            "orig_tasks_chat": 8,
            "tasks_model": 7,
            "tasks_chat": 5,
            "aver_score": 0.7175784366471427
        },
        {
            "orig_tasks_model": 12,
            "orig_tasks_chat": 8,
            "tasks_model": 6,
            "tasks_chat": 6,
            "aver_score": 0.7311685383319855
        },
        {
            "orig_tasks_model": 10,
            "orig_tasks_chat": 8,
            "tasks_model": 5,
            "tasks_chat": 5,
            "aver_score": 0.6285338878631592
        },
        {
            "orig_tasks_model": 12,
            "orig_tasks_chat": 8,
            "tasks_model": 7,
            "tasks_chat": 5,
            "aver_score": 0.659442160810743
        },
        {
            "orig_tasks_model": 9,
            "orig_tasks_chat": 8,
            "tasks_model": 6,
            "tasks_chat": 3,
            "aver_score": 0.6723289688428243
        },
        {
            "orig_tasks_model": 9,
            "orig_tasks_chat": 8,
            "tasks_model": 6,
            "tasks_chat": 5,
            "aver_score": 0.7245879570643107
        }
    ],
    "V_g01": [
        {
            "orig_tasks_model": 13,
            "orig_tasks_chat": 6,
            "tasks_model": 10,
            "tasks_chat": 5,
            "aver_score": 0.815732228755951
        },
        {
            "orig_tasks_model": 12,
            "orig_tasks_chat": 6,
            "tasks_model": 8,
            "tasks_chat": 5,
            "aver_score": 0.8099109530448914
        },
        {
            "orig_tasks_model": 13,
            "orig_tasks_chat": 6,
            "tasks_model": 7,
            "tasks_chat": 4,
            "aver_score": 0.7826936415263585
        },
        {
            "orig_tasks_model": 12,
            "orig_tasks_chat": 6,
            "tasks_model": 5,
            "tasks_chat": 4,
            "aver_score": 0.8326943039894104
        },
        {
            "orig_tasks_model": 0,
            "orig_tasks_chat": 6,
            "tasks_model": 0,
            "tasks_chat": 0,
            "aver_score": 0
        },
        {
            "orig_tasks_model": 12,
            "orig_tasks_chat": 6,
            "tasks_model": 9,
            "tasks_chat": 4,
            "aver_score": 0.7207381990220811
        },
        {
            "orig_tasks_model": 21,
            "orig_tasks_chat": 6,
            "tasks_model": 12,
            "tasks_chat": 5,
            "aver_score": 0.6599512100219727
        },
        {
            "orig_tasks_model": 11,
            "orig_tasks_chat": 6,
            "tasks_model": 8,
            "tasks_chat": 6,
            "aver_score": 0.8421511873602867
        },
        {
            "orig_tasks_model": 8,
            "orig_tasks_chat": 6,
            "tasks_model": 4,
            "tasks_chat": 4,
            "aver_score": 0.9479254186153412
        },
        {
            "orig_tasks_model": 20,
            "orig_tasks_chat": 6,
            "tasks_model": 12,
            "tasks_chat": 6,
            "aver_score": 0.7972371876239777
        },
        {
            "orig_tasks_model": 13,
            "orig_tasks_chat": 6,
            "tasks_model": 10,
            "tasks_chat": 5,
            "aver_score": 0.6538439571857453
        },
        {
            "orig_tasks_model": 13,
            "orig_tasks_chat": 6,
            "tasks_model": 9,
            "tasks_chat": 5,
            "aver_score": 0.8447247876061333
        }
    ],
    "X_g03": [
        {
            "orig_tasks_model": 9,
            "orig_tasks_chat": 8,
            "tasks_model": 6,
            "tasks_chat": 5,
            "aver_score": 0.7463356951872507
        },
        {
            "orig_tasks_model": 12,
            "orig_tasks_chat": 8,
            "tasks_model": 7,
            "tasks_chat": 6,
            "aver_score": 0.7300170830317906
        },
        {
            "orig_tasks_model": 9,
            "orig_tasks_chat": 8,
            "tasks_model": 5,
            "tasks_chat": 4,
            "aver_score": 0.7867010712623597
        },
        {
            "orig_tasks_model": 13,
            "orig_tasks_chat": 8,
            "tasks_model": 9,
            "tasks_chat": 7,
            "aver_score": 0.7084327803717719
        },
        {
            "orig_tasks_model": 16,
            "orig_tasks_chat": 8,
            "tasks_model": 5,
            "tasks_chat": 3,
            "aver_score": 0.7761483311653137
        },
        {
            "orig_tasks_model": 14,
            "orig_tasks_chat": 8,
            "tasks_model": 8,
            "tasks_chat": 5,
            "aver_score": 0.6941834390163422
        },
        {
            "orig_tasks_model": 11,
            "orig_tasks_chat": 8,
            "tasks_model": 6,
            "tasks_chat": 6,
            "aver_score": 0.7995719214280447
        },
        {
            "orig_tasks_model": 11,
            "orig_tasks_chat": 8,
            "tasks_model": 6,
            "tasks_chat": 5,
            "aver_score": 0.6199859976768494
        },
        {
            "orig_tasks_model": 7,
            "orig_tasks_chat": 8,
            "tasks_model": 5,
            "tasks_chat": 5,
            "aver_score": 0.806395411491394
        },
        {
            "orig_tasks_model": 14,
            "orig_tasks_chat": 8,
            "tasks_model": 7,
            "tasks_chat": 6,
            "aver_score": 0.7216062886374337
        },
        {
            "orig_tasks_model": 8,
            "orig_tasks_chat": 8,
            "tasks_model": 7,
            "tasks_chat": 6,
            "aver_score": 0.7187984926359994
        }
    ],
    "E_j04": [
        {
            "orig_tasks_model": 11,
            "orig_tasks_chat": 5,
            "tasks_model": 3,
            "tasks_chat": 3,
            "aver_score": 0.6644375125567118
        },
        {
            "orig_tasks_model": 14,
            "orig_tasks_chat": 5,
            "tasks_model": 5,
            "tasks_chat": 4,
            "aver_score": 0.5928689479827881
        },
        {
            "orig_tasks_model": 16,
            "orig_tasks_chat": 5,
            "tasks_model": 1,
            "tasks_chat": 1,
            "aver_score": 0.7472994923591614
        },
        {
            "orig_tasks_model": 10,
            "orig_tasks_chat": 5,
            "tasks_model": 4,
            "tasks_chat": 2,
            "aver_score": 0.6023568958044052
        },
        {
            "orig_tasks_model": 13,
            "orig_tasks_chat": 5,
            "tasks_model": 4,
            "tasks_chat": 4,
            "aver_score": 0.5923034250736237
        },
        {
            "orig_tasks_model": 7,
            "orig_tasks_chat": 5,
            "tasks_model": 3,
            "tasks_chat": 1,
            "aver_score": 0.5771386424700419
        },
        {
            "orig_tasks_model": 15,
            "orig_tasks_chat": 5,
            "tasks_model": 2,
            "tasks_chat": 2,
            "aver_score": 0.6329689621925354
        },
        {
            "orig_tasks_model": 2,
            "orig_tasks_chat": 5,
            "tasks_model": 0,
            "tasks_chat": 0,
            "aver_score": 0
        },
        {
            "orig_tasks_model": 17,
            "orig_tasks_chat": 5,
            "tasks_model": 1,
            "tasks_chat": 1,
            "aver_score": 0.6233501434326172
        }
    ],
    "G_j01": [
        {
            "orig_tasks_model": 11,
            "orig_tasks_chat": 4,
            "tasks_model": 2,
            "tasks_chat": 1,
            "aver_score": 0.5524964332580566
        },
        {
            "orig_tasks_model": 16,
            "orig_tasks_chat": 4,
            "tasks_model": 1,
            "tasks_chat": 1,
            "aver_score": 0.590130090713501
        },
        {
            "orig_tasks_model": 15,
            "orig_tasks_chat": 4,
            "tasks_model": 2,
            "tasks_chat": 2,
            "aver_score": 0.5666232407093048
        },
        {
            "orig_tasks_model": 5,
            "orig_tasks_chat": 4,
            "tasks_model": 0,
            "tasks_chat": 0,
            "aver_score": 0
        },
        {
            "orig_tasks_model": 3,
            "orig_tasks_chat": 4,
            "tasks_model": 3,
            "tasks_chat": 2,
            "aver_score": 0.5462332963943481
        },
        {
            "orig_tasks_model": 21,
            "orig_tasks_chat": 4,
            "tasks_model": 13,
            "tasks_chat": 3,
            "aver_score": 0.6452396191083468
        }
    ],
    "V_k08": [
        {
            "orig_tasks_model": 14,
            "orig_tasks_chat": 9,
            "tasks_model": 9,
            "tasks_chat": 7,
            "aver_score": 0.7986308336257935
        },
        {
            "orig_tasks_model": 13,
            "orig_tasks_chat": 9,
            "tasks_model": 10,
            "tasks_chat": 7,
            "aver_score": 0.7209062576293945
        },
        {
            "orig_tasks_model": 13,
            "orig_tasks_chat": 9,
            "tasks_model": 10,
            "tasks_chat": 7,
            "aver_score": 0.7400361120700836
        },
        {
            "orig_tasks_model": 12,
            "orig_tasks_chat": 9,
            "tasks_model": 6,
            "tasks_chat": 5,
            "aver_score": 0.7679988741874695
        },
        {
            "orig_tasks_model": 1,
            "orig_tasks_chat": 9,
            "tasks_model": 1,
            "tasks_chat": 1,
            "aver_score": 0.8198205828666687
        },
        {
            "orig_tasks_model": 13,
            "orig_tasks_chat": 9,
            "tasks_model": 9,
            "tasks_chat": 6,
            "aver_score": 0.8154260582394071
        },
        {
            "orig_tasks_model": 17,
            "orig_tasks_chat": 9,
            "tasks_model": 11,
            "tasks_chat": 8,
            "aver_score": 0.7602247866717252
        }
    ],
    "V_k09": [
        {
            "orig_tasks_model": 9,
            "orig_tasks_chat": 7,
            "tasks_model": 8,
            "tasks_chat": 6,
            "aver_score": 0.7397722601890564
        },
        {
            "orig_tasks_model": 8,
            "orig_tasks_chat": 7,
            "tasks_model": 6,
            "tasks_chat": 4,
            "aver_score": 0.6803067723910013
        },
        {
            "orig_tasks_model": 12,
            "orig_tasks_chat": 7,
            "tasks_model": 9,
            "tasks_chat": 6,
            "aver_score": 0.7123416463534037
        },
        {
            "orig_tasks_model": 11,
            "orig_tasks_chat": 7,
            "tasks_model": 8,
            "tasks_chat": 5,
            "aver_score": 0.5726388096809387
        },
        {
            "orig_tasks_model": 9,
            "orig_tasks_chat": 7,
            "tasks_model": 8,
            "tasks_chat": 7,
            "aver_score": 0.7319930046796799
        },
        {
            "orig_tasks_model": 14,
            "orig_tasks_chat": 7,
            "tasks_model": 12,
            "tasks_chat": 5,
            "aver_score": 0.6703595519065857
        },
        {
            "orig_tasks_model": 7,
            "orig_tasks_chat": 7,
            "tasks_model": 5,
            "tasks_chat": 5,
            "aver_score": 0.6483207464218139
        },
        {
            "orig_tasks_model": 9,
            "orig_tasks_chat": 7,
            "tasks_model": 6,
            "tasks_chat": 6,
            "aver_score": 0.8531816701094309
        }
    ],
    "X_g01": [
        {
            "orig_tasks_model": 10,
            "orig_tasks_chat": 6,
            "tasks_model": 1,
            "tasks_chat": 1,
            "aver_score": 0.6315215229988098
        },
        {
            "orig_tasks_model": 7,
            "orig_tasks_chat": 6,
            "tasks_model": 3,
            "tasks_chat": 1,
            "aver_score": 0.8159270882606506
        },
        {
            "orig_tasks_model": 13,
            "orig_tasks_chat": 6,
            "tasks_model": 7,
            "tasks_chat": 5,
            "aver_score": 0.7882943323680333
        },
        {
            "orig_tasks_model": 7,
            "orig_tasks_chat": 6,
            "tasks_model": 3,
            "tasks_chat": 2,
            "aver_score": 0.8425626556078593
        },
        {
            "orig_tasks_model": 14,
            "orig_tasks_chat": 6,
            "tasks_model": 8,
            "tasks_chat": 5,
            "aver_score": 0.724317654967308
        },
        {
            "orig_tasks_model": 17,
            "orig_tasks_chat": 6,
            "tasks_model": 8,
            "tasks_chat": 6,
            "aver_score": 0.7365048751235008
        }
    ]
}