{
    "E_j01": [
        {
            "orig_tasks_model": 11,
            "orig_tasks_chat": 8,
            "tasks_model": 5,
            "tasks_chat": 4,
            "aver_score": 0.35362692484623404
        },
        {
            "orig_tasks_model": 10,
            "orig_tasks_chat": 8,
            "tasks_model": 2,
            "tasks_chat": 2,
            "aver_score": 0.29118027833567295
        },
        {
            "orig_tasks_model": 11,
            "orig_tasks_chat": 8,
            "tasks_model": 7,
            "tasks_chat": 4,
            "aver_score": 0.2912072427030588
        },
        {
            "orig_tasks_model": 9,
            "orig_tasks_chat": 8,
            "tasks_model": 4,
            "tasks_chat": 4,
            "aver_score": 0.49316721540873343
        },
        {
            "orig_tasks_model": 13,
            "orig_tasks_chat": 8,
            "tasks_model": 5,
            "tasks_chat": 2,
            "aver_score": 0.263211484971827
        },
        {
            "orig_tasks_model": 18,
            "orig_tasks_chat": 8,
            "tasks_model": 9,
            "tasks_chat": 5,
            "aver_score": 0.3097235134219265
        },
        {
            "orig_tasks_model": 9,
            "orig_tasks_chat": 8,
            "tasks_model": 5,
            "tasks_chat": 4,
            "aver_score": 0.3491835652588274
        },
        {
            "orig_tasks_model": 10,
            "orig_tasks_chat": 8,
            "tasks_model": 4,
            "tasks_chat": 3,
            "aver_score": 0.34829239044376314
        },
        {
            "orig_tasks_model": 19,
            "orig_tasks_chat": 8,
            "tasks_model": 9,
            "tasks_chat": 5,
            "aver_score": 0.30410199864257126
        },
        {
            "orig_tasks_model": 12,
            "orig_tasks_chat": 8,
            "tasks_model": 7,
            "tasks_chat": 4,
            "aver_score": 0.3449400398725123
        },
        {
            "orig_tasks_model": 10,
            "orig_tasks_chat": 8,
            "tasks_model": 4,
            "tasks_chat": 4,
            "aver_score": 0.3903792450391063
        }
    ],
    "G_g01": [
        {
            "orig_tasks_model": 13,
            "orig_tasks_chat": 7,
            "tasks_model": 5,
            "tasks_chat": 5,
            "aver_score": 0.3506714190578132
        },
        {
            "orig_tasks_model": 10,
            "orig_tasks_chat": 7,
            "tasks_model": 7,
            "tasks_chat": 6,
            "aver_score": 0.6130340976362814
        },
        {
            "orig_tasks_model": 8,
            "orig_tasks_chat": 7,
            "tasks_model": 5,
            "tasks_chat": 4,
            "aver_score": 0.3426895090165846
        },
        {
            "orig_tasks_model": 13,
            "orig_tasks_chat": 7,
            "tasks_model": 7,
            "tasks_chat": 5,
            "aver_score": 0.3628335914815986
        },
        {
            "orig_tasks_model": 7,
            "orig_tasks_chat": 7,
            "tasks_model": 4,
            "tasks_chat": 2,
            "aver_score": 0.3555733894633345
        },
        {
            "orig_tasks_model": 11,
            "orig_tasks_chat": 7,
            "tasks_model": 9,
            "tasks_chat": 7,
            "aver_score": 0.3544680175237855
        },
        {
            "orig_tasks_model": 7,
            "orig_tasks_chat": 7,
            "tasks_model": 2,
            "tasks_chat": 2,
            "aver_score": 0.5796508496293813
        },
        {
            "orig_tasks_model": 8,
            "orig_tasks_chat": 7,
            "tasks_model": 0,
            "tasks_chat": 0,
            "aver_score": 0
        }
    ],
    "G_g03": [
        {
            "orig_tasks_model": 18,
            "orig_tasks_chat": 4,
            "tasks_model": 6,
            "tasks_chat": 4,
            "aver_score": 0.5192057242386438
        },
        {
            "orig_tasks_model": 13,
            "orig_tasks_chat": 4,
            "tasks_model": 3,
            "tasks_chat": 2,
            "aver_score": 0.5481728431240844
        },
        {
            "orig_tasks_model": 7,
            "orig_tasks_chat": 4,
            "tasks_model": 1,
            "tasks_chat": 1,
            "aver_score": 0.3187840217537793
        },
        {
            "orig_tasks_model": 20,
            "orig_tasks_chat": 4,
            "tasks_model": 7,
            "tasks_chat": 3,
            "aver_score": 0.4452808356561571
        },
        {
            "orig_tasks_model": 14,
            "orig_tasks_chat": 4,
            "tasks_model": 3,
            "tasks_chat": 2,
            "aver_score": 0.5286986717103156
        },
        {
            "orig_tasks_model": 12,
            "orig_tasks_chat": 4,
            "tasks_model": 5,
            "tasks_chat": 3,
            "aver_score": 0.44401196724621783
        },
        {
            "orig_tasks_model": 15,
            "orig_tasks_chat": 4,
            "tasks_model": 3,
            "tasks_chat": 1,
            "aver_score": 0.3799783615910079
        },
        {
            "orig_tasks_model": 15,
            "orig_tasks_chat": 4,
            "tasks_model": 4,
            "tasks_chat": 2,
            "aver_score": 0.6280293452281915
        }
    ],
    "M_g01": [
        {
            "orig_tasks_model": 6,
            "orig_tasks_chat": 8,
            "tasks_model": 2,
            "tasks_chat": 2,
            "aver_score": 0.7429058985403947
        },
        {
            "orig_tasks_model": 13,
            "orig_tasks_chat": 8,
            "tasks_model": 7,
            "tasks_chat": 5,
            "aver_score": 0.5215052503726685
        },
        {
            "orig_tasks_model": 14,
            "orig_tasks_chat": 8,
            "tasks_model": 11,
            "tasks_chat": 6,
            "aver_score": 0.5618413525085247
        },
        {
            "orig_tasks_model": 14,
            "orig_tasks_chat": 8,
            "tasks_model": 10,
            "tasks_chat": 7,
            "aver_score": 0.673115815010729
        },
        {
            "orig_tasks_model": 12,
            "orig_tasks_chat": 8,
            "tasks_model": 8,
            "tasks_chat": 7,
            "aver_score": 0.6142310794546456
        },
        {
            "orig_tasks_model": 10,
            "orig_tasks_chat": 8,
            "tasks_model": 7,
            "tasks_chat": 6,
            "aver_score": 0.6599150531994001
        },
        {
            "orig_tasks_model": 16,
            "orig_tasks_chat": 8,
            "tasks_model": 12,
            "tasks_chat": 8,
            "aver_score": 0.5823240087100002
        },
        {
            "orig_tasks_model": 0,
            "orig_tasks_chat": 8,
            "tasks_model": 0,
            "tasks_chat": 0,
            "aver_score": 0
        },
        {
            "orig_tasks_model": 9,
            "orig_tasks_chat": 8,
            "tasks_model": 5,
            "tasks_chat": 3,
            "aver_score": 0.7565439510609557
        },
        {
            "orig_tasks_model": 5,
            "orig_tasks_chat": 8,
            "tasks_model": 4,
            "tasks_chat": 2,
            "aver_score": 0.5597658235071742
        },
        {
            "orig_tasks_model": 12,
            "orig_tasks_chat": 8,
            "tasks_model": 8,
            "tasks_chat": 6,
            "aver_score": 0.6193106571700757
        }
    ],
    "M_g02": [
        {
            "orig_tasks_model": 16,
            "orig_tasks_chat": 6,
            "tasks_model": 10,
            "tasks_chat": 5,
            "aver_score": 0.47302020768861874
        },
        {
            "orig_tasks_model": 12,
            "orig_tasks_chat": 6,
            "tasks_model": 2,
            "tasks_chat": 2,
            "aver_score": 0.7229666911005821
        },
        {
            "orig_tasks_model": 9,
            "orig_tasks_chat": 6,
            "tasks_model": 6,
            "tasks_chat": 4,
            "aver_score": 0.4684016965432119
        },
        {
            "orig_tasks_model": 12,
            "orig_tasks_chat": 6,
            "tasks_model": 5,
            "tasks_chat": 4,
            "aver_score": 0.4319232919578724
        },
        {
            "orig_tasks_model": 10,
            "orig_tasks_chat": 6,
            "tasks_model": 9,
            "tasks_chat": 6,
            "aver_score": 0.5142607022005584
        },
        {
            "orig_tasks_model": 10,
            "orig_tasks_chat": 6,
            "tasks_model": 9,
            "tasks_chat": 5,
            "aver_score": 0.4626501663085301
        },
        {
            "orig_tasks_model": 14,
            "orig_tasks_chat": 6,
            "tasks_model": 6,
            "tasks_chat": 5,
            "aver_score": 0.46873428742016876
        },
        {
            "orig_tasks_model": 10,
            "orig_tasks_chat": 6,
            "tasks_model": 6,
            "tasks_chat": 4,
            "aver_score": 0.49596938365641124
        },
        {
            "orig_tasks_model": 10,
            "orig_tasks_chat": 6,
            "tasks_model": 6,
            "tasks_chat": 4,
            "aver_score": 0.5330014726204945
        }
    ],
    "M_j01": [
        {
            "orig_tasks_model": 12,
            "orig_tasks_chat": 5,
            "tasks_model": 7,
            "tasks_chat": 3,
            "aver_score": 0.4468358820169704
        },
        {
            "orig_tasks_model": 10,
            "orig_tasks_chat": 5,
            "tasks_model": 9,
            "tasks_chat": 4,
            "aver_score": 0.4622905297829816
        },
        {
            "orig_tasks_model": 13,
            "orig_tasks_chat": 5,
            "tasks_model": 9,
            "tasks_chat": 5,
            "aver_score": 0.38535134410197447
        },
        {
            "orig_tasks_model": 12,
            "orig_tasks_chat": 5,
            "tasks_model": 5,
            "tasks_chat": 4,
            "aver_score": 0.5717447488245784
        },
        {
            "orig_tasks_model": 19,
            "orig_tasks_chat": 5,
            "tasks_model": 7,
            "tasks_chat": 3,
            "aver_score": 0.31955090197525093
        },
        {
            "orig_tasks_model": 23,
            "orig_tasks_chat": 5,
            "tasks_model": 10,
            "tasks_chat": 4,
            "aver_score": 0.3202656073303228
        },
        {
            "orig_tasks_model": 13,
            "orig_tasks_chat": 5,
            "tasks_model": 4,
            "tasks_chat": 3,
            "aver_score": 0.6390962694595218
        },
        {
            "orig_tasks_model": 27,
            "orig_tasks_chat": 5,
            "tasks_model": 9,
            "tasks_chat": 2,
            "aver_score": 0.3064408506599201
        },
        {
            "orig_tasks_model": 14,
            "orig_tasks_chat": 5,
            "tasks_model": 5,
            "tasks_chat": 2,
            "aver_score": 0.49013935185612567
        },
        {
            "orig_tasks_model": 9,
            "orig_tasks_chat": 5,
            "tasks_model": 3,
            "tasks_chat": 3,
            "aver_score": 0.4475410402732
        }
    ],
    "M_j02": [
        {
            "orig_tasks_model": 21,
            "orig_tasks_chat": 6,
            "tasks_model": 9,
            "tasks_chat": 4,
            "aver_score": 0.3678003950480539
        },
        {
            "orig_tasks_model": 9,
            "orig_tasks_chat": 6,
            "tasks_model": 5,
            "tasks_chat": 4,
            "aver_score": 0.5336593091520887
        },
        {
            "orig_tasks_model": 9,
            "orig_tasks_chat": 6,
            "tasks_model": 3,
            "tasks_chat": 3,
            "aver_score": 0.6760270961200178
        },
        {
            "orig_tasks_model": 0,
            "orig_tasks_chat": 6,
            "tasks_model": 0,
            "tasks_chat": 0,
            "aver_score": 0
        },
        {
            "orig_tasks_model": 21,
            "orig_tasks_chat": 6,
            "tasks_model": 15,
            "tasks_chat": 5,
            "aver_score": 0.4169116740632308
        },
        {
            "orig_tasks_model": 14,
            "orig_tasks_chat": 6,
            "tasks_model": 4,
            "tasks_chat": 4,
            "aver_score": 0.5722647761782926
        },
        {
            "orig_tasks_model": 29,
            "orig_tasks_chat": 6,
            "tasks_model": 15,
            "tasks_chat": 5,
            "aver_score": 0.345428757377852
        },
        {
            "orig_tasks_model": 20,
            "orig_tasks_chat": 6,
            "tasks_model": 3,
            "tasks_chat": 2,
            "aver_score": 0.3081757431158011
        },
        {
            "orig_tasks_model": 13,
            "orig_tasks_chat": 6,
            "tasks_model": 8,
            "tasks_chat": 4,
            "aver_score": 0.42131241485946563
        },
        {
            "orig_tasks_model": 18,
            "orig_tasks_chat": 6,
            "tasks_model": 9,
            "tasks_chat": 4,
            "aver_score": 0.38108781073205095
        }
    ],
    "M_j03": [
        {
            "orig_tasks_model": 11,
            "orig_tasks_chat": 7,
            "tasks_model": 5,
            "tasks_chat": 4,
            "aver_score": 0.39711927055855184
        },
        {
            "orig_tasks_model": 14,
            "orig_tasks_chat": 7,
            "tasks_model": 7,
            "tasks_chat": 5,
            "aver_score": 0.34026137087810965
        },
        {
            "orig_tasks_model": 7,
            "orig_tasks_chat": 7,
            "tasks_model": 2,
            "tasks_chat": 1,
            "aver_score": 0.27833793881691793
        },
        {
            "orig_tasks_model": 5,
            "orig_tasks_chat": 7,
            "tasks_model": 4,
            "tasks_chat": 3,
            "aver_score": 0.33969615434714107
        },
        {
            "orig_tasks_model": 11,
            "orig_tasks_chat": 7,
            "tasks_model": 6,
            "tasks_chat": 5,
            "aver_score": 0.40693788584768975
        },
        {
            "orig_tasks_model": 6,
            "orig_tasks_chat": 7,
            "tasks_model": 1,
            "tasks_chat": 1,
            "aver_score": 0.4109954639349511
        },
        {
            "orig_tasks_model": 21,
            "orig_tasks_chat": 7,
            "tasks_model": 2,
            "tasks_chat": 2,
            "aver_score": 0.35392455438758985
        },
        {
            "orig_tasks_model": 13,
            "orig_tasks_chat": 7,
            "tasks_model": 3,
            "tasks_chat": 2,
            "aver_score": 0.3610291636581948
        },
        {
            "orig_tasks_model": 10,
            "orig_tasks_chat": 7,
            "tasks_model": 6,
            "tasks_chat": 4,
            "aver_score": 0.36185862024089094
        },
        {
            "orig_tasks_model": 13,
            "orig_tasks_chat": 7,
            "tasks_model": 0,
            "tasks_chat": 0,
            "aver_score": 0
        }
    ],
    "M_k05": [
        {
            "orig_tasks_model": 14,
            "orig_tasks_chat": 9,
            "tasks_model": 6,
            "tasks_chat": 5,
            "aver_score": 0.4349212878062698
        },
        {
            "orig_tasks_model": 14,
            "orig_tasks_chat": 9,
            "tasks_model": 7,
            "tasks_chat": 7,
            "aver_score": 0.6201465179255697
        },
        {
            "orig_tasks_model": 11,
            "orig_tasks_chat": 9,
            "tasks_model": 7,
            "tasks_chat": 7,
            "aver_score": 0.5706789938477947
        },
        {
            "orig_tasks_model": 13,
            "orig_tasks_chat": 9,
            "tasks_model": 11,
            "tasks_chat": 8,
            "aver_score": 0.5400453198920205
        },
        {
            "orig_tasks_model": 11,
            "orig_tasks_chat": 9,
            "tasks_model": 6,
            "tasks_chat": 5,
            "aver_score": 0.5008489104775197
        },
        {
            "orig_tasks_model": 10,
            "orig_tasks_chat": 9,
            "tasks_model": 7,
            "tasks_chat": 5,
            "aver_score": 0.6609226929330265
        },
        {
            "orig_tasks_model": 18,
            "orig_tasks_chat": 9,
            "tasks_model": 13,
            "tasks_chat": 7,
            "aver_score": 0.5359422011454574
        },
        {
            "orig_tasks_model": 17,
            "orig_tasks_chat": 9,
            "tasks_model": 14,
            "tasks_chat": 9,
            "aver_score": 0.5359937809709946
        }
    ],
    "R_g01": [
        {
            "orig_tasks_model": 9,
            "orig_tasks_chat": 7,
            "tasks_model": 4,
            "tasks_chat": 4,
            "aver_score": 0.351425400300434
        },
        {
            "orig_tasks_model": 15,
            "orig_tasks_chat": 7,
            "tasks_model": 8,
            "tasks_chat": 6,
            "aver_score": 0.3012969075835695
        },
        {
            "orig_tasks_model": 11,
            "orig_tasks_chat": 7,
            "tasks_model": 7,
            "tasks_chat": 5,
            "aver_score": 0.37673914623028903
        },
        {
            "orig_tasks_model": 1,
            "orig_tasks_chat": 7,
            "tasks_model": 1,
            "tasks_chat": 1,
            "aver_score": 0.2903209973602377
        },
        {
            "orig_tasks_model": 14,
            "orig_tasks_chat": 7,
            "tasks_model": 2,
            "tasks_chat": 2,
            "aver_score": 0.32377402285651746
        },
        {
            "orig_tasks_model": 9,
            "orig_tasks_chat": 7,
            "tasks_model": 5,
            "tasks_chat": 3,
            "aver_score": 0.27394525127421987
        },
        {
            "orig_tasks_model": 14,
            "orig_tasks_chat": 7,
            "tasks_model": 8,
            "tasks_chat": 4,
            "aver_score": 0.3031137050895483
        },
        {
            "orig_tasks_model": 11,
            "orig_tasks_chat": 7,
            "tasks_model": 5,
            "tasks_chat": 2,
            "aver_score": 0.24500600385486387
        },
        {
            "orig_tasks_model": 11,
            "orig_tasks_chat": 7,
            "tasks_model": 7,
            "tasks_chat": 5,
            "aver_score": 0.3059588579979919
        },
        {
            "orig_tasks_model": 13,
            "orig_tasks_chat": 7,
            "tasks_model": 5,
            "tasks_chat": 3,
            "aver_score": 0.29901763329118475
        },
        {
            "orig_tasks_model": 15,
            "orig_tasks_chat": 7,
            "tasks_model": 13,
            "tasks_chat": 7,
            "aver_score": 0.2953308183038207
        },
        {
            "orig_tasks_model": 13,
            "orig_tasks_chat": 7,
            "tasks_model": 2,
            "tasks_chat": 2,
            "aver_score": 0.34640563909238553
        }
    ],
    "R_j01": [
        {
            "orig_tasks_model": 6,
            "orig_tasks_chat": 5,
            "tasks_model": 5,
            "tasks_chat": 5,
            "aver_score": 0.471624604714372
        },
        {
            "orig_tasks_model": 10,
            "orig_tasks_chat": 5,
            "tasks_model": 3,
            "tasks_chat": 3,
            "aver_score": 0.3803041963950155
        },
        {
            "orig_tasks_model": 9,
            "orig_tasks_chat": 5,
            "tasks_model": 8,
            "tasks_chat": 5,
            "aver_score": 0.34629128722286034
        },
        {
            "orig_tasks_model": 12,
            "orig_tasks_chat": 5,
            "tasks_model": 4,
            "tasks_chat": 4,
            "aver_score": 0.4488980262195558
        },
        {
            "orig_tasks_model": 7,
            "orig_tasks_chat": 5,
            "tasks_model": 4,
            "tasks_chat": 3,
            "aver_score": 0.4770789787580454
        },
        {
            "orig_tasks_model": 16,
            "orig_tasks_chat": 5,
            "tasks_model": 2,
            "tasks_chat": 2,
            "aver_score": 0.4225824280135964
        },
        {
            "orig_tasks_model": 7,
            "orig_tasks_chat": 5,
            "tasks_model": 5,
            "tasks_chat": 4,
            "aver_score": 0.5137364265996738
        },
        {
            "orig_tasks_model": 12,
            "orig_tasks_chat": 5,
            "tasks_model": 3,
            "tasks_chat": 3,
            "aver_score": 0.4622780294048356
        },
        {
            "orig_tasks_model": 2,
            "orig_tasks_chat": 5,
            "tasks_model": 0,
            "tasks_chat": 0,
            "aver_score": 0
        },
        {
            "orig_tasks_model": 10,
            "orig_tasks_chat": 5,
            "tasks_model": 4,
            "tasks_chat": 4,
            "aver_score": 0.36472756271274853
        },
        {
            "orig_tasks_model": 10,
            "orig_tasks_chat": 5,
            "tasks_model": 2,
            "tasks_chat": 2,
            "aver_score": 0.3923060799259541
        }
    ],
    "R_j02": [
        {
            "orig_tasks_model": 13,
            "orig_tasks_chat": 5,
            "tasks_model": 5,
            "tasks_chat": 3,
            "aver_score": 0.38093908681079836
        },
        {
            "orig_tasks_model": 7,
            "orig_tasks_chat": 5,
            "tasks_model": 1,
            "tasks_chat": 1,
            "aver_score": 0.3187840217537793
        },
        {
            "orig_tasks_model": 8,
            "orig_tasks_chat": 5,
            "tasks_model": 0,
            "tasks_chat": 0,
            "aver_score": 0
        },
        {
            "orig_tasks_model": 20,
            "orig_tasks_chat": 5,
            "tasks_model": 4,
            "tasks_chat": 2,
            "aver_score": 0.4102288694580816
        },
        {
            "orig_tasks_model": 13,
            "orig_tasks_chat": 5,
            "tasks_model": 6,
            "tasks_chat": 4,
            "aver_score": 0.4110601041712445
        },
        {
            "orig_tasks_model": 7,
            "orig_tasks_chat": 5,
            "tasks_model": 3,
            "tasks_chat": 2,
            "aver_score": 0.43015661497363933
        },
        {
            "orig_tasks_model": 15,
            "orig_tasks_chat": 5,
            "tasks_model": 8,
            "tasks_chat": 3,
            "aver_score": 0.4782520351423505
        },
        {
            "orig_tasks_model": 12,
            "orig_tasks_chat": 5,
            "tasks_model": 5,
            "tasks_chat": 4,
            "aver_score": 0.37705791154976714
        },
        {
            "orig_tasks_model": 11,
            "orig_tasks_chat": 5,
            "tasks_model": 6,
            "tasks_chat": 3,
            "aver_score": 0.36902224420871693
        },
        {
            "orig_tasks_model": 7,
            "orig_tasks_chat": 5,
            "tasks_model": 5,
            "tasks_chat": 2,
            "aver_score": 0.401604563621893
        }
    ],
    "R_j03": [
        {
            "orig_tasks_model": 8,
            "orig_tasks_chat": 4,
            "tasks_model": 6,
            "tasks_chat": 1,
            "aver_score": 0.4819685648705507
        },
        {
            "orig_tasks_model": 16,
            "orig_tasks_chat": 4,
            "tasks_model": 15,
            "tasks_chat": 3,
            "aver_score": 0.3659036140980323
        },
        {
            "orig_tasks_model": 11,
            "orig_tasks_chat": 4,
            "tasks_model": 5,
            "tasks_chat": 2,
            "aver_score": 0.27529081749658457
        },
        {
            "orig_tasks_model": 14,
            "orig_tasks_chat": 4,
            "tasks_model": 4,
            "tasks_chat": 2,
            "aver_score": 0.31576621787679043
        },
        {
            "orig_tasks_model": 11,
            "orig_tasks_chat": 4,
            "tasks_model": 6,
            "tasks_chat": 3,
            "aver_score": 0.38938780911704657
        },
        {
            "orig_tasks_model": 17,
            "orig_tasks_chat": 4,
            "tasks_model": 2,
            "tasks_chat": 2,
            "aver_score": 0.25998341409844683
        },
        {
            "orig_tasks_model": 0,
            "orig_tasks_chat": 4,
            "tasks_model": 0,
            "tasks_chat": 0,
            "aver_score": 0
        },
        {
            "orig_tasks_model": 13,
            "orig_tasks_chat": 4,
            "tasks_model": 5,
            "tasks_chat": 1,
            "aver_score": 0.24044806841556082
        }
    ],
    "R_j04": [
        {
            "orig_tasks_model": 12,
            "orig_tasks_chat": 9,
            "tasks_model": 3,
            "tasks_chat": 3,
            "aver_score": 0.301664328681558
        },
        {
            "orig_tasks_model": 26,
            "orig_tasks_chat": 9,
            "tasks_model": 7,
            "tasks_chat": 5,
            "aver_score": 0.3192707862708917
        },
        {
            "orig_tasks_model": 10,
            "orig_tasks_chat": 9,
            "tasks_model": 5,
            "tasks_chat": 5,
            "aver_score": 0.27840712634124465
        },
        {
            "orig_tasks_model": 12,
            "orig_tasks_chat": 9,
            "tasks_model": 7,
            "tasks_chat": 4,
            "aver_score": 0.3733547354881691
        },
        {
            "orig_tasks_model": 10,
            "orig_tasks_chat": 9,
            "tasks_model": 2,
            "tasks_chat": 2,
            "aver_score": 0.3870964882551601
        },
        {
            "orig_tasks_model": 12,
            "orig_tasks_chat": 9,
            "tasks_model": 6,
            "tasks_chat": 3,
            "aver_score": 0.3380831090155332
        },
        {
            "orig_tasks_model": 9,
            "orig_tasks_chat": 9,
            "tasks_model": 2,
            "tasks_chat": 2,
            "aver_score": 0.3993442552831309
        },
        {
            "orig_tasks_model": 9,
            "orig_tasks_chat": 9,
            "tasks_model": 6,
            "tasks_chat": 5,
            "aver_score": 0.4733888675311693
        }
    ],
    "V_g01": [
        {
            "orig_tasks_model": 13,
            "orig_tasks_chat": 7,
            "tasks_model": 8,
            "tasks_chat": 5,
            "aver_score": 0.2721808375444286
        },
        {
            "orig_tasks_model": 12,
            "orig_tasks_chat": 7,
            "tasks_model": 2,
            "tasks_chat": 2,
            "aver_score": 0.43155494355068835
        },
        {
            "orig_tasks_model": 13,
            "orig_tasks_chat": 7,
            "tasks_model": 0,
            "tasks_chat": 0,
            "aver_score": 0
        },
        {
            "orig_tasks_model": 12,
            "orig_tasks_chat": 7,
            "tasks_model": 0,
            "tasks_chat": 0,
            "aver_score": 0
        },
        {
            "orig_tasks_model": 0,
            "orig_tasks_chat": 7,
            "tasks_model": 0,
            "tasks_chat": 0,
            "aver_score": 0
        },
        {
            "orig_tasks_model": 12,
            "orig_tasks_chat": 7,
            "tasks_model": 5,
            "tasks_chat": 3,
            "aver_score": 0.2589769411944717
        },
        {
            "orig_tasks_model": 21,
            "orig_tasks_chat": 7,
            "tasks_model": 21,
            "tasks_chat": 5,
            "aver_score": 0.40731957427182797
        },
        {
            "orig_tasks_model": 11,
            "orig_tasks_chat": 7,
            "tasks_model": 6,
            "tasks_chat": 5,
            "aver_score": 0.3476491464098872
        },
        {
            "orig_tasks_model": 8,
            "orig_tasks_chat": 7,
            "tasks_model": 0,
            "tasks_chat": 0,
            "aver_score": 0
        },
        {
            "orig_tasks_model": 20,
            "orig_tasks_chat": 7,
            "tasks_model": 6,
            "tasks_chat": 6,
            "aver_score": 0.25674687027817283
        },
        {
            "orig_tasks_model": 13,
            "orig_tasks_chat": 7,
            "tasks_model": 13,
            "tasks_chat": 6,
            "aver_score": 0.43736927549332816
        },
        {
            "orig_tasks_model": 13,
            "orig_tasks_chat": 7,
            "tasks_model": 1,
            "tasks_chat": 1,
            "aver_score": 0.380423300861127
        }
    ],
    "X_g03": [
        {
            "orig_tasks_model": 9,
            "orig_tasks_chat": 7,
            "tasks_model": 8,
            "tasks_chat": 6,
            "aver_score": 0.5367653903624591
        },
        {
            "orig_tasks_model": 12,
            "orig_tasks_chat": 7,
            "tasks_model": 7,
            "tasks_chat": 6,
            "aver_score": 0.5067686490650097
        },
        {
            "orig_tasks_model": 9,
            "orig_tasks_chat": 7,
            "tasks_model": 7,
            "tasks_chat": 5,
            "aver_score": 0.45801795713743115
        },
        {
            "orig_tasks_model": 13,
            "orig_tasks_chat": 7,
            "tasks_model": 10,
            "tasks_chat": 7,
            "aver_score": 0.5100747346008603
        },
        {
            "orig_tasks_model": 16,
            "orig_tasks_chat": 7,
            "tasks_model": 12,
            "tasks_chat": 7,
            "aver_score": 0.5289254227027801
        },
        {
            "orig_tasks_model": 14,
            "orig_tasks_chat": 7,
            "tasks_model": 10,
            "tasks_chat": 6,
            "aver_score": 0.516624541856084
        },
        {
            "orig_tasks_model": 11,
            "orig_tasks_chat": 7,
            "tasks_model": 8,
            "tasks_chat": 6,
            "aver_score": 0.601718436339147
        },
        {
            "orig_tasks_model": 11,
            "orig_tasks_chat": 7,
            "tasks_model": 3,
            "tasks_chat": 3,
            "aver_score": 0.4336831252861448
        },
        {
            "orig_tasks_model": 7,
            "orig_tasks_chat": 7,
            "tasks_model": 6,
            "tasks_chat": 5,
            "aver_score": 0.7749975060973742
        },
        {
            "orig_tasks_model": 14,
            "orig_tasks_chat": 7,
            "tasks_model": 11,
            "tasks_chat": 7,
            "aver_score": 0.548754116723916
        },
        {
            "orig_tasks_model": 8,
            "orig_tasks_chat": 7,
            "tasks_model": 7,
            "tasks_chat": 5,
            "aver_score": 0.5784671134964358
        }
    ],
    "E_j04": [
        {
            "orig_tasks_model": 11,
            "orig_tasks_chat": 7,
            "tasks_model": 3,
            "tasks_chat": 3,
            "aver_score": 0.3519927738475897
        },
        {
            "orig_tasks_model": 14,
            "orig_tasks_chat": 7,
            "tasks_model": 5,
            "tasks_chat": 3,
            "aver_score": 0.45138040838436116
        },
        {
            "orig_tasks_model": 16,
            "orig_tasks_chat": 7,
            "tasks_model": 9,
            "tasks_chat": 4,
            "aver_score": 0.40925801643386556
        },
        {
            "orig_tasks_model": 10,
            "orig_tasks_chat": 7,
            "tasks_model": 5,
            "tasks_chat": 3,
            "aver_score": 0.4204764844849326
        },
        {
            "orig_tasks_model": 13,
            "orig_tasks_chat": 7,
            "tasks_model": 6,
            "tasks_chat": 4,
            "aver_score": 0.3341130540978545
        },
        {
            "orig_tasks_model": 7,
            "orig_tasks_chat": 7,
            "tasks_model": 3,
            "tasks_chat": 2,
            "aver_score": 0.2839277853970927
        },
        {
            "orig_tasks_model": 15,
            "orig_tasks_chat": 7,
            "tasks_model": 1,
            "tasks_chat": 1,
            "aver_score": 0.25114573243043714
        },
        {
            "orig_tasks_model": 2,
            "orig_tasks_chat": 7,
            "tasks_model": 0,
            "tasks_chat": 0,
            "aver_score": 0
        },
        {
            "orig_tasks_model": 17,
            "orig_tasks_chat": 7,
            "tasks_model": 7,
            "tasks_chat": 3,
            "aver_score": 0.30904539248804186
        }
    ],
    "G_j01": [
        {
            "orig_tasks_model": 11,
            "orig_tasks_chat": 5,
            "tasks_model": 4,
            "tasks_chat": 2,
            "aver_score": 0.28588602808378843
        },
        {
            "orig_tasks_model": 16,
            "orig_tasks_chat": 5,
            "tasks_model": 2,
            "tasks_chat": 1,
            "aver_score": 0.4112070550676187
        },
        {
            "orig_tasks_model": 15,
            "orig_tasks_chat": 5,
            "tasks_model": 5,
            "tasks_chat": 3,
            "aver_score": 0.2971695448142903
        },
        {
            "orig_tasks_model": 5,
            "orig_tasks_chat": 5,
            "tasks_model": 1,
            "tasks_chat": 1,
            "aver_score": 0.3799783615910079
        },
        {
            "orig_tasks_model": 3,
            "orig_tasks_chat": 5,
            "tasks_model": 0,
            "tasks_chat": 0,
            "aver_score": 0
        },
        {
            "orig_tasks_model": 21,
            "orig_tasks_chat": 5,
            "tasks_model": 5,
            "tasks_chat": 3,
            "aver_score": 0.28740382445557594
        }
    ],
    "V_k08": [
        {
            "orig_tasks_model": 14,
            "orig_tasks_chat": 6,
            "tasks_model": 2,
            "tasks_chat": 2,
            "aver_score": 0.2543366704549099
        },
        {
            "orig_tasks_model": 13,
            "orig_tasks_chat": 6,
            "tasks_model": 12,
            "tasks_chat": 5,
            "aver_score": 0.3247681699151275
        },
        {
            "orig_tasks_model": 13,
            "orig_tasks_chat": 6,
            "tasks_model": 3,
            "tasks_chat": 2,
            "aver_score": 0.275832207872146
        },
        {
            "orig_tasks_model": 12,
            "orig_tasks_chat": 6,
            "tasks_model": 8,
            "tasks_chat": 4,
            "aver_score": 0.304130753668433
        },
        {
            "orig_tasks_model": 1,
            "orig_tasks_chat": 6,
            "tasks_model": 0,
            "tasks_chat": 0,
            "aver_score": 0
        },
        {
            "orig_tasks_model": 13,
            "orig_tasks_chat": 6,
            "tasks_model": 1,
            "tasks_chat": 1,
            "aver_score": 0.23626919305801164
        },
        {
            "orig_tasks_model": 17,
            "orig_tasks_chat": 6,
            "tasks_model": 3,
            "tasks_chat": 3,
            "aver_score": 0.24224503863646826
        }
    ],
    "V_k09": [
        {
            "orig_tasks_model": 9,
            "orig_tasks_chat": 9,
            "tasks_model": 6,
            "tasks_chat": 6,
            "aver_score": 0.5926497751273782
        },
        {
            "orig_tasks_model": 8,
            "orig_tasks_chat": 9,
            "tasks_model": 7,
            "tasks_chat": 5,
            "aver_score": 0.41011901157244207
        },
        {
            "orig_tasks_model": 12,
            "orig_tasks_chat": 9,
            "tasks_model": 5,
            "tasks_chat": 5,
            "aver_score": 0.45314043483322736
        },
        {
            "orig_tasks_model": 11,
            "orig_tasks_chat": 9,
            "tasks_model": 8,
            "tasks_chat": 6,
            "aver_score": 0.3108606963688032
        },
        {
            "orig_tasks_model": 9,
            "orig_tasks_chat": 9,
            "tasks_model": 9,
            "tasks_chat": 8,
            "aver_score": 0.5583267316022857
        },
        {
            "orig_tasks_model": 14,
            "orig_tasks_chat": 9,
            "tasks_model": 10,
            "tasks_chat": 6,
            "aver_score": 0.40986784590191333
        },
        {
            "orig_tasks_model": 7,
            "orig_tasks_chat": 9,
            "tasks_model": 4,
            "tasks_chat": 4,
            "aver_score": 0.3298137266018875
        },
        {
            "orig_tasks_model": 9,
            "orig_tasks_chat": 9,
            "tasks_model": 7,
            "tasks_chat": 6,
            "aver_score": 0.6538306213339616
        }
    ],
    "X_g01": [
        {
            "orig_tasks_model": 10,
            "orig_tasks_chat": 9,
            "tasks_model": 6,
            "tasks_chat": 3,
            "aver_score": 0.225163767991348
        },
        {
            "orig_tasks_model": 7,
            "orig_tasks_chat": 9,
            "tasks_model": 5,
            "tasks_chat": 3,
            "aver_score": 0.5862903165971194
        },
        {
            "orig_tasks_model": 13,
            "orig_tasks_chat": 9,
            "tasks_model": 11,
            "tasks_chat": 9,
            "aver_score": 0.587139311493308
        },
        {
            "orig_tasks_model": 7,
            "orig_tasks_chat": 9,
            "tasks_model": 5,
            "tasks_chat": 4,
            "aver_score": 0.4143686617863427
        },
        {
            "orig_tasks_model": 14,
            "orig_tasks_chat": 9,
            "tasks_model": 8,
            "tasks_chat": 7,
            "aver_score": 0.4821201060996055
        },
        {
            "orig_tasks_model": 17,
            "orig_tasks_chat": 9,
            "tasks_model": 9,
            "tasks_chat": 8,
            "aver_score": 0.4884487999491421
        }
    ]
}