{
    "E_j01": {
        "gpt3": 0.7430549378819331,
        "gpt2": 0.9568097118801477,
        "gpt1": 0.6294691238698403
    },
    "G_g01": {
        "gpt3": 0.6423939764735302,
        "gpt2": 0.648959458020951,
        "gpt1": 0.721468100147205
    },
    "G_g03": {
        "gpt3": 0.5983152763599295,
        "gpt2": 0.4544549188315683,
        "gpt1": 0.5759134452841034
    },
    "M_g01": {
        "gpt3": 0.20921791405064327,
        "gpt2": 0.19849612017248047,
        "gpt1": 0.8346428793491623
    },
    "M_g02": {
        "gpt3": 0.3018311083876009,
        "gpt2": 0.8984285355310139,
        "gpt1": 0.6444013668774731
    },
    "M_j01": {
        "gpt3": 0.3536951150536528,
        "gpt2": 0.3015332608396308,
        "gpt1": 0.4734320339079273
    },
    "M_j02": {
        "gpt3": 0.28289011408465725,
        "gpt2": 0.6026473998194573,
        "gpt1": 0.23198264928011425
    },
    "M_j03": {
        "gpt3": 0.5604462849989593,
        "gpt2": 0.8339367896431313,
        "gpt1": 0.9373365031184957
    },
    "M_k05": {
        "gpt3": 0.5929388330489945,
        "gpt2": 0.3431553508163477,
        "gpt1": 0.38160064777042846
    },
    "R_g01": {
        "gpt3": 0.5706443223375632,
        "gpt2": 0.6583862394151457,
        "gpt1": 0.8656246174860499
    },
    "R_j01": {
        "gpt3": 0.7978628586480463,
        "gpt2": 0.8934049253337806,
        "gpt1": 0.2493543244797497
    },
    "R_j02": {
        "gpt3": 0.30457420003894964,
        "gpt2": 0.2459657746079414,
        "gpt1": 0.4272846804045882
    },
    "R_j03": {
        "gpt3": 0.5817273698611529,
        "gpt2": 0.8841250332402799,
        "gpt1": 0.7823734571660276
    },
    "R_j04": {
        "gpt3": 0.27231499597237857,
        "gpt2": 0.969521377401555,
        "gpt1": 0.5828265089765496
    },
    "V_g01": {
        "gpt3": 0.27365028218091497,
        "gpt2": 0.9476584929289094,
        "gpt1": 0.33158175863871664
    },
    "X_g03": {
        "gpt3": 0.5527829896970963,
        "gpt2": 0.5646346692946703,
        "gpt1": 0.8849907573634688
    },
    "E_j04": {
        "gpt3": 0.4193522870500329,
        "gpt2": 0.684317410301656,
        "gpt1": 0.9525180362436066
    },
    "G_j01": {
        "gpt3": 0.5313714707028211,
        "gpt2": 0.5654502409067683,
        "gpt1": 0.3861491826900767
    },
    "V_k08": {
        "gpt3": 0.23806312151945017,
        "gpt2": 0.8064527248014526,
        "gpt1": 0.3710261189957935
    },
    "V_k09": {
        "gpt3": 0.4640025065606492,
        "gpt2": 0.458029873638395,
        "gpt1": 0.7983650317687617
    },
    "X_g01": {
        "gpt3": 0.46908704839822246,
        "gpt2": 0.7452781132402059,
        "gpt1": 0.4965240247200694
    }
}