{
    "E_j01": {
        "5": 0.24271067417441788,
        "3.5": 0.3029379302609293,
        "4": 0.26388805855063424,
        "0": 0.4751949458478661
    },
    "G_g01": {
        "4.5": 0.29501736892827296,
        "3.5": 0.2761286844384443,
        "5": 0.19374756017686937,
        "2.5": 0.27755343219726003,
        "2.25": 0.4269027515177557
    },
    "G_g03": {
        "2.5": 0.40206491716240705,
        "4.5": 0.30662979668056334,
        "5": 0.27320240553046643,
        "4": 0.2871335271141088
    },
    "M_g01": {
        "1.5": 0.13285879726239636,
        "5": 0.24797349207416217,
        "4": 0.1441715572320166,
        "4.75": 0.219716641208931,
        "4.5": 0.0
    },
    "M_g02": {
        "3.5": 0.2580704704608245,
        "4": 0.34752773575949875,
        "4.5": 0.1957980754872309,
        "5": 0.29483691841514226
    },
    "M_j01": {
        "4": 0.39511944060115334,
        "3.5": 0.2635523709412776,
        "4.75": 0.24226908815920237,
        "5": 0.2784764539474269
    },
    "M_j02": {
        "5": 0.30890523798893377,
        "1.5": 0.2798672462501362,
        "4.5": 0.3176207531921572,
        "4.75": 0.12414033805732161,
        "4": 0.3160922104549956
    },
    "M_j03": {
        "5": 0.2536994904191182,
        "4": 0.3255956153274687,
        "3.5": 0.33355018391117663,
        "0": 0.39816101865488884
    },
    "M_k05": {
        "4": 0.43740583143728584,
        "5": 0.17327079103443574,
        "4.5": 0.3118652372744799,
        "3": 0.33247726413720974
    },
    "R_g01": {
        "5": 0.24638352451434914,
        "3.5": 0.25743678483436877,
        "4": 0.33328126823972437,
        "2.5": 0.025220009214020678
    },
    "R_j01": {
        "4.5": 0.38543802607515243,
        "4": 0.3027393774729807,
        "3.5": 0.22587540312273052,
        "5": 0.181526041232731
    },
    "R_j02": {
        "5": 0.14220179199504487,
        "1.5": 0.2094997298893293,
        "4": 0.2575196799432731,
        "3": 0.1752874355079606,
        "3.5": 0.1756802534472552,
        "2.5": 0.2791891477234807
    },
    "R_j03": {
        "5": 0.46100882121905196,
        "4.5": 0.30358950060549156,
        "3.5": 0.38160339837001334,
        "4": 0.15389876447857873,
        "2.5": 0.4347737796246691
    },
    "R_j04": {
        "5": 0.27146645839088235,
        "4": 0.2791107024143649
    },
    "V_g01": {
        "4": 0.33110600111599564,
        "5": 0.27775316582143683,
        "4.5": 0.27855554248814896,
        "3": 0.1730827863299926,
        "3.5": 0.2760140291647526
    },
    "X_g03": {
        "5": 0.3181487028075932,
        "4": 0.239102409666048,
        "2.5": 0.13222460236049413,
        "3.5": 0.21844615027146919
    },
    "E_j04": {
        "3.5": 0.20023306672750163,
        "5": 0.131212705241858,
        "4.5": 0.24580311488770917
    },
    "G_j01": {
        "3.75": 0.2386312585049052,
        "2.25": 0.26907974179934296,
        "5": 0.15158625552462746,
        "4.5": 0.062251024344745526
    },
    "V_k08": {
        "5": 0.21976492752954419,
        "3.25": 0.10278309047917535,
        "4.75": 0.2758043859456857,
        "0.75": 0.549550019522525,
        "1.75": 0.1911379181898235
    },
    "V_k09": {
        "5": 0.5922255708044402,
        "1": 0.48793599403932797,
        "2.25": 0.49431202319660167,
        "4.5": 0.558243335489602,
        "4.25": 0.5246516995394205,
        "4": 0.2865483632753961
    },
    "X_g01": {
        "4": 0.1613343658018084,
        "5": 0.3067110284811566,
        "0.75": 0.3446528261605446
    }
}