{
    "E_j01": {
        "5": 0.8238165527582169,
        "3.5": 0.8711457848548889,
        "4": 0.8520437479019165,
        "0": 0.8507412075996399
    },
    "G_g01": {
        "4.5": 0.7448947429656982,
        "3.5": 0.791336715221405,
        "5": 0.5628431340058645,
        "2.5": 0.8048678040504456,
        "2.25": 0.6586297750473022
    },
    "G_g03": {
        "2.5": 0.5464933514595032,
        "4.5": 0.5591722130775452,
        "5": 0.6471755107243856,
        "4": 0.693264365196228
    },
    "M_g01": {
        "1.5": 0.7271863222122192,
        "5": 0.7378561581884112,
        "4": 0.551303505897522,
        "4.75": 0.7535513639450073,
        "4.5": 0.1299719512462616
    },
    "M_g02": {
        "3.5": 0.7809200584888458,
        "4": 0.8429724176724752,
        "4.5": 0.8195291757583618,
        "5": 0.8121997117996216
    },
    "M_j01": {
        "4": 0.668578714132309,
        "3.5": 0.6871760487556458,
        "4.75": 0.6571877002716064,
        "5": 0.5749740898609161
    },
    "M_j02": {
        "5": 0.6110576152801513,
        "1.5": 0.5305414199829102,
        "4.5": 0.3437582552433014,
        "4.75": 0.6303324103355408,
        "4": 0.6349979043006897
    },
    "M_j03": {
        "5": 0.7208976575306484,
        "4": 0.784481942653656,
        "3.5": 0.7761166095733643,
        "0": 0.8249817490577698
    },
    "M_k05": {
        "4": 0.7877455204725266,
        "5": 0.5846689343452454,
        "4.5": 0.7597218155860901,
        "3": 0.7606630921363831
    },
    "R_g01": {
        "5": 0.6971853309207492,
        "3.5": 0.7340301275253296,
        "4": 0.7161375880241394,
        "2.5": 0.1884157359600067
    },
    "R_j01": {
        "4.5": 0.7422234018643697,
        "4": 0.8112117449442545,
        "3.5": 0.7371292114257812,
        "5": 0.6277578175067902
    },
    "R_j02": {
        "5": 0.670961876710256,
        "1.5": 0.5964257121086121,
        "4": 0.7856507301330566,
        "3": 0.7794482707977295,
        "3.5": 0.7661612033843994,
        "2.5": 0.7175384759902954
    },
    "R_j03": {
        "5": 0.6840797066688538,
        "4.5": 0.5545148253440857,
        "3.5": 0.7344421744346619,
        "4": 0.6719555854797363,
        "2.5": 0.7166856527328491
    },
    "R_j04": {
        "5": 0.7278433203697204,
        "4": 0.7317637999852499
    },
    "V_g01": {
        "4": 0.8134739995002747,
        "5": 0.7847973346710205,
        "4.5": 0.6247015260159969,
        "3": 0.6247928142547607,
        "3.5": 0.8674119710922241
    },
    "X_g03": {
        "5": 0.6793166058404105,
        "4": 0.693019449710846,
        "2.5": 0.6467959880828857,
        "3.5": 0.6061108708381653
    },
    "E_j04": {
        "3.5": 0.6432395577430725,
        "5": 0.6291112835918155,
        "4.5": 0.6046360731124878
    },
    "G_j01": {
        "3.75": 0.48884934186935425,
        "2.25": 0.644403874874115,
        "5": 0.5649707615375519,
        "4.5": 0.5526513457298279
    },
    "V_k08": {
        "5": 0.759105384349823,
        "3.25": 0.5712041258811951,
        "4.75": 0.7312494516372681,
        "0.75": 0.6902158260345459,
        "1.75": 0.7336387634277344
    },
    "V_k09": {
        "5": 0.806204080581665,
        "1": 0.7139236330986023,
        "2.25": 0.8337881565093994,
        "4.5": 0.7397351562976837,
        "4.25": 0.8328049182891846,
        "4": 0.6683017611503601
    },
    "X_g01": {
        "4": 0.42520150542259216,
        "5": 0.7357265502214432,
        "0.75": 0.578876793384552
    }
}