{
    "E_j01": {
        "amount": 8,
        "tasks": [
            "- reporting job applications to companies",
            "- receiving potential job offers based on applications",
            "- confirming receipt of applications and rating them",
            "- negotiating job interviews",
            "- entering probation phase",
            "- rating company and company rating employee",
            "- viewing company reviews after 1 year",
            "- process ending upon permanent job or rating company C or less"
        ]
    },
    "G_g01": {
        "amount": 8,
        "tasks": [
            "- Send invitations to friends.",
            "- Find out which games they want to play.",
            "- Appoint a date for the LAN party.",
            "- Find out if you have all the games your guests want to play.",
            "- Download missing games.",
            "- Find out how much beer your friends will require.",
            "- Buy what's missing.",
            "- Enjoy the LAN party."
        ]
    },
    "G_g03": {
        "amount": 8,
        "tasks": [
            "1. come up with good character names",
            "2. set up your account",
            "3. check if you have an active WoW subscription",
            "4. select the payment method",
            "5. log into the game",
            "6. select realm, race and class of your character",
            "7. enter character names",
            "8. get confirmation"
        ]
    },
    "M_g01": {
        "amount": 10,
        "tasks": [
            "1. Instruct artist to create project.",
            "2. Send sketches to artist.",
            "3. Tell artist what to change.",
            "4. Choose plastic color.",
            "5. Check how much color is left.",
            "6. Order color if necessary.",
            "7. Turn printer on.",
            "8. Heat up bed and extruder.",
            "9. Generate gcode file.",
            "10. Print model."
        ]
    },
    "M_g02": {
        "amount": 8,
        "tasks": [
            "Develop basic design",
            "Order Lego brick sets",
            "Give Lego sets to children",
            "Sort parts into containers",
            "Build subcomponents",
            "Test subcomponents",
            "Assemble subcomponents",
            "Reorder parts"
        ]
    },
    "M_j01": {
        "amount": 5,
        "tasks": [
            "- Ordering parts from online sources",
            "- Manual inspection of parts",
            "- Assembling the chainsaw",
            "- Sending updates to customer",
            "- Sending the first chainsaw"
        ]
    },
    "M_j02": {
        "amount": 7,
        "tasks": [
            "- produce airplanes",
            "- let customer decide on interior",
            "- send requirements to different teams",
            "- assemble interior",
            "- send on test flight",
            "- create test protocol",
            "- deliver to customer"
        ]
    },
    "M_j03": {
        "amount": 10,
        "tasks": [
            "- Query each web shop",
            "- Find out which web shop has the right parts",
            "- Find out how much they can deliver, at which price, and how long it will take",
            "- Create a list of parts that you order from each shop",
            "- Order from several shops if one shop does not have enough parts",
            "- Always use the cheapest parts",
            "- The parts arrive in batches in a random order",
            "- Start building when the first parts arrive",
            "- Reorder parts if necessary",
            "- Write a mail to your friends if the stock is zero"
        ]
    },
    "M_k05": {
        "amount": 10,
        "tasks": [
            "- Collect requirements",
            "- Send requirements to architect",
            "- Receive draft",
            "- Refine draft",
            "- Create material list",
            "- Order materials",
            "- Send messages to friends",
            "- Build house",
            "- Send invitations",
            "- Buy snacks"
        ]
    },
    "R_g01": {
        "amount": 6,
        "tasks": [
            "- Enter the model and what is broken.",
            "- Receive the list of materials, tools, and ordering choices.",
            "- Contact friends for borrowing or buying stuff.",
            "- Follow the instructions to fix the phone.",
            "- Send a review and/or video if it worked.",
            "- Send it to an expert if it hasn't worked out."
        ]
    },
    "R_j01": {
        "amount": 5,
        "tasks": [
            "1. Collect information from machine.",
            "2. Calculate Overall Equipment Efficiency.",
            "3. If OEE falls below certain value, stop machine and send email to engineer.",
            "4. When machine is restarted, continue measuring.",
            "5. When machine is disconnected, stop process."
        ]
    },
    "R_j02": {
        "amount": 4,
        "tasks": [
            "1. Enter machine type and serial number.",
            "2. Answer questions and input values.",
            "3. Press buttons and collect values from machine.",
            "4. View results and answer additional questions."
        ]
    },
    "R_j03": {
        "amount": 9,
        "tasks": [
            "-Describe the symptoms",
            "-Send the type of fridge",
            "-Select a local service facility",
            "-Make an appointment",
            "-Arrive at a random time",
            "-Leave without repairing the fridge",
            "-Repair the fridge",
            "-Confirm that the fridge is OK",
            "-Rate the service facility"
        ]
    },
    "R_j04": {
        "amount": 10,
        "tasks": [
            "The police has a new app to remind you of your car service.",
            "The process is started after a successful service.",
            "When a service is necessary, the system checks if your car is still registered.",
            "If it is registered, you are notified.",
            "If you do not go to the service, you are fined after 30 days.",
            "At the car service facility the mechanic enters the problems of your car for reference.",
            "While you wait (can take several days), you get status updates via email).",
            "You can pay through the app, when the repair is done.",
            "The mechanic enters that the repair was successful and you got your \"Pickerl\".",
            "The mechanic enters the time for you next service."
        ]
    },
    "V_g01": {
        "amount": 9,
        "tasks": [
            "The robot:",
            "-receives an order",
            "-asks whether the customer wants a menu or just the burger",
            "-if the customer wants a menu, the robot starts preparing the drink",
            "-while doing so, he asks if you want fries or wedges",
            "-if you want fries, he prepares the fries; if you want wedges, he prepares wedges",
            "-after that, he prepares the burger, and gives you enthusiastic status updates every 30 seconds",
            "-depending on the number of ingredients, the duration for creating the burger varies",
            "-your order is delivered via a conveyor belt"
        ]
    },
    "X_g03": {
        "amount": 8,
        "tasks": [
            "- Select starting block",
            "- Run for 5km",
            "- Measure time",
            "- Train and check",
            "- Get starting number",
            "- Find out whether to go from home or work",
            "- Run and drink",
            "- Receive final time"
        ]
    },
    "E_j04": {
        "amount": 6,
        "tasks": [
            "- Enter a topic, amount of money, experience, and hobbies",
            "- Receive offers from companies",
            "- Accept or deny offers",
            "- Write 3 status updates about the internship",
            "- The company writes 3 status updates about the intern",
            "- After the internship, recommend the company to friends via Twitter"
        ]
    },
    "G_j01": {
        "amount": 5,
        "tasks": [
            "Find out which resources are needed",
            "Create tools to gather resources",
            "Start farming",
            "Update list of to be farmed materials",
            "Brag to friends"
        ]
    },
    "V_k08": {
        "amount": 11,
        "tasks": [
            "- logging into the system",
            "- waiting for login confirmation",
            "- selecting products",
            "- adding products to shopping cart",
            "- saving products",
            "- checking if all products were selected",
            "- finishing the order",
            "- entering payment data",
            "- waiting for payment confirmation",
            "- entering shipping address",
            "- finishing the order"
        ]
    },
    "V_k09": {
        "amount": 8,
        "tasks": [
            "1. Read order from automatic order management system.",
            "2. Check if first product from order is in stock.",
            "3. If in stock, withdraw from warehouse.",
            "4. If not in stock, reorder from wholesaler.",
            "5. If delivery delay penalty is demanded from wholesaler, register product in stock management system.",
            "6. Check if whole order is ready for shipment.",
            "7. If ready, request courier and pack products.",
            "8. If not ready, select next product from order and start again from step 2."
        ]
    },
    "X_g01": {
        "amount": 7,
        "tasks": [
            "- Select a course",
            "- Check if you have an account",
            "- Register an account",
            "- Log into account",
            "- Complete registration",
            "- Provide payment information",
            "- Receive course ticket"
        ]
    }
}