{
    "E_j01": [
        {
            "orig_tasks_model": 11,
            "orig_tasks_chat": 8,
            "tasks_model": 8,
            "tasks_chat": 6,
            "aver_score": 0.5006536818646639
        },
        {
            "orig_tasks_model": 10,
            "orig_tasks_chat": 8,
            "tasks_model": 3,
            "tasks_chat": 3,
            "aver_score": 0.5070371140375084
        },
        {
            "orig_tasks_model": 11,
            "orig_tasks_chat": 8,
            "tasks_model": 9,
            "tasks_chat": 5,
            "aver_score": 0.3730136451711725
        },
        {
            "orig_tasks_model": 9,
            "orig_tasks_chat": 8,
            "tasks_model": 4,
            "tasks_chat": 3,
            "aver_score": 0.317608908409864
        },
        {
            "orig_tasks_model": 13,
            "orig_tasks_chat": 8,
            "tasks_model": 7,
            "tasks_chat": 4,
            "aver_score": 0.40272485392701884
        },
        {
            "orig_tasks_model": 18,
            "orig_tasks_chat": 8,
            "tasks_model": 10,
            "tasks_chat": 6,
            "aver_score": 0.39717183036569
        },
        {
            "orig_tasks_model": 9,
            "orig_tasks_chat": 8,
            "tasks_model": 8,
            "tasks_chat": 5,
            "aver_score": 0.304507474115454
        },
        {
            "orig_tasks_model": 10,
            "orig_tasks_chat": 8,
            "tasks_model": 7,
            "tasks_chat": 4,
            "aver_score": 0.4179694808233183
        },
        {
            "orig_tasks_model": 19,
            "orig_tasks_chat": 8,
            "tasks_model": 15,
            "tasks_chat": 7,
            "aver_score": 0.3526284237865225
        },
        {
            "orig_tasks_model": 12,
            "orig_tasks_chat": 8,
            "tasks_model": 10,
            "tasks_chat": 6,
            "aver_score": 0.41309301663092024
        },
        {
            "orig_tasks_model": 10,
            "orig_tasks_chat": 8,
            "tasks_model": 6,
            "tasks_chat": 5,
            "aver_score": 0.39493959349419155
        }
    ],
    "G_g01": [
        {
            "orig_tasks_model": 13,
            "orig_tasks_chat": 6,
            "tasks_model": 2,
            "tasks_chat": 2,
            "aver_score": 0.4201471712969641
        },
        {
            "orig_tasks_model": 10,
            "orig_tasks_chat": 6,
            "tasks_model": 4,
            "tasks_chat": 3,
            "aver_score": 0.4540048912365046
        },
        {
            "orig_tasks_model": 8,
            "orig_tasks_chat": 6,
            "tasks_model": 6,
            "tasks_chat": 5,
            "aver_score": 0.40395815016123726
        },
        {
            "orig_tasks_model": 13,
            "orig_tasks_chat": 6,
            "tasks_model": 7,
            "tasks_chat": 4,
            "aver_score": 0.3332918371230158
        },
        {
            "orig_tasks_model": 7,
            "orig_tasks_chat": 6,
            "tasks_model": 3,
            "tasks_chat": 3,
            "aver_score": 0.41013620290626623
        },
        {
            "orig_tasks_model": 11,
            "orig_tasks_chat": 6,
            "tasks_model": 2,
            "tasks_chat": 2,
            "aver_score": 0.610144075280915
        },
        {
            "orig_tasks_model": 7,
            "orig_tasks_chat": 6,
            "tasks_model": 7,
            "tasks_chat": 5,
            "aver_score": 0.4626713415067959
        },
        {
            "orig_tasks_model": 8,
            "orig_tasks_chat": 6,
            "tasks_model": 5,
            "tasks_chat": 4,
            "aver_score": 0.312935171933372
        }
    ],
    "G_g03": [
        {
            "orig_tasks_model": 18,
            "orig_tasks_chat": 9,
            "tasks_model": 11,
            "tasks_chat": 8,
            "aver_score": 0.41705136791920716
        },
        {
            "orig_tasks_model": 13,
            "orig_tasks_chat": 9,
            "tasks_model": 4,
            "tasks_chat": 4,
            "aver_score": 0.6125458730592439
        },
        {
            "orig_tasks_model": 7,
            "orig_tasks_chat": 9,
            "tasks_model": 5,
            "tasks_chat": 3,
            "aver_score": 0.42294347167581775
        },
        {
            "orig_tasks_model": 20,
            "orig_tasks_chat": 9,
            "tasks_model": 12,
            "tasks_chat": 7,
            "aver_score": 0.410865870175287
        },
        {
            "orig_tasks_model": 14,
            "orig_tasks_chat": 9,
            "tasks_model": 8,
            "tasks_chat": 7,
            "aver_score": 0.5752421795208325
        },
        {
            "orig_tasks_model": 12,
            "orig_tasks_chat": 9,
            "tasks_model": 8,
            "tasks_chat": 6,
            "aver_score": 0.4447046711142434
        },
        {
            "orig_tasks_model": 15,
            "orig_tasks_chat": 9,
            "tasks_model": 10,
            "tasks_chat": 7,
            "aver_score": 0.47347570641248343
        },
        {
            "orig_tasks_model": 15,
            "orig_tasks_chat": 9,
            "tasks_model": 10,
            "tasks_chat": 7,
            "aver_score": 0.49524132645615565
        }
    ],
    "M_g01": [
        {
            "orig_tasks_model": 6,
            "orig_tasks_chat": 10,
            "tasks_model": 5,
            "tasks_chat": 5,
            "aver_score": 0.38757523979937525
        },
        {
            "orig_tasks_model": 13,
            "orig_tasks_chat": 10,
            "tasks_model": 10,
            "tasks_chat": 8,
            "aver_score": 0.5557908589054619
        },
        {
            "orig_tasks_model": 14,
            "orig_tasks_chat": 10,
            "tasks_model": 6,
            "tasks_chat": 5,
            "aver_score": 0.5892947093002944
        },
        {
            "orig_tasks_model": 14,
            "orig_tasks_chat": 10,
            "tasks_model": 8,
            "tasks_chat": 7,
            "aver_score": 0.5862146285468521
        },
        {
            "orig_tasks_model": 12,
            "orig_tasks_chat": 10,
            "tasks_model": 9,
            "tasks_chat": 7,
            "aver_score": 0.44847375190100763
        },
        {
            "orig_tasks_model": 10,
            "orig_tasks_chat": 10,
            "tasks_model": 9,
            "tasks_chat": 8,
            "aver_score": 0.5720382252036855
        },
        {
            "orig_tasks_model": 16,
            "orig_tasks_chat": 10,
            "tasks_model": 15,
            "tasks_chat": 10,
            "aver_score": 0.5145827173223946
        },
        {
            "orig_tasks_model": 0,
            "orig_tasks_chat": 10,
            "tasks_model": 0,
            "tasks_chat": 0,
            "aver_score": 0
        },
        {
            "orig_tasks_model": 9,
            "orig_tasks_chat": 10,
            "tasks_model": 6,
            "tasks_chat": 4,
            "aver_score": 0.5048901046526258
        },
        {
            "orig_tasks_model": 5,
            "orig_tasks_chat": 10,
            "tasks_model": 3,
            "tasks_chat": 2,
            "aver_score": 0.2723135829647832
        },
        {
            "orig_tasks_model": 12,
            "orig_tasks_chat": 10,
            "tasks_model": 10,
            "tasks_chat": 8,
            "aver_score": 0.5105605363137179
        }
    ],
    "M_g02": [
        {
            "orig_tasks_model": 16,
            "orig_tasks_chat": 8,
            "tasks_model": 10,
            "tasks_chat": 4,
            "aver_score": 0.39294484134799407
        },
        {
            "orig_tasks_model": 12,
            "orig_tasks_chat": 8,
            "tasks_model": 6,
            "tasks_chat": 4,
            "aver_score": 0.6364748654812199
        },
        {
            "orig_tasks_model": 9,
            "orig_tasks_chat": 8,
            "tasks_model": 6,
            "tasks_chat": 5,
            "aver_score": 0.4969872671519298
        },
        {
            "orig_tasks_model": 12,
            "orig_tasks_chat": 8,
            "tasks_model": 7,
            "tasks_chat": 5,
            "aver_score": 0.47340135976270464
        },
        {
            "orig_tasks_model": 10,
            "orig_tasks_chat": 8,
            "tasks_model": 8,
            "tasks_chat": 5,
            "aver_score": 0.4327162159242485
        },
        {
            "orig_tasks_model": 10,
            "orig_tasks_chat": 8,
            "tasks_model": 10,
            "tasks_chat": 5,
            "aver_score": 0.40664473271816715
        },
        {
            "orig_tasks_model": 14,
            "orig_tasks_chat": 8,
            "tasks_model": 7,
            "tasks_chat": 5,
            "aver_score": 0.45489298903861775
        },
        {
            "orig_tasks_model": 10,
            "orig_tasks_chat": 8,
            "tasks_model": 5,
            "tasks_chat": 4,
            "aver_score": 0.517300704407053
        },
        {
            "orig_tasks_model": 10,
            "orig_tasks_chat": 8,
            "tasks_model": 3,
            "tasks_chat": 3,
            "aver_score": 0.27904808365041006
        }
    ],
    "M_j01": [
        {
            "orig_tasks_model": 12,
            "orig_tasks_chat": 6,
            "tasks_model": 4,
            "tasks_chat": 4,
            "aver_score": 0.4518393648040335
        },
        {
            "orig_tasks_model": 10,
            "orig_tasks_chat": 6,
            "tasks_model": 7,
            "tasks_chat": 3,
            "aver_score": 0.498160814195495
        },
        {
            "orig_tasks_model": 13,
            "orig_tasks_chat": 6,
            "tasks_model": 3,
            "tasks_chat": 1,
            "aver_score": 0.41731084203006025
        },
        {
            "orig_tasks_model": 12,
            "orig_tasks_chat": 6,
            "tasks_model": 7,
            "tasks_chat": 4,
            "aver_score": 0.3870603934298135
        },
        {
            "orig_tasks_model": 19,
            "orig_tasks_chat": 6,
            "tasks_model": 6,
            "tasks_chat": 4,
            "aver_score": 0.32780238610404716
        },
        {
            "orig_tasks_model": 23,
            "orig_tasks_chat": 6,
            "tasks_model": 13,
            "tasks_chat": 4,
            "aver_score": 0.34808881216869125
        },
        {
            "orig_tasks_model": 13,
            "orig_tasks_chat": 6,
            "tasks_model": 9,
            "tasks_chat": 3,
            "aver_score": 0.38020934767284914
        },
        {
            "orig_tasks_model": 27,
            "orig_tasks_chat": 6,
            "tasks_model": 11,
            "tasks_chat": 4,
            "aver_score": 0.31463115498545613
        },
        {
            "orig_tasks_model": 14,
            "orig_tasks_chat": 6,
            "tasks_model": 10,
            "tasks_chat": 3,
            "aver_score": 0.2867454214948172
        },
        {
            "orig_tasks_model": 9,
            "orig_tasks_chat": 6,
            "tasks_model": 5,
            "tasks_chat": 3,
            "aver_score": 0.6460817217437598
        }
    ],
    "M_j02": [
        {
            "orig_tasks_model": 21,
            "orig_tasks_chat": 8,
            "tasks_model": 6,
            "tasks_chat": 3,
            "aver_score": 0.2807174286706143
        },
        {
            "orig_tasks_model": 9,
            "orig_tasks_chat": 8,
            "tasks_model": 5,
            "tasks_chat": 4,
            "aver_score": 0.6181576775530127
        },
        {
            "orig_tasks_model": 9,
            "orig_tasks_chat": 8,
            "tasks_model": 6,
            "tasks_chat": 5,
            "aver_score": 0.4479068310162638
        },
        {
            "orig_tasks_model": 0,
            "orig_tasks_chat": 8,
            "tasks_model": 0,
            "tasks_chat": 0,
            "aver_score": 0
        },
        {
            "orig_tasks_model": 21,
            "orig_tasks_chat": 8,
            "tasks_model": 9,
            "tasks_chat": 5,
            "aver_score": 0.521759535192547
        },
        {
            "orig_tasks_model": 14,
            "orig_tasks_chat": 8,
            "tasks_model": 6,
            "tasks_chat": 5,
            "aver_score": 0.5173513416577151
        },
        {
            "orig_tasks_model": 29,
            "orig_tasks_chat": 8,
            "tasks_model": 17,
            "tasks_chat": 6,
            "aver_score": 0.31595708206758727
        },
        {
            "orig_tasks_model": 20,
            "orig_tasks_chat": 8,
            "tasks_model": 4,
            "tasks_chat": 3,
            "aver_score": 0.6369307430270509
        },
        {
            "orig_tasks_model": 13,
            "orig_tasks_chat": 8,
            "tasks_model": 3,
            "tasks_chat": 2,
            "aver_score": 0.41648774620782586
        },
        {
            "orig_tasks_model": 18,
            "orig_tasks_chat": 8,
            "tasks_model": 6,
            "tasks_chat": 4,
            "aver_score": 0.5003258606217695
        }
    ],
    "M_j03": [
        {
            "orig_tasks_model": 11,
            "orig_tasks_chat": 10,
            "tasks_model": 5,
            "tasks_chat": 4,
            "aver_score": 0.32756904610436544
        },
        {
            "orig_tasks_model": 14,
            "orig_tasks_chat": 10,
            "tasks_model": 8,
            "tasks_chat": 6,
            "aver_score": 0.3979335669006533
        },
        {
            "orig_tasks_model": 7,
            "orig_tasks_chat": 10,
            "tasks_model": 4,
            "tasks_chat": 3,
            "aver_score": 0.2669355826954556
        },
        {
            "orig_tasks_model": 5,
            "orig_tasks_chat": 10,
            "tasks_model": 4,
            "tasks_chat": 4,
            "aver_score": 0.38455302475557207
        },
        {
            "orig_tasks_model": 11,
            "orig_tasks_chat": 10,
            "tasks_model": 6,
            "tasks_chat": 5,
            "aver_score": 0.5257194112563076
        },
        {
            "orig_tasks_model": 6,
            "orig_tasks_chat": 10,
            "tasks_model": 4,
            "tasks_chat": 2,
            "aver_score": 0.3826577941810399
        },
        {
            "orig_tasks_model": 21,
            "orig_tasks_chat": 10,
            "tasks_model": 5,
            "tasks_chat": 4,
            "aver_score": 0.30470921646303184
        },
        {
            "orig_tasks_model": 13,
            "orig_tasks_chat": 10,
            "tasks_model": 2,
            "tasks_chat": 2,
            "aver_score": 0.487878471393435
        },
        {
            "orig_tasks_model": 10,
            "orig_tasks_chat": 10,
            "tasks_model": 8,
            "tasks_chat": 5,
            "aver_score": 0.38187321050137596
        },
        {
            "orig_tasks_model": 13,
            "orig_tasks_chat": 10,
            "tasks_model": 4,
            "tasks_chat": 4,
            "aver_score": 0.3146653088219028
        }
    ],
    "M_k05": [
        {
            "orig_tasks_model": 14,
            "orig_tasks_chat": 10,
            "tasks_model": 6,
            "tasks_chat": 4,
            "aver_score": 0.43250932357322486
        },
        {
            "orig_tasks_model": 14,
            "orig_tasks_chat": 10,
            "tasks_model": 7,
            "tasks_chat": 5,
            "aver_score": 0.5247461376587956
        },
        {
            "orig_tasks_model": 11,
            "orig_tasks_chat": 10,
            "tasks_model": 6,
            "tasks_chat": 4,
            "aver_score": 0.47458172025336026
        },
        {
            "orig_tasks_model": 13,
            "orig_tasks_chat": 10,
            "tasks_model": 13,
            "tasks_chat": 7,
            "aver_score": 0.4136406326013301
        },
        {
            "orig_tasks_model": 11,
            "orig_tasks_chat": 10,
            "tasks_model": 8,
            "tasks_chat": 6,
            "aver_score": 0.4853097161099008
        },
        {
            "orig_tasks_model": 10,
            "orig_tasks_chat": 10,
            "tasks_model": 9,
            "tasks_chat": 6,
            "aver_score": 0.5033345967743048
        },
        {
            "orig_tasks_model": 18,
            "orig_tasks_chat": 10,
            "tasks_model": 13,
            "tasks_chat": 7,
            "aver_score": 0.45551567580330093
        },
        {
            "orig_tasks_model": 17,
            "orig_tasks_chat": 10,
            "tasks_model": 16,
            "tasks_chat": 8,
            "aver_score": 0.43410083934889254
        }
    ],
    "R_g01": [
        {
            "orig_tasks_model": 9,
            "orig_tasks_chat": 6,
            "tasks_model": 3,
            "tasks_chat": 3,
            "aver_score": 0.4111871669760195
        },
        {
            "orig_tasks_model": 15,
            "orig_tasks_chat": 6,
            "tasks_model": 8,
            "tasks_chat": 5,
            "aver_score": 0.43822235225616735
        },
        {
            "orig_tasks_model": 11,
            "orig_tasks_chat": 6,
            "tasks_model": 6,
            "tasks_chat": 5,
            "aver_score": 0.47503501567273415
        },
        {
            "orig_tasks_model": 1,
            "orig_tasks_chat": 6,
            "tasks_model": 1,
            "tasks_chat": 1,
            "aver_score": 0.5023287782256718
        },
        {
            "orig_tasks_model": 14,
            "orig_tasks_chat": 6,
            "tasks_model": 5,
            "tasks_chat": 4,
            "aver_score": 0.37444082043543647
        },
        {
            "orig_tasks_model": 9,
            "orig_tasks_chat": 6,
            "tasks_model": 5,
            "tasks_chat": 3,
            "aver_score": 0.4508278872990714
        },
        {
            "orig_tasks_model": 14,
            "orig_tasks_chat": 6,
            "tasks_model": 6,
            "tasks_chat": 3,
            "aver_score": 0.3967159202380109
        },
        {
            "orig_tasks_model": 11,
            "orig_tasks_chat": 6,
            "tasks_model": 5,
            "tasks_chat": 2,
            "aver_score": 0.3677433418645743
        },
        {
            "orig_tasks_model": 11,
            "orig_tasks_chat": 6,
            "tasks_model": 5,
            "tasks_chat": 4,
            "aver_score": 0.6023213110232885
        },
        {
            "orig_tasks_model": 13,
            "orig_tasks_chat": 6,
            "tasks_model": 6,
            "tasks_chat": 4,
            "aver_score": 0.4462026204012721
        },
        {
            "orig_tasks_model": 15,
            "orig_tasks_chat": 6,
            "tasks_model": 10,
            "tasks_chat": 6,
            "aver_score": 0.504413992238862
        },
        {
            "orig_tasks_model": 13,
            "orig_tasks_chat": 6,
            "tasks_model": 4,
            "tasks_chat": 3,
            "aver_score": 0.6379437724049881
        }
    ],
    "R_j01": [
        {
            "orig_tasks_model": 6,
            "orig_tasks_chat": 7,
            "tasks_model": 5,
            "tasks_chat": 4,
            "aver_score": 0.7509382920977611
        },
        {
            "orig_tasks_model": 10,
            "orig_tasks_chat": 7,
            "tasks_model": 7,
            "tasks_chat": 4,
            "aver_score": 0.5575146376101877
        },
        {
            "orig_tasks_model": 9,
            "orig_tasks_chat": 7,
            "tasks_model": 9,
            "tasks_chat": 5,
            "aver_score": 0.6513705491974314
        },
        {
            "orig_tasks_model": 12,
            "orig_tasks_chat": 7,
            "tasks_model": 8,
            "tasks_chat": 5,
            "aver_score": 0.5226398705663325
        },
        {
            "orig_tasks_model": 7,
            "orig_tasks_chat": 7,
            "tasks_model": 4,
            "tasks_chat": 3,
            "aver_score": 0.6180454289720521
        },
        {
            "orig_tasks_model": 16,
            "orig_tasks_chat": 7,
            "tasks_model": 10,
            "tasks_chat": 5,
            "aver_score": 0.42218719903913354
        },
        {
            "orig_tasks_model": 7,
            "orig_tasks_chat": 7,
            "tasks_model": 5,
            "tasks_chat": 3,
            "aver_score": 0.5508522608631706
        },
        {
            "orig_tasks_model": 12,
            "orig_tasks_chat": 7,
            "tasks_model": 10,
            "tasks_chat": 5,
            "aver_score": 0.5095972410803151
        },
        {
            "orig_tasks_model": 2,
            "orig_tasks_chat": 7,
            "tasks_model": 1,
            "tasks_chat": 1,
            "aver_score": 0.26055567105626243
        },
        {
            "orig_tasks_model": 10,
            "orig_tasks_chat": 7,
            "tasks_model": 9,
            "tasks_chat": 5,
            "aver_score": 0.5760757835221066
        },
        {
            "orig_tasks_model": 10,
            "orig_tasks_chat": 7,
            "tasks_model": 4,
            "tasks_chat": 3,
            "aver_score": 0.8151389177640658
        }
    ],
    "R_j02": [
        {
            "orig_tasks_model": 13,
            "orig_tasks_chat": 7,
            "tasks_model": 6,
            "tasks_chat": 5,
            "aver_score": 0.5624268282446895
        },
        {
            "orig_tasks_model": 7,
            "orig_tasks_chat": 7,
            "tasks_model": 1,
            "tasks_chat": 1,
            "aver_score": 0.4112070550676187
        },
        {
            "orig_tasks_model": 8,
            "orig_tasks_chat": 7,
            "tasks_model": 1,
            "tasks_chat": 1,
            "aver_score": 0.22028815056182974
        },
        {
            "orig_tasks_model": 20,
            "orig_tasks_chat": 7,
            "tasks_model": 4,
            "tasks_chat": 3,
            "aver_score": 0.5833529964775921
        },
        {
            "orig_tasks_model": 13,
            "orig_tasks_chat": 7,
            "tasks_model": 7,
            "tasks_chat": 6,
            "aver_score": 0.4767180612836777
        },
        {
            "orig_tasks_model": 7,
            "orig_tasks_chat": 7,
            "tasks_model": 4,
            "tasks_chat": 4,
            "aver_score": 0.64916314958313
        },
        {
            "orig_tasks_model": 15,
            "orig_tasks_chat": 7,
            "tasks_model": 8,
            "tasks_chat": 6,
            "aver_score": 0.5791445023407129
        },
        {
            "orig_tasks_model": 12,
            "orig_tasks_chat": 7,
            "tasks_model": 5,
            "tasks_chat": 4,
            "aver_score": 0.5435176096870094
        },
        {
            "orig_tasks_model": 11,
            "orig_tasks_chat": 7,
            "tasks_model": 7,
            "tasks_chat": 4,
            "aver_score": 0.41301159313655794
        },
        {
            "orig_tasks_model": 7,
            "orig_tasks_chat": 7,
            "tasks_model": 5,
            "tasks_chat": 4,
            "aver_score": 0.5625708901924662
        }
    ],
    "R_j03": [
        {
            "orig_tasks_model": 8,
            "orig_tasks_chat": 9,
            "tasks_model": 6,
            "tasks_chat": 3,
            "aver_score": 0.36150112018231845
        },
        {
            "orig_tasks_model": 16,
            "orig_tasks_chat": 9,
            "tasks_model": 8,
            "tasks_chat": 4,
            "aver_score": 0.3153480130219496
        },
        {
            "orig_tasks_model": 11,
            "orig_tasks_chat": 9,
            "tasks_model": 9,
            "tasks_chat": 5,
            "aver_score": 0.4388448986536446
        },
        {
            "orig_tasks_model": 14,
            "orig_tasks_chat": 9,
            "tasks_model": 8,
            "tasks_chat": 5,
            "aver_score": 0.44917833265357243
        },
        {
            "orig_tasks_model": 11,
            "orig_tasks_chat": 9,
            "tasks_model": 7,
            "tasks_chat": 5,
            "aver_score": 0.571185655972832
        },
        {
            "orig_tasks_model": 17,
            "orig_tasks_chat": 9,
            "tasks_model": 9,
            "tasks_chat": 5,
            "aver_score": 0.42002516074848
        },
        {
            "orig_tasks_model": 0,
            "orig_tasks_chat": 9,
            "tasks_model": 0,
            "tasks_chat": 0,
            "aver_score": 0
        },
        {
            "orig_tasks_model": 13,
            "orig_tasks_chat": 9,
            "tasks_model": 6,
            "tasks_chat": 4,
            "aver_score": 0.3752562037450924
        }
    ],
    "R_j04": [
        {
            "orig_tasks_model": 12,
            "orig_tasks_chat": 8,
            "tasks_model": 5,
            "tasks_chat": 5,
            "aver_score": 0.3421834398550238
        },
        {
            "orig_tasks_model": 26,
            "orig_tasks_chat": 8,
            "tasks_model": 10,
            "tasks_chat": 7,
            "aver_score": 0.40675242415297425
        },
        {
            "orig_tasks_model": 10,
            "orig_tasks_chat": 8,
            "tasks_model": 7,
            "tasks_chat": 6,
            "aver_score": 0.4245342032390772
        },
        {
            "orig_tasks_model": 12,
            "orig_tasks_chat": 8,
            "tasks_model": 6,
            "tasks_chat": 5,
            "aver_score": 0.3503024887076726
        },
        {
            "orig_tasks_model": 10,
            "orig_tasks_chat": 8,
            "tasks_model": 4,
            "tasks_chat": 4,
            "aver_score": 0.46421851038198886
        },
        {
            "orig_tasks_model": 12,
            "orig_tasks_chat": 8,
            "tasks_model": 5,
            "tasks_chat": 4,
            "aver_score": 0.43315084603261067
        },
        {
            "orig_tasks_model": 9,
            "orig_tasks_chat": 8,
            "tasks_model": 4,
            "tasks_chat": 4,
            "aver_score": 0.33763153005687874
        },
        {
            "orig_tasks_model": 9,
            "orig_tasks_chat": 8,
            "tasks_model": 5,
            "tasks_chat": 3,
            "aver_score": 0.4211953374076578
        }
    ],
    "V_g01": [
        {
            "orig_tasks_model": 13,
            "orig_tasks_chat": 8,
            "tasks_model": 10,
            "tasks_chat": 6,
            "aver_score": 0.33813972424566285
        },
        {
            "orig_tasks_model": 12,
            "orig_tasks_chat": 8,
            "tasks_model": 9,
            "tasks_chat": 4,
            "aver_score": 0.39307698953000775
        },
        {
            "orig_tasks_model": 13,
            "orig_tasks_chat": 8,
            "tasks_model": 9,
            "tasks_chat": 4,
            "aver_score": 0.3718158747595164
        },
        {
            "orig_tasks_model": 12,
            "orig_tasks_chat": 8,
            "tasks_model": 8,
            "tasks_chat": 5,
            "aver_score": 0.39075684028422714
        },
        {
            "orig_tasks_model": 0,
            "orig_tasks_chat": 8,
            "tasks_model": 0,
            "tasks_chat": 0,
            "aver_score": 0
        },
        {
            "orig_tasks_model": 12,
            "orig_tasks_chat": 8,
            "tasks_model": 11,
            "tasks_chat": 4,
            "aver_score": 0.23731223482125088
        },
        {
            "orig_tasks_model": 21,
            "orig_tasks_chat": 8,
            "tasks_model": 1,
            "tasks_chat": 1,
            "aver_score": 0.22028815056182968
        },
        {
            "orig_tasks_model": 11,
            "orig_tasks_chat": 8,
            "tasks_model": 11,
            "tasks_chat": 5,
            "aver_score": 0.32195252234808025
        },
        {
            "orig_tasks_model": 8,
            "orig_tasks_chat": 8,
            "tasks_model": 8,
            "tasks_chat": 5,
            "aver_score": 0.2932928591044559
        },
        {
            "orig_tasks_model": 20,
            "orig_tasks_chat": 8,
            "tasks_model": 14,
            "tasks_chat": 6,
            "aver_score": 0.3320727924506813
        },
        {
            "orig_tasks_model": 13,
            "orig_tasks_chat": 8,
            "tasks_model": 1,
            "tasks_chat": 1,
            "aver_score": 0.3187840217537793
        },
        {
            "orig_tasks_model": 13,
            "orig_tasks_chat": 8,
            "tasks_model": 9,
            "tasks_chat": 3,
            "aver_score": 0.38468351661667494
        }
    ],
    "X_g03": [
        {
            "orig_tasks_model": 9,
            "orig_tasks_chat": 10,
            "tasks_model": 7,
            "tasks_chat": 5,
            "aver_score": 0.6684991260407597
        },
        {
            "orig_tasks_model": 12,
            "orig_tasks_chat": 10,
            "tasks_model": 7,
            "tasks_chat": 5,
            "aver_score": 0.5592394286151905
        },
        {
            "orig_tasks_model": 9,
            "orig_tasks_chat": 10,
            "tasks_model": 8,
            "tasks_chat": 4,
            "aver_score": 0.4767002056012749
        },
        {
            "orig_tasks_model": 13,
            "orig_tasks_chat": 10,
            "tasks_model": 11,
            "tasks_chat": 5,
            "aver_score": 0.5312067923028301
        },
        {
            "orig_tasks_model": 16,
            "orig_tasks_chat": 10,
            "tasks_model": 11,
            "tasks_chat": 6,
            "aver_score": 0.607967362009357
        },
        {
            "orig_tasks_model": 14,
            "orig_tasks_chat": 10,
            "tasks_model": 11,
            "tasks_chat": 7,
            "aver_score": 0.5359098617096977
        },
        {
            "orig_tasks_model": 11,
            "orig_tasks_chat": 10,
            "tasks_model": 5,
            "tasks_chat": 4,
            "aver_score": 0.8312985784131047
        },
        {
            "orig_tasks_model": 11,
            "orig_tasks_chat": 10,
            "tasks_model": 2,
            "tasks_chat": 2,
            "aver_score": 0.4201471712969641
        },
        {
            "orig_tasks_model": 7,
            "orig_tasks_chat": 10,
            "tasks_model": 6,
            "tasks_chat": 5,
            "aver_score": 0.6993006474435056
        },
        {
            "orig_tasks_model": 14,
            "orig_tasks_chat": 10,
            "tasks_model": 11,
            "tasks_chat": 7,
            "aver_score": 0.6710893481646845
        },
        {
            "orig_tasks_model": 8,
            "orig_tasks_chat": 10,
            "tasks_model": 6,
            "tasks_chat": 5,
            "aver_score": 0.7606079540966243
        }
    ],
    "E_j04": [
        {
            "orig_tasks_model": 11,
            "orig_tasks_chat": 7,
            "tasks_model": 2,
            "tasks_chat": 2,
            "aver_score": 0.30894072811213513
        },
        {
            "orig_tasks_model": 14,
            "orig_tasks_chat": 7,
            "tasks_model": 6,
            "tasks_chat": 4,
            "aver_score": 0.40374462572237135
        },
        {
            "orig_tasks_model": 16,
            "orig_tasks_chat": 7,
            "tasks_model": 6,
            "tasks_chat": 4,
            "aver_score": 0.3591619070033805
        },
        {
            "orig_tasks_model": 10,
            "orig_tasks_chat": 7,
            "tasks_model": 5,
            "tasks_chat": 3,
            "aver_score": 0.36406835895216416
        },
        {
            "orig_tasks_model": 13,
            "orig_tasks_chat": 7,
            "tasks_model": 2,
            "tasks_chat": 2,
            "aver_score": 0.42754847386967143
        },
        {
            "orig_tasks_model": 7,
            "orig_tasks_chat": 7,
            "tasks_model": 3,
            "tasks_chat": 2,
            "aver_score": 0.2839277853970927
        },
        {
            "orig_tasks_model": 15,
            "orig_tasks_chat": 7,
            "tasks_model": 1,
            "tasks_chat": 1,
            "aver_score": 0.22028815056182974
        },
        {
            "orig_tasks_model": 2,
            "orig_tasks_chat": 7,
            "tasks_model": 0,
            "tasks_chat": 0,
            "aver_score": 0
        },
        {
            "orig_tasks_model": 17,
            "orig_tasks_chat": 7,
            "tasks_model": 5,
            "tasks_chat": 2,
            "aver_score": 0.33036203565815475
        }
    ],
    "G_j01": [
        {
            "orig_tasks_model": 11,
            "orig_tasks_chat": 7,
            "tasks_model": 4,
            "tasks_chat": 3,
            "aver_score": 0.29832629916625997
        },
        {
            "orig_tasks_model": 16,
            "orig_tasks_chat": 7,
            "tasks_model": 5,
            "tasks_chat": 2,
            "aver_score": 0.4471070564213795
        },
        {
            "orig_tasks_model": 15,
            "orig_tasks_chat": 7,
            "tasks_model": 7,
            "tasks_chat": 6,
            "aver_score": 0.36476377954283346
        },
        {
            "orig_tasks_model": 5,
            "orig_tasks_chat": 7,
            "tasks_model": 1,
            "tasks_chat": 1,
            "aver_score": 0.22028815056182974
        },
        {
            "orig_tasks_model": 3,
            "orig_tasks_chat": 7,
            "tasks_model": 0,
            "tasks_chat": 0,
            "aver_score": 0
        },
        {
            "orig_tasks_model": 21,
            "orig_tasks_chat": 7,
            "tasks_model": 5,
            "tasks_chat": 2,
            "aver_score": 0.240789651245707
        }
    ],
    "V_k08": [
        {
            "orig_tasks_model": 14,
            "orig_tasks_chat": 11,
            "tasks_model": 11,
            "tasks_chat": 7,
            "aver_score": 0.6158161683473241
        },
        {
            "orig_tasks_model": 13,
            "orig_tasks_chat": 11,
            "tasks_model": 3,
            "tasks_chat": 3,
            "aver_score": 0.38039937729633894
        },
        {
            "orig_tasks_model": 13,
            "orig_tasks_chat": 11,
            "tasks_model": 8,
            "tasks_chat": 4,
            "aver_score": 0.4675425422441423
        },
        {
            "orig_tasks_model": 12,
            "orig_tasks_chat": 11,
            "tasks_model": 10,
            "tasks_chat": 6,
            "aver_score": 0.3470310446990883
        },
        {
            "orig_tasks_model": 1,
            "orig_tasks_chat": 11,
            "tasks_model": 1,
            "tasks_chat": 1,
            "aver_score": 1.0000000000000002
        },
        {
            "orig_tasks_model": 13,
            "orig_tasks_chat": 11,
            "tasks_model": 9,
            "tasks_chat": 7,
            "aver_score": 0.6753625370800096
        },
        {
            "orig_tasks_model": 17,
            "orig_tasks_chat": 11,
            "tasks_model": 10,
            "tasks_chat": 7,
            "aver_score": 0.5956963480136435
        }
    ],
    "V_k09": [
        {
            "orig_tasks_model": 9,
            "orig_tasks_chat": 10,
            "tasks_model": 8,
            "tasks_chat": 8,
            "aver_score": 0.49866869248338663
        },
        {
            "orig_tasks_model": 8,
            "orig_tasks_chat": 10,
            "tasks_model": 6,
            "tasks_chat": 5,
            "aver_score": 0.6979847951986508
        },
        {
            "orig_tasks_model": 12,
            "orig_tasks_chat": 10,
            "tasks_model": 8,
            "tasks_chat": 6,
            "aver_score": 0.42272851136559697
        },
        {
            "orig_tasks_model": 11,
            "orig_tasks_chat": 10,
            "tasks_model": 8,
            "tasks_chat": 5,
            "aver_score": 0.3704724601385264
        },
        {
            "orig_tasks_model": 9,
            "orig_tasks_chat": 10,
            "tasks_model": 9,
            "tasks_chat": 9,
            "aver_score": 0.6847976830073459
        },
        {
            "orig_tasks_model": 14,
            "orig_tasks_chat": 10,
            "tasks_model": 9,
            "tasks_chat": 7,
            "aver_score": 0.4706147868262051
        },
        {
            "orig_tasks_model": 7,
            "orig_tasks_chat": 10,
            "tasks_model": 6,
            "tasks_chat": 6,
            "aver_score": 0.4047000232539156
        },
        {
            "orig_tasks_model": 9,
            "orig_tasks_chat": 10,
            "tasks_model": 8,
            "tasks_chat": 7,
            "aver_score": 0.4921492011052851
        }
    ],
    "X_g01": [
        {
            "orig_tasks_model": 10,
            "orig_tasks_chat": 9,
            "tasks_model": 7,
            "tasks_chat": 4,
            "aver_score": 0.27401496332617076
        },
        {
            "orig_tasks_model": 7,
            "orig_tasks_chat": 9,
            "tasks_model": 4,
            "tasks_chat": 3,
            "aver_score": 0.7424632344156341
        },
        {
            "orig_tasks_model": 13,
            "orig_tasks_chat": 9,
            "tasks_model": 10,
            "tasks_chat": 8,
            "aver_score": 0.5281092418364406
        },
        {
            "orig_tasks_model": 7,
            "orig_tasks_chat": 9,
            "tasks_model": 3,
            "tasks_chat": 3,
            "aver_score": 0.6431951390560346
        },
        {
            "orig_tasks_model": 14,
            "orig_tasks_chat": 9,
            "tasks_model": 7,
            "tasks_chat": 4,
            "aver_score": 0.5102331727690222
        },
        {
            "orig_tasks_model": 17,
            "orig_tasks_chat": 9,
            "tasks_model": 9,
            "tasks_chat": 5,
            "aver_score": 0.5532042822739202
        }
    ]
}