{
    "E_j01": [
        {
            "orig_tasks_model": 11,
            "orig_tasks_chat": 6,
            "tasks_model": 8,
            "tasks_chat": 5,
            "aver_score": 0.48508486972688925
        },
        {
            "orig_tasks_model": 10,
            "orig_tasks_chat": 6,
            "tasks_model": 4,
            "tasks_chat": 4,
            "aver_score": 0.4454167532921969
        },
        {
            "orig_tasks_model": 11,
            "orig_tasks_chat": 6,
            "tasks_model": 7,
            "tasks_chat": 5,
            "aver_score": 0.524935579212967
        },
        {
            "orig_tasks_model": 9,
            "orig_tasks_chat": 6,
            "tasks_model": 6,
            "tasks_chat": 4,
            "aver_score": 0.3819968085022789
        },
        {
            "orig_tasks_model": 13,
            "orig_tasks_chat": 6,
            "tasks_model": 8,
            "tasks_chat": 4,
            "aver_score": 0.31638460057526463
        },
        {
            "orig_tasks_model": 18,
            "orig_tasks_chat": 6,
            "tasks_model": 8,
            "tasks_chat": 5,
            "aver_score": 0.42246149834059693
        },
        {
            "orig_tasks_model": 9,
            "orig_tasks_chat": 6,
            "tasks_model": 7,
            "tasks_chat": 4,
            "aver_score": 0.46540501710435883
        },
        {
            "orig_tasks_model": 10,
            "orig_tasks_chat": 6,
            "tasks_model": 8,
            "tasks_chat": 3,
            "aver_score": 0.3245183984772021
        },
        {
            "orig_tasks_model": 19,
            "orig_tasks_chat": 6,
            "tasks_model": 14,
            "tasks_chat": 5,
            "aver_score": 0.4058617897500519
        },
        {
            "orig_tasks_model": 12,
            "orig_tasks_chat": 6,
            "tasks_model": 8,
            "tasks_chat": 5,
            "aver_score": 0.6031258987995781
        },
        {
            "orig_tasks_model": 10,
            "orig_tasks_chat": 6,
            "tasks_model": 5,
            "tasks_chat": 5,
            "aver_score": 0.5630386480126912
        }
    ],
    "G_g01": [
        {
            "orig_tasks_model": 13,
            "orig_tasks_chat": 7,
            "tasks_model": 3,
            "tasks_chat": 3,
            "aver_score": 0.33018224929255346
        },
        {
            "orig_tasks_model": 10,
            "orig_tasks_chat": 7,
            "tasks_model": 4,
            "tasks_chat": 2,
            "aver_score": 0.28802912305556894
        },
        {
            "orig_tasks_model": 8,
            "orig_tasks_chat": 7,
            "tasks_model": 6,
            "tasks_chat": 4,
            "aver_score": 0.3337321282670916
        },
        {
            "orig_tasks_model": 13,
            "orig_tasks_chat": 7,
            "tasks_model": 8,
            "tasks_chat": 5,
            "aver_score": 0.3334517319757743
        },
        {
            "orig_tasks_model": 7,
            "orig_tasks_chat": 7,
            "tasks_model": 5,
            "tasks_chat": 4,
            "aver_score": 0.4158809727887164
        },
        {
            "orig_tasks_model": 11,
            "orig_tasks_chat": 7,
            "tasks_model": 2,
            "tasks_chat": 2,
            "aver_score": 0.6260693534726314
        },
        {
            "orig_tasks_model": 7,
            "orig_tasks_chat": 7,
            "tasks_model": 6,
            "tasks_chat": 4,
            "aver_score": 0.40095084594774083
        },
        {
            "orig_tasks_model": 8,
            "orig_tasks_chat": 7,
            "tasks_model": 4,
            "tasks_chat": 3,
            "aver_score": 0.3172116132212588
        }
    ],
    "G_g03": [
        {
            "orig_tasks_model": 18,
            "orig_tasks_chat": 8,
            "tasks_model": 12,
            "tasks_chat": 7,
            "aver_score": 0.5562770732548428
        },
        {
            "orig_tasks_model": 13,
            "orig_tasks_chat": 8,
            "tasks_model": 8,
            "tasks_chat": 6,
            "aver_score": 0.6371045975522834
        },
        {
            "orig_tasks_model": 7,
            "orig_tasks_chat": 8,
            "tasks_model": 4,
            "tasks_chat": 3,
            "aver_score": 0.37892477047980694
        },
        {
            "orig_tasks_model": 20,
            "orig_tasks_chat": 8,
            "tasks_model": 11,
            "tasks_chat": 6,
            "aver_score": 0.48444122113825594
        },
        {
            "orig_tasks_model": 14,
            "orig_tasks_chat": 8,
            "tasks_model": 8,
            "tasks_chat": 7,
            "aver_score": 0.7192960443799927
        },
        {
            "orig_tasks_model": 12,
            "orig_tasks_chat": 8,
            "tasks_model": 9,
            "tasks_chat": 6,
            "aver_score": 0.5727096918457744
        },
        {
            "orig_tasks_model": 15,
            "orig_tasks_chat": 8,
            "tasks_model": 10,
            "tasks_chat": 6,
            "aver_score": 0.6284870403409016
        },
        {
            "orig_tasks_model": 15,
            "orig_tasks_chat": 8,
            "tasks_model": 10,
            "tasks_chat": 5,
            "aver_score": 0.5014618770664772
        }
    ],
    "M_g01": [
        {
            "orig_tasks_model": 6,
            "orig_tasks_chat": 8,
            "tasks_model": 4,
            "tasks_chat": 4,
            "aver_score": 0.49030744817411365
        },
        {
            "orig_tasks_model": 13,
            "orig_tasks_chat": 8,
            "tasks_model": 9,
            "tasks_chat": 6,
            "aver_score": 0.5215519088489917
        },
        {
            "orig_tasks_model": 14,
            "orig_tasks_chat": 8,
            "tasks_model": 9,
            "tasks_chat": 5,
            "aver_score": 0.5307002116109785
        },
        {
            "orig_tasks_model": 14,
            "orig_tasks_chat": 8,
            "tasks_model": 8,
            "tasks_chat": 6,
            "aver_score": 0.5827903505140718
        },
        {
            "orig_tasks_model": 12,
            "orig_tasks_chat": 8,
            "tasks_model": 10,
            "tasks_chat": 8,
            "aver_score": 0.47218104943657935
        },
        {
            "orig_tasks_model": 10,
            "orig_tasks_chat": 8,
            "tasks_model": 7,
            "tasks_chat": 6,
            "aver_score": 0.49831466880324793
        },
        {
            "orig_tasks_model": 16,
            "orig_tasks_chat": 8,
            "tasks_model": 12,
            "tasks_chat": 8,
            "aver_score": 0.5784717532546408
        },
        {
            "orig_tasks_model": 0,
            "orig_tasks_chat": 8,
            "tasks_model": 0,
            "tasks_chat": 0,
            "aver_score": 0
        },
        {
            "orig_tasks_model": 9,
            "orig_tasks_chat": 8,
            "tasks_model": 6,
            "tasks_chat": 4,
            "aver_score": 0.5647985248152653
        },
        {
            "orig_tasks_model": 5,
            "orig_tasks_chat": 8,
            "tasks_model": 3,
            "tasks_chat": 2,
            "aver_score": 0.3921304232900619
        },
        {
            "orig_tasks_model": 12,
            "orig_tasks_chat": 8,
            "tasks_model": 10,
            "tasks_chat": 8,
            "aver_score": 0.6341799729906914
        }
    ],
    "M_g02": [
        {
            "orig_tasks_model": 16,
            "orig_tasks_chat": 8,
            "tasks_model": 11,
            "tasks_chat": 5,
            "aver_score": 0.34788850031931023
        },
        {
            "orig_tasks_model": 12,
            "orig_tasks_chat": 8,
            "tasks_model": 8,
            "tasks_chat": 6,
            "aver_score": 0.4970912442470068
        },
        {
            "orig_tasks_model": 9,
            "orig_tasks_chat": 8,
            "tasks_model": 8,
            "tasks_chat": 7,
            "aver_score": 0.40999757549090665
        },
        {
            "orig_tasks_model": 12,
            "orig_tasks_chat": 8,
            "tasks_model": 7,
            "tasks_chat": 5,
            "aver_score": 0.47227380777368755
        },
        {
            "orig_tasks_model": 10,
            "orig_tasks_chat": 8,
            "tasks_model": 8,
            "tasks_chat": 6,
            "aver_score": 0.45686467934140834
        },
        {
            "orig_tasks_model": 10,
            "orig_tasks_chat": 8,
            "tasks_model": 10,
            "tasks_chat": 5,
            "aver_score": 0.369231047364483
        },
        {
            "orig_tasks_model": 14,
            "orig_tasks_chat": 8,
            "tasks_model": 9,
            "tasks_chat": 7,
            "aver_score": 0.38692310269844427
        },
        {
            "orig_tasks_model": 10,
            "orig_tasks_chat": 8,
            "tasks_model": 6,
            "tasks_chat": 5,
            "aver_score": 0.42474393262911364
        },
        {
            "orig_tasks_model": 10,
            "orig_tasks_chat": 8,
            "tasks_model": 5,
            "tasks_chat": 5,
            "aver_score": 0.33178561695274156
        }
    ],
    "M_j01": [
        {
            "orig_tasks_model": 12,
            "orig_tasks_chat": 7,
            "tasks_model": 7,
            "tasks_chat": 6,
            "aver_score": 0.40541695546539075
        },
        {
            "orig_tasks_model": 10,
            "orig_tasks_chat": 7,
            "tasks_model": 7,
            "tasks_chat": 3,
            "aver_score": 0.498160814195495
        },
        {
            "orig_tasks_model": 13,
            "orig_tasks_chat": 7,
            "tasks_model": 3,
            "tasks_chat": 1,
            "aver_score": 0.41731084203006025
        },
        {
            "orig_tasks_model": 12,
            "orig_tasks_chat": 7,
            "tasks_model": 7,
            "tasks_chat": 5,
            "aver_score": 0.44129668243448733
        },
        {
            "orig_tasks_model": 19,
            "orig_tasks_chat": 7,
            "tasks_model": 7,
            "tasks_chat": 6,
            "aver_score": 0.45979830639843744
        },
        {
            "orig_tasks_model": 23,
            "orig_tasks_chat": 7,
            "tasks_model": 13,
            "tasks_chat": 7,
            "aver_score": 0.3736212087599243
        },
        {
            "orig_tasks_model": 13,
            "orig_tasks_chat": 7,
            "tasks_model": 9,
            "tasks_chat": 3,
            "aver_score": 0.38020934767284914
        },
        {
            "orig_tasks_model": 27,
            "orig_tasks_chat": 7,
            "tasks_model": 12,
            "tasks_chat": 4,
            "aver_score": 0.2989495450931618
        },
        {
            "orig_tasks_model": 14,
            "orig_tasks_chat": 7,
            "tasks_model": 12,
            "tasks_chat": 5,
            "aver_score": 0.3012298497743373
        },
        {
            "orig_tasks_model": 9,
            "orig_tasks_chat": 7,
            "tasks_model": 7,
            "tasks_chat": 5,
            "aver_score": 0.6552441482931339
        }
    ],
    "M_j02": [
        {
            "orig_tasks_model": 21,
            "orig_tasks_chat": 8,
            "tasks_model": 10,
            "tasks_chat": 5,
            "aver_score": 0.31933003162516327
        },
        {
            "orig_tasks_model": 9,
            "orig_tasks_chat": 8,
            "tasks_model": 6,
            "tasks_chat": 4,
            "aver_score": 0.5362067040071644
        },
        {
            "orig_tasks_model": 9,
            "orig_tasks_chat": 8,
            "tasks_model": 7,
            "tasks_chat": 6,
            "aver_score": 0.4045982686342025
        },
        {
            "orig_tasks_model": 0,
            "orig_tasks_chat": 8,
            "tasks_model": 0,
            "tasks_chat": 0,
            "aver_score": 0
        },
        {
            "orig_tasks_model": 21,
            "orig_tasks_chat": 8,
            "tasks_model": 13,
            "tasks_chat": 6,
            "aver_score": 0.45675235044082724
        },
        {
            "orig_tasks_model": 14,
            "orig_tasks_chat": 8,
            "tasks_model": 6,
            "tasks_chat": 5,
            "aver_score": 0.5988528609984557
        },
        {
            "orig_tasks_model": 29,
            "orig_tasks_chat": 8,
            "tasks_model": 20,
            "tasks_chat": 7,
            "aver_score": 0.3355280972314114
        },
        {
            "orig_tasks_model": 20,
            "orig_tasks_chat": 8,
            "tasks_model": 4,
            "tasks_chat": 3,
            "aver_score": 0.6180454289720521
        },
        {
            "orig_tasks_model": 13,
            "orig_tasks_chat": 8,
            "tasks_model": 4,
            "tasks_chat": 2,
            "aver_score": 0.39997533407435365
        },
        {
            "orig_tasks_model": 18,
            "orig_tasks_chat": 8,
            "tasks_model": 11,
            "tasks_chat": 4,
            "aver_score": 0.4828627101769815
        }
    ],
    "M_j03": [
        {
            "orig_tasks_model": 11,
            "orig_tasks_chat": 8,
            "tasks_model": 8,
            "tasks_chat": 4,
            "aver_score": 0.4373076603260126
        },
        {
            "orig_tasks_model": 14,
            "orig_tasks_chat": 8,
            "tasks_model": 4,
            "tasks_chat": 3,
            "aver_score": 0.36028834465832105
        },
        {
            "orig_tasks_model": 7,
            "orig_tasks_chat": 8,
            "tasks_model": 4,
            "tasks_chat": 4,
            "aver_score": 0.5195493593067977
        },
        {
            "orig_tasks_model": 5,
            "orig_tasks_chat": 8,
            "tasks_model": 2,
            "tasks_chat": 2,
            "aver_score": 0.39300741256329563
        },
        {
            "orig_tasks_model": 11,
            "orig_tasks_chat": 8,
            "tasks_model": 8,
            "tasks_chat": 4,
            "aver_score": 0.37892144223336865
        },
        {
            "orig_tasks_model": 6,
            "orig_tasks_chat": 8,
            "tasks_model": 3,
            "tasks_chat": 3,
            "aver_score": 0.2892693328195525
        },
        {
            "orig_tasks_model": 21,
            "orig_tasks_chat": 8,
            "tasks_model": 3,
            "tasks_chat": 1,
            "aver_score": 0.4325419575290135
        },
        {
            "orig_tasks_model": 13,
            "orig_tasks_chat": 8,
            "tasks_model": 2,
            "tasks_chat": 2,
            "aver_score": 0.42931460377940495
        },
        {
            "orig_tasks_model": 10,
            "orig_tasks_chat": 8,
            "tasks_model": 4,
            "tasks_chat": 2,
            "aver_score": 0.27808475681188516
        },
        {
            "orig_tasks_model": 13,
            "orig_tasks_chat": 8,
            "tasks_model": 5,
            "tasks_chat": 3,
            "aver_score": 0.2757461461736733
        }
    ],
    "M_k05": [
        {
            "orig_tasks_model": 14,
            "orig_tasks_chat": 7,
            "tasks_model": 4,
            "tasks_chat": 4,
            "aver_score": 0.287642097175976
        },
        {
            "orig_tasks_model": 14,
            "orig_tasks_chat": 7,
            "tasks_model": 5,
            "tasks_chat": 5,
            "aver_score": 0.4561741287435176
        },
        {
            "orig_tasks_model": 11,
            "orig_tasks_chat": 7,
            "tasks_model": 7,
            "tasks_chat": 4,
            "aver_score": 0.5149919114516133
        },
        {
            "orig_tasks_model": 13,
            "orig_tasks_chat": 7,
            "tasks_model": 9,
            "tasks_chat": 6,
            "aver_score": 0.4953407063512299
        },
        {
            "orig_tasks_model": 11,
            "orig_tasks_chat": 7,
            "tasks_model": 9,
            "tasks_chat": 6,
            "aver_score": 0.4668439976104236
        },
        {
            "orig_tasks_model": 10,
            "orig_tasks_chat": 7,
            "tasks_model": 8,
            "tasks_chat": 6,
            "aver_score": 0.4052625545517553
        },
        {
            "orig_tasks_model": 18,
            "orig_tasks_chat": 7,
            "tasks_model": 11,
            "tasks_chat": 6,
            "aver_score": 0.5295836026525287
        },
        {
            "orig_tasks_model": 17,
            "orig_tasks_chat": 7,
            "tasks_model": 14,
            "tasks_chat": 6,
            "aver_score": 0.3752789808446483
        }
    ],
    "R_g01": [
        {
            "orig_tasks_model": 9,
            "orig_tasks_chat": 8,
            "tasks_model": 5,
            "tasks_chat": 4,
            "aver_score": 0.3700835202634918
        },
        {
            "orig_tasks_model": 15,
            "orig_tasks_chat": 8,
            "tasks_model": 11,
            "tasks_chat": 7,
            "aver_score": 0.3736264206975591
        },
        {
            "orig_tasks_model": 11,
            "orig_tasks_chat": 8,
            "tasks_model": 9,
            "tasks_chat": 7,
            "aver_score": 0.4340439475939536
        },
        {
            "orig_tasks_model": 1,
            "orig_tasks_chat": 8,
            "tasks_model": 1,
            "tasks_chat": 1,
            "aver_score": 0.7092972666062739
        },
        {
            "orig_tasks_model": 14,
            "orig_tasks_chat": 8,
            "tasks_model": 8,
            "tasks_chat": 5,
            "aver_score": 0.3547318633617508
        },
        {
            "orig_tasks_model": 9,
            "orig_tasks_chat": 8,
            "tasks_model": 8,
            "tasks_chat": 4,
            "aver_score": 0.3316851115393181
        },
        {
            "orig_tasks_model": 14,
            "orig_tasks_chat": 8,
            "tasks_model": 7,
            "tasks_chat": 5,
            "aver_score": 0.3801394228237967
        },
        {
            "orig_tasks_model": 11,
            "orig_tasks_chat": 8,
            "tasks_model": 5,
            "tasks_chat": 3,
            "aver_score": 0.33928156181603425
        },
        {
            "orig_tasks_model": 11,
            "orig_tasks_chat": 8,
            "tasks_model": 9,
            "tasks_chat": 6,
            "aver_score": 0.4700952502695246
        },
        {
            "orig_tasks_model": 13,
            "orig_tasks_chat": 8,
            "tasks_model": 10,
            "tasks_chat": 6,
            "aver_score": 0.34884057441397626
        },
        {
            "orig_tasks_model": 15,
            "orig_tasks_chat": 8,
            "tasks_model": 11,
            "tasks_chat": 6,
            "aver_score": 0.43167763320216007
        },
        {
            "orig_tasks_model": 13,
            "orig_tasks_chat": 8,
            "tasks_model": 5,
            "tasks_chat": 4,
            "aver_score": 0.5597291381660877
        }
    ],
    "R_j01": [
        {
            "orig_tasks_model": 6,
            "orig_tasks_chat": 5,
            "tasks_model": 5,
            "tasks_chat": 4,
            "aver_score": 0.68437962505451
        },
        {
            "orig_tasks_model": 10,
            "orig_tasks_chat": 5,
            "tasks_model": 3,
            "tasks_chat": 3,
            "aver_score": 0.6684771302136011
        },
        {
            "orig_tasks_model": 9,
            "orig_tasks_chat": 5,
            "tasks_model": 8,
            "tasks_chat": 5,
            "aver_score": 0.6274880859995515
        },
        {
            "orig_tasks_model": 12,
            "orig_tasks_chat": 5,
            "tasks_model": 3,
            "tasks_chat": 3,
            "aver_score": 0.5226421580550279
        },
        {
            "orig_tasks_model": 7,
            "orig_tasks_chat": 5,
            "tasks_model": 3,
            "tasks_chat": 2,
            "aver_score": 0.5362115435889449
        },
        {
            "orig_tasks_model": 16,
            "orig_tasks_chat": 5,
            "tasks_model": 6,
            "tasks_chat": 3,
            "aver_score": 0.29057653569545644
        },
        {
            "orig_tasks_model": 7,
            "orig_tasks_chat": 5,
            "tasks_model": 3,
            "tasks_chat": 2,
            "aver_score": 0.48350703927415073
        },
        {
            "orig_tasks_model": 12,
            "orig_tasks_chat": 5,
            "tasks_model": 6,
            "tasks_chat": 2,
            "aver_score": 0.4426351049542668
        },
        {
            "orig_tasks_model": 2,
            "orig_tasks_chat": 5,
            "tasks_model": 0,
            "tasks_chat": 0,
            "aver_score": 0
        },
        {
            "orig_tasks_model": 10,
            "orig_tasks_chat": 5,
            "tasks_model": 7,
            "tasks_chat": 3,
            "aver_score": 0.47213451300475223
        },
        {
            "orig_tasks_model": 10,
            "orig_tasks_chat": 5,
            "tasks_model": 2,
            "tasks_chat": 2,
            "aver_score": 0.751164389112836
        }
    ],
    "R_j02": [
        {
            "orig_tasks_model": 13,
            "orig_tasks_chat": 5,
            "tasks_model": 5,
            "tasks_chat": 3,
            "aver_score": 0.41073699514226086
        },
        {
            "orig_tasks_model": 7,
            "orig_tasks_chat": 5,
            "tasks_model": 2,
            "tasks_chat": 1,
            "aver_score": 0.29832629916625997
        },
        {
            "orig_tasks_model": 8,
            "orig_tasks_chat": 5,
            "tasks_model": 0,
            "tasks_chat": 0,
            "aver_score": 0
        },
        {
            "orig_tasks_model": 20,
            "orig_tasks_chat": 5,
            "tasks_model": 1,
            "tasks_chat": 1,
            "aver_score": 0.22028815056182974
        },
        {
            "orig_tasks_model": 13,
            "orig_tasks_chat": 5,
            "tasks_model": 5,
            "tasks_chat": 4,
            "aver_score": 0.297826920689373
        },
        {
            "orig_tasks_model": 7,
            "orig_tasks_chat": 5,
            "tasks_model": 4,
            "tasks_chat": 3,
            "aver_score": 0.47312050127858624
        },
        {
            "orig_tasks_model": 15,
            "orig_tasks_chat": 5,
            "tasks_model": 6,
            "tasks_chat": 2,
            "aver_score": 0.4341572300268821
        },
        {
            "orig_tasks_model": 12,
            "orig_tasks_chat": 5,
            "tasks_model": 7,
            "tasks_chat": 3,
            "aver_score": 0.44272559565626224
        },
        {
            "orig_tasks_model": 11,
            "orig_tasks_chat": 5,
            "tasks_model": 4,
            "tasks_chat": 2,
            "aver_score": 0.4454167532921969
        },
        {
            "orig_tasks_model": 7,
            "orig_tasks_chat": 5,
            "tasks_model": 2,
            "tasks_chat": 2,
            "aver_score": 0.6302778355281313
        }
    ],
    "R_j03": [
        {
            "orig_tasks_model": 8,
            "orig_tasks_chat": 7,
            "tasks_model": 1,
            "tasks_chat": 1,
            "aver_score": 0.26055567105626243
        },
        {
            "orig_tasks_model": 16,
            "orig_tasks_chat": 7,
            "tasks_model": 1,
            "tasks_chat": 1,
            "aver_score": 0.5245910904457137
        },
        {
            "orig_tasks_model": 11,
            "orig_tasks_chat": 7,
            "tasks_model": 8,
            "tasks_chat": 5,
            "aver_score": 0.3693468349268546
        },
        {
            "orig_tasks_model": 14,
            "orig_tasks_chat": 7,
            "tasks_model": 6,
            "tasks_chat": 3,
            "aver_score": 0.26643462701052284
        },
        {
            "orig_tasks_model": 11,
            "orig_tasks_chat": 7,
            "tasks_model": 6,
            "tasks_chat": 4,
            "aver_score": 0.3436431246346827
        },
        {
            "orig_tasks_model": 17,
            "orig_tasks_chat": 7,
            "tasks_model": 10,
            "tasks_chat": 4,
            "aver_score": 0.3881268784169149
        },
        {
            "orig_tasks_model": 0,
            "orig_tasks_chat": 7,
            "tasks_model": 0,
            "tasks_chat": 0,
            "aver_score": 0
        },
        {
            "orig_tasks_model": 13,
            "orig_tasks_chat": 7,
            "tasks_model": 3,
            "tasks_chat": 3,
            "aver_score": 0.24713316422478485
        }
    ],
    "R_j04": [
        {
            "orig_tasks_model": 12,
            "orig_tasks_chat": 8,
            "tasks_model": 3,
            "tasks_chat": 3,
            "aver_score": 0.34706421072976906
        },
        {
            "orig_tasks_model": 26,
            "orig_tasks_chat": 8,
            "tasks_model": 15,
            "tasks_chat": 7,
            "aver_score": 0.3792203899543077
        },
        {
            "orig_tasks_model": 10,
            "orig_tasks_chat": 8,
            "tasks_model": 8,
            "tasks_chat": 6,
            "aver_score": 0.4594301163763584
        },
        {
            "orig_tasks_model": 12,
            "orig_tasks_chat": 8,
            "tasks_model": 10,
            "tasks_chat": 7,
            "aver_score": 0.44194708252669573
        },
        {
            "orig_tasks_model": 10,
            "orig_tasks_chat": 8,
            "tasks_model": 6,
            "tasks_chat": 5,
            "aver_score": 0.29803793222231073
        },
        {
            "orig_tasks_model": 12,
            "orig_tasks_chat": 8,
            "tasks_model": 7,
            "tasks_chat": 6,
            "aver_score": 0.40289269508731884
        },
        {
            "orig_tasks_model": 9,
            "orig_tasks_chat": 8,
            "tasks_model": 5,
            "tasks_chat": 4,
            "aver_score": 0.2792486991761694
        },
        {
            "orig_tasks_model": 9,
            "orig_tasks_chat": 8,
            "tasks_model": 2,
            "tasks_chat": 2,
            "aver_score": 0.8546486333031371
        }
    ],
    "V_g01": [
        {
            "orig_tasks_model": 13,
            "orig_tasks_chat": 8,
            "tasks_model": 10,
            "tasks_chat": 6,
            "aver_score": 0.36935050956952703
        },
        {
            "orig_tasks_model": 12,
            "orig_tasks_chat": 8,
            "tasks_model": 9,
            "tasks_chat": 5,
            "aver_score": 0.42615022098667676
        },
        {
            "orig_tasks_model": 13,
            "orig_tasks_chat": 8,
            "tasks_model": 8,
            "tasks_chat": 4,
            "aver_score": 0.276365332206881
        },
        {
            "orig_tasks_model": 12,
            "orig_tasks_chat": 8,
            "tasks_model": 7,
            "tasks_chat": 5,
            "aver_score": 0.2737728044679261
        },
        {
            "orig_tasks_model": 0,
            "orig_tasks_chat": 8,
            "tasks_model": 0,
            "tasks_chat": 0,
            "aver_score": 0
        },
        {
            "orig_tasks_model": 12,
            "orig_tasks_chat": 8,
            "tasks_model": 11,
            "tasks_chat": 4,
            "aver_score": 0.34279504140757594
        },
        {
            "orig_tasks_model": 21,
            "orig_tasks_chat": 8,
            "tasks_model": 5,
            "tasks_chat": 4,
            "aver_score": 0.36392541065654893
        },
        {
            "orig_tasks_model": 11,
            "orig_tasks_chat": 8,
            "tasks_model": 11,
            "tasks_chat": 6,
            "aver_score": 0.25831883258034954
        },
        {
            "orig_tasks_model": 8,
            "orig_tasks_chat": 8,
            "tasks_model": 7,
            "tasks_chat": 5,
            "aver_score": 0.31937037596526946
        },
        {
            "orig_tasks_model": 20,
            "orig_tasks_chat": 8,
            "tasks_model": 13,
            "tasks_chat": 6,
            "aver_score": 0.2614820715983141
        },
        {
            "orig_tasks_model": 13,
            "orig_tasks_chat": 8,
            "tasks_model": 6,
            "tasks_chat": 4,
            "aver_score": 0.39004503644394756
        },
        {
            "orig_tasks_model": 13,
            "orig_tasks_chat": 8,
            "tasks_model": 9,
            "tasks_chat": 4,
            "aver_score": 0.277342616882928
        }
    ],
    "X_g03": [
        {
            "orig_tasks_model": 9,
            "orig_tasks_chat": 6,
            "tasks_model": 8,
            "tasks_chat": 5,
            "aver_score": 0.38758107165527733
        },
        {
            "orig_tasks_model": 12,
            "orig_tasks_chat": 6,
            "tasks_model": 7,
            "tasks_chat": 4,
            "aver_score": 0.3238080106680159
        },
        {
            "orig_tasks_model": 9,
            "orig_tasks_chat": 6,
            "tasks_model": 7,
            "tasks_chat": 3,
            "aver_score": 0.35890072936373724
        },
        {
            "orig_tasks_model": 13,
            "orig_tasks_chat": 6,
            "tasks_model": 8,
            "tasks_chat": 4,
            "aver_score": 0.4230238260588428
        },
        {
            "orig_tasks_model": 16,
            "orig_tasks_chat": 6,
            "tasks_model": 9,
            "tasks_chat": 5,
            "aver_score": 0.397246703672636
        },
        {
            "orig_tasks_model": 14,
            "orig_tasks_chat": 6,
            "tasks_model": 10,
            "tasks_chat": 5,
            "aver_score": 0.3993116546746996
        },
        {
            "orig_tasks_model": 11,
            "orig_tasks_chat": 6,
            "tasks_model": 8,
            "tasks_chat": 4,
            "aver_score": 0.4592581210743126
        },
        {
            "orig_tasks_model": 11,
            "orig_tasks_chat": 6,
            "tasks_model": 2,
            "tasks_chat": 2,
            "aver_score": 0.33588136306194055
        },
        {
            "orig_tasks_model": 7,
            "orig_tasks_chat": 6,
            "tasks_model": 4,
            "tasks_chat": 3,
            "aver_score": 0.37407028039291906
        },
        {
            "orig_tasks_model": 14,
            "orig_tasks_chat": 6,
            "tasks_model": 10,
            "tasks_chat": 5,
            "aver_score": 0.47622139070452363
        },
        {
            "orig_tasks_model": 8,
            "orig_tasks_chat": 6,
            "tasks_model": 7,
            "tasks_chat": 4,
            "aver_score": 0.3815923514443841
        }
    ],
    "E_j04": [
        {
            "orig_tasks_model": 11,
            "orig_tasks_chat": 5,
            "tasks_model": 2,
            "tasks_chat": 2,
            "aver_score": 0.45791779940696165
        },
        {
            "orig_tasks_model": 14,
            "orig_tasks_chat": 5,
            "tasks_model": 7,
            "tasks_chat": 4,
            "aver_score": 0.5994303381958439
        },
        {
            "orig_tasks_model": 16,
            "orig_tasks_chat": 5,
            "tasks_model": 6,
            "tasks_chat": 2,
            "aver_score": 0.40957623953809685
        },
        {
            "orig_tasks_model": 10,
            "orig_tasks_chat": 5,
            "tasks_model": 7,
            "tasks_chat": 3,
            "aver_score": 0.3877737912539378
        },
        {
            "orig_tasks_model": 13,
            "orig_tasks_chat": 5,
            "tasks_model": 5,
            "tasks_chat": 4,
            "aver_score": 0.3130617530231522
        },
        {
            "orig_tasks_model": 7,
            "orig_tasks_chat": 5,
            "tasks_model": 5,
            "tasks_chat": 3,
            "aver_score": 0.31246079486036643
        },
        {
            "orig_tasks_model": 15,
            "orig_tasks_chat": 5,
            "tasks_model": 4,
            "tasks_chat": 3,
            "aver_score": 0.2459150264166764
        },
        {
            "orig_tasks_model": 2,
            "orig_tasks_chat": 5,
            "tasks_model": 0,
            "tasks_chat": 0,
            "aver_score": 0
        },
        {
            "orig_tasks_model": 17,
            "orig_tasks_chat": 5,
            "tasks_model": 12,
            "tasks_chat": 3,
            "aver_score": 0.31512852541093345
        }
    ],
    "G_j01": [
        {
            "orig_tasks_model": 11,
            "orig_tasks_chat": 7,
            "tasks_model": 7,
            "tasks_chat": 4,
            "aver_score": 0.40935700731679364
        },
        {
            "orig_tasks_model": 16,
            "orig_tasks_chat": 7,
            "tasks_model": 7,
            "tasks_chat": 3,
            "aver_score": 0.3938066606027745
        },
        {
            "orig_tasks_model": 15,
            "orig_tasks_chat": 7,
            "tasks_model": 9,
            "tasks_chat": 5,
            "aver_score": 0.37707119993264027
        },
        {
            "orig_tasks_model": 5,
            "orig_tasks_chat": 7,
            "tasks_model": 1,
            "tasks_chat": 1,
            "aver_score": 0.26055567105626243
        },
        {
            "orig_tasks_model": 3,
            "orig_tasks_chat": 7,
            "tasks_model": 1,
            "tasks_chat": 1,
            "aver_score": 0.2605556710562624
        },
        {
            "orig_tasks_model": 21,
            "orig_tasks_chat": 7,
            "tasks_model": 7,
            "tasks_chat": 3,
            "aver_score": 0.3319440239695705
        }
    ],
    "V_k08": [
        {
            "orig_tasks_model": 14,
            "orig_tasks_chat": 12,
            "tasks_model": 10,
            "tasks_chat": 7,
            "aver_score": 0.7063985764240321
        },
        {
            "orig_tasks_model": 13,
            "orig_tasks_chat": 12,
            "tasks_model": 5,
            "tasks_chat": 4,
            "aver_score": 0.3324618948003083
        },
        {
            "orig_tasks_model": 13,
            "orig_tasks_chat": 12,
            "tasks_model": 10,
            "tasks_chat": 7,
            "aver_score": 0.44710967710639976
        },
        {
            "orig_tasks_model": 12,
            "orig_tasks_chat": 12,
            "tasks_model": 11,
            "tasks_chat": 7,
            "aver_score": 0.3577351178043614
        },
        {
            "orig_tasks_model": 1,
            "orig_tasks_chat": 12,
            "tasks_model": 0,
            "tasks_chat": 0,
            "aver_score": 0
        },
        {
            "orig_tasks_model": 13,
            "orig_tasks_chat": 12,
            "tasks_model": 11,
            "tasks_chat": 10,
            "aver_score": 0.6725459508971662
        },
        {
            "orig_tasks_model": 17,
            "orig_tasks_chat": 12,
            "tasks_model": 14,
            "tasks_chat": 11,
            "aver_score": 0.5824382148166378
        }
    ],
    "V_k09": [
        {
            "orig_tasks_model": 9,
            "orig_tasks_chat": 9,
            "tasks_model": 7,
            "tasks_chat": 7,
            "aver_score": 0.45511765686676536
        },
        {
            "orig_tasks_model": 8,
            "orig_tasks_chat": 9,
            "tasks_model": 6,
            "tasks_chat": 5,
            "aver_score": 0.6979847951986508
        },
        {
            "orig_tasks_model": 12,
            "orig_tasks_chat": 9,
            "tasks_model": 3,
            "tasks_chat": 3,
            "aver_score": 0.6134314475313095
        },
        {
            "orig_tasks_model": 11,
            "orig_tasks_chat": 9,
            "tasks_model": 5,
            "tasks_chat": 3,
            "aver_score": 0.31633876705365654
        },
        {
            "orig_tasks_model": 9,
            "orig_tasks_chat": 9,
            "tasks_model": 8,
            "tasks_chat": 8,
            "aver_score": 0.6670521325957482
        },
        {
            "orig_tasks_model": 14,
            "orig_tasks_chat": 9,
            "tasks_model": 9,
            "tasks_chat": 6,
            "aver_score": 0.4820967947161408
        },
        {
            "orig_tasks_model": 7,
            "orig_tasks_chat": 9,
            "tasks_model": 6,
            "tasks_chat": 6,
            "aver_score": 0.4900667827165071
        },
        {
            "orig_tasks_model": 9,
            "orig_tasks_chat": 9,
            "tasks_model": 7,
            "tasks_chat": 7,
            "aver_score": 0.4335652726983313
        }
    ],
    "X_g01": [
        {
            "orig_tasks_model": 10,
            "orig_tasks_chat": 10,
            "tasks_model": 7,
            "tasks_chat": 4,
            "aver_score": 0.25999724360564025
        },
        {
            "orig_tasks_model": 7,
            "orig_tasks_chat": 10,
            "tasks_model": 5,
            "tasks_chat": 3,
            "aver_score": 0.6460148761715944
        },
        {
            "orig_tasks_model": 13,
            "orig_tasks_chat": 10,
            "tasks_model": 11,
            "tasks_chat": 9,
            "aver_score": 0.649725778733037
        },
        {
            "orig_tasks_model": 7,
            "orig_tasks_chat": 10,
            "tasks_model": 3,
            "tasks_chat": 3,
            "aver_score": 0.5744635876589871
        },
        {
            "orig_tasks_model": 14,
            "orig_tasks_chat": 10,
            "tasks_model": 7,
            "tasks_chat": 4,
            "aver_score": 0.4699851855674311
        },
        {
            "orig_tasks_model": 17,
            "orig_tasks_chat": 10,
            "tasks_model": 11,
            "tasks_chat": 6,
            "aver_score": 0.397411234841827
        }
    ]
}