{
    "E_j01": [
        {
            "orig_tasks_model": 11,
            "orig_tasks_chat": 7,
            "tasks_model": 5,
            "tasks_chat": 4,
            "aver_score": 0.5133011071990113
        },
        {
            "orig_tasks_model": 10,
            "orig_tasks_chat": 7,
            "tasks_model": 3,
            "tasks_chat": 3,
            "aver_score": 0.5322175327775067
        },
        {
            "orig_tasks_model": 11,
            "orig_tasks_chat": 7,
            "tasks_model": 7,
            "tasks_chat": 4,
            "aver_score": 0.3841971695876985
        },
        {
            "orig_tasks_model": 9,
            "orig_tasks_chat": 7,
            "tasks_model": 5,
            "tasks_chat": 3,
            "aver_score": 0.25837164037840926
        },
        {
            "orig_tasks_model": 13,
            "orig_tasks_chat": 7,
            "tasks_model": 8,
            "tasks_chat": 5,
            "aver_score": 0.33314757992255706
        },
        {
            "orig_tasks_model": 18,
            "orig_tasks_chat": 7,
            "tasks_model": 8,
            "tasks_chat": 4,
            "aver_score": 0.38400800432455723
        },
        {
            "orig_tasks_model": 9,
            "orig_tasks_chat": 7,
            "tasks_model": 4,
            "tasks_chat": 3,
            "aver_score": 0.3442146077592327
        },
        {
            "orig_tasks_model": 10,
            "orig_tasks_chat": 7,
            "tasks_model": 3,
            "tasks_chat": 2,
            "aver_score": 0.4157957621268166
        },
        {
            "orig_tasks_model": 19,
            "orig_tasks_chat": 7,
            "tasks_model": 11,
            "tasks_chat": 4,
            "aver_score": 0.36251618668656976
        },
        {
            "orig_tasks_model": 12,
            "orig_tasks_chat": 7,
            "tasks_model": 8,
            "tasks_chat": 5,
            "aver_score": 0.4822666726354572
        },
        {
            "orig_tasks_model": 10,
            "orig_tasks_chat": 7,
            "tasks_model": 5,
            "tasks_chat": 3,
            "aver_score": 0.5365673828232022
        }
    ],
    "G_g01": [
        {
            "orig_tasks_model": 13,
            "orig_tasks_chat": 9,
            "tasks_model": 4,
            "tasks_chat": 3,
            "aver_score": 0.5296126790647324
        },
        {
            "orig_tasks_model": 10,
            "orig_tasks_chat": 9,
            "tasks_model": 6,
            "tasks_chat": 4,
            "aver_score": 0.27365370933835625
        },
        {
            "orig_tasks_model": 8,
            "orig_tasks_chat": 9,
            "tasks_model": 4,
            "tasks_chat": 2,
            "aver_score": 0.3391029749843957
        },
        {
            "orig_tasks_model": 13,
            "orig_tasks_chat": 9,
            "tasks_model": 6,
            "tasks_chat": 4,
            "aver_score": 0.33222200312742256
        },
        {
            "orig_tasks_model": 7,
            "orig_tasks_chat": 9,
            "tasks_model": 4,
            "tasks_chat": 4,
            "aver_score": 0.26055567105626243
        },
        {
            "orig_tasks_model": 11,
            "orig_tasks_chat": 9,
            "tasks_model": 3,
            "tasks_chat": 3,
            "aver_score": 0.44206608125536934
        },
        {
            "orig_tasks_model": 7,
            "orig_tasks_chat": 9,
            "tasks_model": 7,
            "tasks_chat": 6,
            "aver_score": 0.46267134150679595
        },
        {
            "orig_tasks_model": 8,
            "orig_tasks_chat": 9,
            "tasks_model": 4,
            "tasks_chat": 3,
            "aver_score": 0.3071447330976506
        }
    ],
    "G_g03": [
        {
            "orig_tasks_model": 18,
            "orig_tasks_chat": 9,
            "tasks_model": 9,
            "tasks_chat": 7,
            "aver_score": 0.5101812355273584
        },
        {
            "orig_tasks_model": 13,
            "orig_tasks_chat": 9,
            "tasks_model": 8,
            "tasks_chat": 7,
            "aver_score": 0.4493469567027164
        },
        {
            "orig_tasks_model": 7,
            "orig_tasks_chat": 9,
            "tasks_model": 6,
            "tasks_chat": 3,
            "aver_score": 0.43290759382824767
        },
        {
            "orig_tasks_model": 20,
            "orig_tasks_chat": 9,
            "tasks_model": 13,
            "tasks_chat": 9,
            "aver_score": 0.3699941011881569
        },
        {
            "orig_tasks_model": 14,
            "orig_tasks_chat": 9,
            "tasks_model": 10,
            "tasks_chat": 9,
            "aver_score": 0.4940380337019706
        },
        {
            "orig_tasks_model": 12,
            "orig_tasks_chat": 9,
            "tasks_model": 9,
            "tasks_chat": 8,
            "aver_score": 0.49315280588461463
        },
        {
            "orig_tasks_model": 15,
            "orig_tasks_chat": 9,
            "tasks_model": 11,
            "tasks_chat": 8,
            "aver_score": 0.4553313477726601
        },
        {
            "orig_tasks_model": 15,
            "orig_tasks_chat": 9,
            "tasks_model": 12,
            "tasks_chat": 9,
            "aver_score": 0.5142319022658491
        }
    ],
    "M_g01": [
        {
            "orig_tasks_model": 6,
            "orig_tasks_chat": 9,
            "tasks_model": 4,
            "tasks_chat": 4,
            "aver_score": 0.4714221341191149
        },
        {
            "orig_tasks_model": 13,
            "orig_tasks_chat": 9,
            "tasks_model": 8,
            "tasks_chat": 5,
            "aver_score": 0.5021964704243983
        },
        {
            "orig_tasks_model": 14,
            "orig_tasks_chat": 9,
            "tasks_model": 11,
            "tasks_chat": 7,
            "aver_score": 0.47721482371777846
        },
        {
            "orig_tasks_model": 14,
            "orig_tasks_chat": 9,
            "tasks_model": 9,
            "tasks_chat": 8,
            "aver_score": 0.5131673912405915
        },
        {
            "orig_tasks_model": 12,
            "orig_tasks_chat": 9,
            "tasks_model": 9,
            "tasks_chat": 8,
            "aver_score": 0.44887763243829526
        },
        {
            "orig_tasks_model": 10,
            "orig_tasks_chat": 9,
            "tasks_model": 8,
            "tasks_chat": 7,
            "aver_score": 0.47276250465243097
        },
        {
            "orig_tasks_model": 16,
            "orig_tasks_chat": 9,
            "tasks_model": 12,
            "tasks_chat": 9,
            "aver_score": 0.5857760008146226
        },
        {
            "orig_tasks_model": 0,
            "orig_tasks_chat": 9,
            "tasks_model": 0,
            "tasks_chat": 0,
            "aver_score": 0
        },
        {
            "orig_tasks_model": 9,
            "orig_tasks_chat": 9,
            "tasks_model": 6,
            "tasks_chat": 3,
            "aver_score": 0.5080821099870182
        },
        {
            "orig_tasks_model": 5,
            "orig_tasks_chat": 9,
            "tasks_model": 3,
            "tasks_chat": 2,
            "aver_score": 0.3921304232900619
        },
        {
            "orig_tasks_model": 12,
            "orig_tasks_chat": 9,
            "tasks_model": 10,
            "tasks_chat": 8,
            "aver_score": 0.5769508435860922
        }
    ],
    "M_g02": [
        {
            "orig_tasks_model": 16,
            "orig_tasks_chat": 7,
            "tasks_model": 12,
            "tasks_chat": 5,
            "aver_score": 0.38884060150711813
        },
        {
            "orig_tasks_model": 12,
            "orig_tasks_chat": 7,
            "tasks_model": 8,
            "tasks_chat": 5,
            "aver_score": 0.4970912442470068
        },
        {
            "orig_tasks_model": 9,
            "orig_tasks_chat": 7,
            "tasks_model": 6,
            "tasks_chat": 5,
            "aver_score": 0.5046746796395122
        },
        {
            "orig_tasks_model": 12,
            "orig_tasks_chat": 7,
            "tasks_model": 7,
            "tasks_chat": 3,
            "aver_score": 0.41995323782887023
        },
        {
            "orig_tasks_model": 10,
            "orig_tasks_chat": 7,
            "tasks_model": 6,
            "tasks_chat": 5,
            "aver_score": 0.6034222761404986
        },
        {
            "orig_tasks_model": 10,
            "orig_tasks_chat": 7,
            "tasks_model": 4,
            "tasks_chat": 3,
            "aver_score": 0.562235346995402
        },
        {
            "orig_tasks_model": 14,
            "orig_tasks_chat": 7,
            "tasks_model": 5,
            "tasks_chat": 5,
            "aver_score": 0.5418528112166587
        },
        {
            "orig_tasks_model": 10,
            "orig_tasks_chat": 7,
            "tasks_model": 6,
            "tasks_chat": 5,
            "aver_score": 0.5630997532413065
        },
        {
            "orig_tasks_model": 10,
            "orig_tasks_chat": 7,
            "tasks_model": 4,
            "tasks_chat": 3,
            "aver_score": 0.33037869427129746
        }
    ],
    "M_j01": [
        {
            "orig_tasks_model": 12,
            "orig_tasks_chat": 7,
            "tasks_model": 3,
            "tasks_chat": 3,
            "aver_score": 0.4350095603301542
        },
        {
            "orig_tasks_model": 10,
            "orig_tasks_chat": 7,
            "tasks_model": 8,
            "tasks_chat": 4,
            "aver_score": 0.39472983853370913
        },
        {
            "orig_tasks_model": 13,
            "orig_tasks_chat": 7,
            "tasks_model": 5,
            "tasks_chat": 3,
            "aver_score": 0.30186762110074905
        },
        {
            "orig_tasks_model": 12,
            "orig_tasks_chat": 7,
            "tasks_model": 8,
            "tasks_chat": 5,
            "aver_score": 0.41343703631390527
        },
        {
            "orig_tasks_model": 19,
            "orig_tasks_chat": 7,
            "tasks_model": 9,
            "tasks_chat": 5,
            "aver_score": 0.34460134829654027
        },
        {
            "orig_tasks_model": 23,
            "orig_tasks_chat": 7,
            "tasks_model": 15,
            "tasks_chat": 7,
            "aver_score": 0.45065421520076215
        },
        {
            "orig_tasks_model": 13,
            "orig_tasks_chat": 7,
            "tasks_model": 9,
            "tasks_chat": 4,
            "aver_score": 0.40142255928460346
        },
        {
            "orig_tasks_model": 27,
            "orig_tasks_chat": 7,
            "tasks_model": 14,
            "tasks_chat": 5,
            "aver_score": 0.35298475188986494
        },
        {
            "orig_tasks_model": 14,
            "orig_tasks_chat": 7,
            "tasks_model": 12,
            "tasks_chat": 5,
            "aver_score": 0.35026000114964956
        },
        {
            "orig_tasks_model": 9,
            "orig_tasks_chat": 7,
            "tasks_model": 6,
            "tasks_chat": 5,
            "aver_score": 0.5241915674383638
        }
    ],
    "M_j02": [
        {
            "orig_tasks_model": 21,
            "orig_tasks_chat": 15,
            "tasks_model": 14,
            "tasks_chat": 8,
            "aver_score": 0.34601540344444176
        },
        {
            "orig_tasks_model": 9,
            "orig_tasks_chat": 15,
            "tasks_model": 5,
            "tasks_chat": 5,
            "aver_score": 0.7099183218400406
        },
        {
            "orig_tasks_model": 9,
            "orig_tasks_chat": 15,
            "tasks_model": 4,
            "tasks_chat": 4,
            "aver_score": 0.5664205861110904
        },
        {
            "orig_tasks_model": 0,
            "orig_tasks_chat": 15,
            "tasks_model": 0,
            "tasks_chat": 0,
            "aver_score": 0
        },
        {
            "orig_tasks_model": 21,
            "orig_tasks_chat": 15,
            "tasks_model": 14,
            "tasks_chat": 9,
            "aver_score": 0.44230058444420195
        },
        {
            "orig_tasks_model": 14,
            "orig_tasks_chat": 15,
            "tasks_model": 7,
            "tasks_chat": 5,
            "aver_score": 0.46286374462434654
        },
        {
            "orig_tasks_model": 29,
            "orig_tasks_chat": 15,
            "tasks_model": 24,
            "tasks_chat": 9,
            "aver_score": 0.32661796406343807
        },
        {
            "orig_tasks_model": 20,
            "orig_tasks_chat": 15,
            "tasks_model": 10,
            "tasks_chat": 6,
            "aver_score": 0.551815826777197
        },
        {
            "orig_tasks_model": 13,
            "orig_tasks_chat": 15,
            "tasks_model": 3,
            "tasks_chat": 2,
            "aver_score": 0.42991025303930347
        },
        {
            "orig_tasks_model": 18,
            "orig_tasks_chat": 15,
            "tasks_model": 14,
            "tasks_chat": 8,
            "aver_score": 0.4874942746206109
        }
    ],
    "M_j03": [
        {
            "orig_tasks_model": 11,
            "orig_tasks_chat": 9,
            "tasks_model": 5,
            "tasks_chat": 4,
            "aver_score": 0.3545120082883363
        },
        {
            "orig_tasks_model": 14,
            "orig_tasks_chat": 9,
            "tasks_model": 6,
            "tasks_chat": 3,
            "aver_score": 0.3229299840183598
        },
        {
            "orig_tasks_model": 7,
            "orig_tasks_chat": 9,
            "tasks_model": 2,
            "tasks_chat": 2,
            "aver_score": 0.31358301482908146
        },
        {
            "orig_tasks_model": 5,
            "orig_tasks_chat": 9,
            "tasks_model": 3,
            "tasks_chat": 3,
            "aver_score": 0.25012047828804146
        },
        {
            "orig_tasks_model": 11,
            "orig_tasks_chat": 9,
            "tasks_model": 5,
            "tasks_chat": 4,
            "aver_score": 0.350852996675554
        },
        {
            "orig_tasks_model": 6,
            "orig_tasks_chat": 9,
            "tasks_model": 1,
            "tasks_chat": 1,
            "aver_score": 0.5101490193104813
        },
        {
            "orig_tasks_model": 21,
            "orig_tasks_chat": 9,
            "tasks_model": 4,
            "tasks_chat": 3,
            "aver_score": 0.25930722486404484
        },
        {
            "orig_tasks_model": 13,
            "orig_tasks_chat": 9,
            "tasks_model": 3,
            "tasks_chat": 3,
            "aver_score": 0.3733841532093167
        },
        {
            "orig_tasks_model": 10,
            "orig_tasks_chat": 9,
            "tasks_model": 5,
            "tasks_chat": 2,
            "aver_score": 0.3663107496857319
        },
        {
            "orig_tasks_model": 13,
            "orig_tasks_chat": 9,
            "tasks_model": 2,
            "tasks_chat": 2,
            "aver_score": 0.2781925389190436
        }
    ],
    "M_k05": [
        {
            "orig_tasks_model": 14,
            "orig_tasks_chat": 8,
            "tasks_model": 6,
            "tasks_chat": 5,
            "aver_score": 0.3721059730778736
        },
        {
            "orig_tasks_model": 14,
            "orig_tasks_chat": 8,
            "tasks_model": 6,
            "tasks_chat": 4,
            "aver_score": 0.3809213666948219
        },
        {
            "orig_tasks_model": 11,
            "orig_tasks_chat": 8,
            "tasks_model": 6,
            "tasks_chat": 4,
            "aver_score": 0.6195980080725078
        },
        {
            "orig_tasks_model": 13,
            "orig_tasks_chat": 8,
            "tasks_model": 10,
            "tasks_chat": 7,
            "aver_score": 0.4638242168041275
        },
        {
            "orig_tasks_model": 11,
            "orig_tasks_chat": 8,
            "tasks_model": 8,
            "tasks_chat": 7,
            "aver_score": 0.45629219675547805
        },
        {
            "orig_tasks_model": 10,
            "orig_tasks_chat": 8,
            "tasks_model": 8,
            "tasks_chat": 5,
            "aver_score": 0.5027265357315266
        },
        {
            "orig_tasks_model": 18,
            "orig_tasks_chat": 8,
            "tasks_model": 12,
            "tasks_chat": 7,
            "aver_score": 0.5418567431990814
        },
        {
            "orig_tasks_model": 17,
            "orig_tasks_chat": 8,
            "tasks_model": 15,
            "tasks_chat": 7,
            "aver_score": 0.47077524876094456
        }
    ],
    "R_g01": [
        {
            "orig_tasks_model": 9,
            "orig_tasks_chat": 8,
            "tasks_model": 4,
            "tasks_chat": 4,
            "aver_score": 0.5583903752320146
        },
        {
            "orig_tasks_model": 15,
            "orig_tasks_chat": 8,
            "tasks_model": 10,
            "tasks_chat": 7,
            "aver_score": 0.4176040018567041
        },
        {
            "orig_tasks_model": 11,
            "orig_tasks_chat": 8,
            "tasks_model": 8,
            "tasks_chat": 7,
            "aver_score": 0.49604790838597185
        },
        {
            "orig_tasks_model": 1,
            "orig_tasks_chat": 8,
            "tasks_model": 1,
            "tasks_chat": 1,
            "aver_score": 0.5023287782256718
        },
        {
            "orig_tasks_model": 14,
            "orig_tasks_chat": 8,
            "tasks_model": 5,
            "tasks_chat": 5,
            "aver_score": 0.5068769384957508
        },
        {
            "orig_tasks_model": 9,
            "orig_tasks_chat": 8,
            "tasks_model": 9,
            "tasks_chat": 5,
            "aver_score": 0.3866135104957914
        },
        {
            "orig_tasks_model": 14,
            "orig_tasks_chat": 8,
            "tasks_model": 6,
            "tasks_chat": 5,
            "aver_score": 0.38647853340612887
        },
        {
            "orig_tasks_model": 11,
            "orig_tasks_chat": 8,
            "tasks_model": 5,
            "tasks_chat": 4,
            "aver_score": 0.35334094530238
        },
        {
            "orig_tasks_model": 11,
            "orig_tasks_chat": 8,
            "tasks_model": 8,
            "tasks_chat": 6,
            "aver_score": 0.4988791322638232
        },
        {
            "orig_tasks_model": 13,
            "orig_tasks_chat": 8,
            "tasks_model": 9,
            "tasks_chat": 6,
            "aver_score": 0.4011072497796011
        },
        {
            "orig_tasks_model": 15,
            "orig_tasks_chat": 8,
            "tasks_model": 10,
            "tasks_chat": 7,
            "aver_score": 0.455256769245559
        },
        {
            "orig_tasks_model": 13,
            "orig_tasks_chat": 8,
            "tasks_model": 5,
            "tasks_chat": 5,
            "aver_score": 0.5926826546232411
        }
    ],
    "R_j01": [
        {
            "orig_tasks_model": 6,
            "orig_tasks_chat": 8,
            "tasks_model": 5,
            "tasks_chat": 4,
            "aver_score": 0.7509382920977611
        },
        {
            "orig_tasks_model": 10,
            "orig_tasks_chat": 8,
            "tasks_model": 5,
            "tasks_chat": 3,
            "aver_score": 0.6762982242317579
        },
        {
            "orig_tasks_model": 9,
            "orig_tasks_chat": 8,
            "tasks_model": 9,
            "tasks_chat": 5,
            "aver_score": 0.7251375572778472
        },
        {
            "orig_tasks_model": 12,
            "orig_tasks_chat": 8,
            "tasks_model": 7,
            "tasks_chat": 4,
            "aver_score": 0.5517621346824116
        },
        {
            "orig_tasks_model": 7,
            "orig_tasks_chat": 8,
            "tasks_model": 4,
            "tasks_chat": 3,
            "aver_score": 0.6180454289720521
        },
        {
            "orig_tasks_model": 16,
            "orig_tasks_chat": 8,
            "tasks_model": 10,
            "tasks_chat": 5,
            "aver_score": 0.42218719903913354
        },
        {
            "orig_tasks_model": 7,
            "orig_tasks_chat": 8,
            "tasks_model": 5,
            "tasks_chat": 3,
            "aver_score": 0.5508522608631706
        },
        {
            "orig_tasks_model": 12,
            "orig_tasks_chat": 8,
            "tasks_model": 8,
            "tasks_chat": 4,
            "aver_score": 0.5791779559061213
        },
        {
            "orig_tasks_model": 2,
            "orig_tasks_chat": 8,
            "tasks_model": 0,
            "tasks_chat": 0,
            "aver_score": 0
        },
        {
            "orig_tasks_model": 10,
            "orig_tasks_chat": 8,
            "tasks_model": 9,
            "tasks_chat": 5,
            "aver_score": 0.5760757835221066
        },
        {
            "orig_tasks_model": 10,
            "orig_tasks_chat": 8,
            "tasks_model": 4,
            "tasks_chat": 3,
            "aver_score": 0.8151389177640658
        }
    ],
    "R_j02": [
        {
            "orig_tasks_model": 13,
            "orig_tasks_chat": 9,
            "tasks_model": 6,
            "tasks_chat": 5,
            "aver_score": 0.5251792499904421
        },
        {
            "orig_tasks_model": 7,
            "orig_tasks_chat": 9,
            "tasks_model": 1,
            "tasks_chat": 1,
            "aver_score": 0.5031026124151314
        },
        {
            "orig_tasks_model": 8,
            "orig_tasks_chat": 9,
            "tasks_model": 2,
            "tasks_chat": 1,
            "aver_score": 0.23127438177709037
        },
        {
            "orig_tasks_model": 20,
            "orig_tasks_chat": 9,
            "tasks_model": 7,
            "tasks_chat": 4,
            "aver_score": 0.4544214473966977
        },
        {
            "orig_tasks_model": 13,
            "orig_tasks_chat": 9,
            "tasks_model": 7,
            "tasks_chat": 6,
            "aver_score": 0.44479156563718
        },
        {
            "orig_tasks_model": 7,
            "orig_tasks_chat": 9,
            "tasks_model": 7,
            "tasks_chat": 5,
            "aver_score": 0.45815522219471955
        },
        {
            "orig_tasks_model": 15,
            "orig_tasks_chat": 9,
            "tasks_model": 8,
            "tasks_chat": 4,
            "aver_score": 0.4357293624925181
        },
        {
            "orig_tasks_model": 12,
            "orig_tasks_chat": 9,
            "tasks_model": 5,
            "tasks_chat": 4,
            "aver_score": 0.5435176096870094
        },
        {
            "orig_tasks_model": 11,
            "orig_tasks_chat": 9,
            "tasks_model": 9,
            "tasks_chat": 5,
            "aver_score": 0.410324906861111
        },
        {
            "orig_tasks_model": 7,
            "orig_tasks_chat": 9,
            "tasks_model": 5,
            "tasks_chat": 3,
            "aver_score": 0.39872838529298693
        }
    ],
    "R_j03": [
        {
            "orig_tasks_model": 8,
            "orig_tasks_chat": 7,
            "tasks_model": 3,
            "tasks_chat": 2,
            "aver_score": 0.38329118924331107
        },
        {
            "orig_tasks_model": 16,
            "orig_tasks_chat": 7,
            "tasks_model": 2,
            "tasks_chat": 2,
            "aver_score": 0.31655872514559175
        },
        {
            "orig_tasks_model": 11,
            "orig_tasks_chat": 7,
            "tasks_model": 4,
            "tasks_chat": 2,
            "aver_score": 0.45423518722358747
        },
        {
            "orig_tasks_model": 14,
            "orig_tasks_chat": 7,
            "tasks_model": 3,
            "tasks_chat": 3,
            "aver_score": 0.4408324713906036
        },
        {
            "orig_tasks_model": 11,
            "orig_tasks_chat": 7,
            "tasks_model": 3,
            "tasks_chat": 2,
            "aver_score": 0.4408324713906036
        },
        {
            "orig_tasks_model": 17,
            "orig_tasks_chat": 7,
            "tasks_model": 5,
            "tasks_chat": 3,
            "aver_score": 0.2940816833908639
        },
        {
            "orig_tasks_model": 0,
            "orig_tasks_chat": 7,
            "tasks_model": 0,
            "tasks_chat": 0,
            "aver_score": 0
        },
        {
            "orig_tasks_model": 13,
            "orig_tasks_chat": 7,
            "tasks_model": 3,
            "tasks_chat": 2,
            "aver_score": 0.3710944838673702
        }
    ],
    "R_j04": [
        {
            "orig_tasks_model": 12,
            "orig_tasks_chat": 9,
            "tasks_model": 7,
            "tasks_chat": 7,
            "aver_score": 0.34527253761081
        },
        {
            "orig_tasks_model": 26,
            "orig_tasks_chat": 9,
            "tasks_model": 17,
            "tasks_chat": 8,
            "aver_score": 0.3994243732413295
        },
        {
            "orig_tasks_model": 10,
            "orig_tasks_chat": 9,
            "tasks_model": 7,
            "tasks_chat": 6,
            "aver_score": 0.5263120253421563
        },
        {
            "orig_tasks_model": 12,
            "orig_tasks_chat": 9,
            "tasks_model": 8,
            "tasks_chat": 7,
            "aver_score": 0.4651626195384863
        },
        {
            "orig_tasks_model": 10,
            "orig_tasks_chat": 9,
            "tasks_model": 6,
            "tasks_chat": 6,
            "aver_score": 0.3805791786245429
        },
        {
            "orig_tasks_model": 12,
            "orig_tasks_chat": 9,
            "tasks_model": 7,
            "tasks_chat": 6,
            "aver_score": 0.30861423572273017
        },
        {
            "orig_tasks_model": 9,
            "orig_tasks_chat": 9,
            "tasks_model": 3,
            "tasks_chat": 3,
            "aver_score": 0.3921304232900619
        },
        {
            "orig_tasks_model": 9,
            "orig_tasks_chat": 9,
            "tasks_model": 7,
            "tasks_chat": 4,
            "aver_score": 0.30851615746578226
        }
    ],
    "V_g01": [
        {
            "orig_tasks_model": 13,
            "orig_tasks_chat": 7,
            "tasks_model": 10,
            "tasks_chat": 5,
            "aver_score": 0.4288761712744812
        },
        {
            "orig_tasks_model": 12,
            "orig_tasks_chat": 7,
            "tasks_model": 9,
            "tasks_chat": 6,
            "aver_score": 0.46314275641285274
        },
        {
            "orig_tasks_model": 13,
            "orig_tasks_chat": 7,
            "tasks_model": 9,
            "tasks_chat": 5,
            "aver_score": 0.4083733842605028
        },
        {
            "orig_tasks_model": 12,
            "orig_tasks_chat": 7,
            "tasks_model": 7,
            "tasks_chat": 5,
            "aver_score": 0.5800916179182284
        },
        {
            "orig_tasks_model": 0,
            "orig_tasks_chat": 7,
            "tasks_model": 0,
            "tasks_chat": 0,
            "aver_score": 0
        },
        {
            "orig_tasks_model": 12,
            "orig_tasks_chat": 7,
            "tasks_model": 8,
            "tasks_chat": 4,
            "aver_score": 0.2539186963602933
        },
        {
            "orig_tasks_model": 21,
            "orig_tasks_chat": 7,
            "tasks_model": 1,
            "tasks_chat": 1,
            "aver_score": 0.22028815056182968
        },
        {
            "orig_tasks_model": 11,
            "orig_tasks_chat": 7,
            "tasks_model": 11,
            "tasks_chat": 5,
            "aver_score": 0.45301272723741043
        },
        {
            "orig_tasks_model": 8,
            "orig_tasks_chat": 7,
            "tasks_model": 8,
            "tasks_chat": 5,
            "aver_score": 0.27881676201515243
        },
        {
            "orig_tasks_model": 20,
            "orig_tasks_chat": 7,
            "tasks_model": 15,
            "tasks_chat": 5,
            "aver_score": 0.30949272033143244
        },
        {
            "orig_tasks_model": 13,
            "orig_tasks_chat": 7,
            "tasks_model": 1,
            "tasks_chat": 1,
            "aver_score": 0.3187840217537793
        },
        {
            "orig_tasks_model": 13,
            "orig_tasks_chat": 7,
            "tasks_model": 10,
            "tasks_chat": 5,
            "aver_score": 0.5890874042136401
        }
    ],
    "X_g03": [
        {
            "orig_tasks_model": 9,
            "orig_tasks_chat": 11,
            "tasks_model": 8,
            "tasks_chat": 6,
            "aver_score": 0.587075132148209
        },
        {
            "orig_tasks_model": 12,
            "orig_tasks_chat": 11,
            "tasks_model": 6,
            "tasks_chat": 5,
            "aver_score": 0.60167545707483
        },
        {
            "orig_tasks_model": 9,
            "orig_tasks_chat": 11,
            "tasks_model": 8,
            "tasks_chat": 4,
            "aver_score": 0.443976524030469
        },
        {
            "orig_tasks_model": 13,
            "orig_tasks_chat": 11,
            "tasks_model": 9,
            "tasks_chat": 7,
            "aver_score": 0.5795604258296403
        },
        {
            "orig_tasks_model": 16,
            "orig_tasks_chat": 11,
            "tasks_model": 11,
            "tasks_chat": 7,
            "aver_score": 0.5743915416018531
        },
        {
            "orig_tasks_model": 14,
            "orig_tasks_chat": 11,
            "tasks_model": 13,
            "tasks_chat": 7,
            "aver_score": 0.48538078297224924
        },
        {
            "orig_tasks_model": 11,
            "orig_tasks_chat": 11,
            "tasks_model": 7,
            "tasks_chat": 5,
            "aver_score": 0.4955266969744959
        },
        {
            "orig_tasks_model": 11,
            "orig_tasks_chat": 11,
            "tasks_model": 3,
            "tasks_chat": 3,
            "aver_score": 0.3051455400287664
        },
        {
            "orig_tasks_model": 7,
            "orig_tasks_chat": 11,
            "tasks_model": 6,
            "tasks_chat": 5,
            "aver_score": 0.6069359439644028
        },
        {
            "orig_tasks_model": 14,
            "orig_tasks_chat": 11,
            "tasks_model": 12,
            "tasks_chat": 9,
            "aver_score": 0.6154328534869266
        },
        {
            "orig_tasks_model": 8,
            "orig_tasks_chat": 11,
            "tasks_model": 7,
            "tasks_chat": 6,
            "aver_score": 0.6049022354001554
        }
    ],
    "E_j04": [
        {
            "orig_tasks_model": 11,
            "orig_tasks_chat": 7,
            "tasks_model": 3,
            "tasks_chat": 3,
            "aver_score": 0.340170798079426
        },
        {
            "orig_tasks_model": 14,
            "orig_tasks_chat": 7,
            "tasks_model": 5,
            "tasks_chat": 4,
            "aver_score": 0.5719440672573779
        },
        {
            "orig_tasks_model": 16,
            "orig_tasks_chat": 7,
            "tasks_model": 4,
            "tasks_chat": 3,
            "aver_score": 0.5690271816161288
        },
        {
            "orig_tasks_model": 10,
            "orig_tasks_chat": 7,
            "tasks_model": 5,
            "tasks_chat": 3,
            "aver_score": 0.45206547134510444
        },
        {
            "orig_tasks_model": 13,
            "orig_tasks_chat": 7,
            "tasks_model": 5,
            "tasks_chat": 4,
            "aver_score": 0.32982653007032925
        },
        {
            "orig_tasks_model": 7,
            "orig_tasks_chat": 7,
            "tasks_model": 4,
            "tasks_chat": 2,
            "aver_score": 0.29648488163278547
        },
        {
            "orig_tasks_model": 15,
            "orig_tasks_chat": 7,
            "tasks_model": 3,
            "tasks_chat": 3,
            "aver_score": 0.20809144518588885
        },
        {
            "orig_tasks_model": 2,
            "orig_tasks_chat": 7,
            "tasks_model": 0,
            "tasks_chat": 0,
            "aver_score": 0
        },
        {
            "orig_tasks_model": 17,
            "orig_tasks_chat": 7,
            "tasks_model": 10,
            "tasks_chat": 5,
            "aver_score": 0.28727371121809603
        }
    ],
    "G_j01": [
        {
            "orig_tasks_model": 11,
            "orig_tasks_chat": 7,
            "tasks_model": 7,
            "tasks_chat": 4,
            "aver_score": 0.4143345226449262
        },
        {
            "orig_tasks_model": 16,
            "orig_tasks_chat": 7,
            "tasks_model": 2,
            "tasks_chat": 2,
            "aver_score": 0.33609692727625756
        },
        {
            "orig_tasks_model": 15,
            "orig_tasks_chat": 7,
            "tasks_model": 7,
            "tasks_chat": 5,
            "aver_score": 0.37587849172850296
        },
        {
            "orig_tasks_model": 5,
            "orig_tasks_chat": 7,
            "tasks_model": 1,
            "tasks_chat": 1,
            "aver_score": 0.22028815056182974
        },
        {
            "orig_tasks_model": 3,
            "orig_tasks_chat": 7,
            "tasks_model": 0,
            "tasks_chat": 0,
            "aver_score": 0
        },
        {
            "orig_tasks_model": 21,
            "orig_tasks_chat": 7,
            "tasks_model": 6,
            "tasks_chat": 2,
            "aver_score": 0.3536025125481792
        }
    ],
    "V_k08": [
        {
            "orig_tasks_model": 14,
            "orig_tasks_chat": 11,
            "tasks_model": 11,
            "tasks_chat": 6,
            "aver_score": 0.6123799653448034
        },
        {
            "orig_tasks_model": 13,
            "orig_tasks_chat": 11,
            "tasks_model": 5,
            "tasks_chat": 4,
            "aver_score": 0.3324618948003083
        },
        {
            "orig_tasks_model": 13,
            "orig_tasks_chat": 11,
            "tasks_model": 11,
            "tasks_chat": 7,
            "aver_score": 0.4301502220109327
        },
        {
            "orig_tasks_model": 12,
            "orig_tasks_chat": 11,
            "tasks_model": 8,
            "tasks_chat": 6,
            "aver_score": 0.38541286745708725
        },
        {
            "orig_tasks_model": 1,
            "orig_tasks_chat": 11,
            "tasks_model": 0,
            "tasks_chat": 0,
            "aver_score": 0
        },
        {
            "orig_tasks_model": 13,
            "orig_tasks_chat": 11,
            "tasks_model": 12,
            "tasks_chat": 9,
            "aver_score": 0.5558411555709318
        },
        {
            "orig_tasks_model": 17,
            "orig_tasks_chat": 11,
            "tasks_model": 17,
            "tasks_chat": 9,
            "aver_score": 0.5075135393323003
        }
    ],
    "V_k09": [
        {
            "orig_tasks_model": 9,
            "orig_tasks_chat": 9,
            "tasks_model": 6,
            "tasks_chat": 5,
            "aver_score": 0.5266773182860948
        },
        {
            "orig_tasks_model": 8,
            "orig_tasks_chat": 9,
            "tasks_model": 4,
            "tasks_chat": 4,
            "aver_score": 0.5952649981825389
        },
        {
            "orig_tasks_model": 12,
            "orig_tasks_chat": 9,
            "tasks_model": 9,
            "tasks_chat": 6,
            "aver_score": 0.32819792280416
        },
        {
            "orig_tasks_model": 11,
            "orig_tasks_chat": 9,
            "tasks_model": 7,
            "tasks_chat": 5,
            "aver_score": 0.33725783786716496
        },
        {
            "orig_tasks_model": 9,
            "orig_tasks_chat": 9,
            "tasks_model": 8,
            "tasks_chat": 7,
            "aver_score": 0.5795627864669276
        },
        {
            "orig_tasks_model": 14,
            "orig_tasks_chat": 9,
            "tasks_model": 6,
            "tasks_chat": 4,
            "aver_score": 0.37423862749099923
        },
        {
            "orig_tasks_model": 7,
            "orig_tasks_chat": 9,
            "tasks_model": 5,
            "tasks_chat": 5,
            "aver_score": 0.23713063963292477
        },
        {
            "orig_tasks_model": 9,
            "orig_tasks_chat": 9,
            "tasks_model": 7,
            "tasks_chat": 6,
            "aver_score": 0.46895104871852794
        }
    ],
    "X_g01": [
        {
            "orig_tasks_model": 10,
            "orig_tasks_chat": 8,
            "tasks_model": 5,
            "tasks_chat": 3,
            "aver_score": 0.28271866944537394
        },
        {
            "orig_tasks_model": 7,
            "orig_tasks_chat": 8,
            "tasks_model": 2,
            "tasks_chat": 1,
            "aver_score": 0.29832629916625997
        },
        {
            "orig_tasks_model": 13,
            "orig_tasks_chat": 8,
            "tasks_model": 7,
            "tasks_chat": 7,
            "aver_score": 0.5102331727690222
        },
        {
            "orig_tasks_model": 7,
            "orig_tasks_chat": 8,
            "tasks_model": 3,
            "tasks_chat": 3,
            "aver_score": 0.2723135829647832
        },
        {
            "orig_tasks_model": 14,
            "orig_tasks_chat": 8,
            "tasks_model": 6,
            "tasks_chat": 4,
            "aver_score": 0.33222200312742256
        },
        {
            "orig_tasks_model": 17,
            "orig_tasks_chat": 8,
            "tasks_model": 4,
            "tasks_chat": 3,
            "aver_score": 0.4831873814021944
        }
    ]
}